127.0.0.1 - - [21/May/2018:12:12:37 -0600] "HEAD /netbeans-tomcat-status-test HTTP/1.1" 404 -
127.0.0.1 - - [21/May/2018:12:12:37 -0600] "GET /manager/text/ HTTP/1.1" 401 2536
127.0.0.1 - root [21/May/2018:12:12:39 -0600] "GET /manager/text/ HTTP/1.1" 200 44
127.0.0.1 - - [21/May/2018:12:12:39 -0600] "HEAD /netbeans-tomcat-status-test HTTP/1.1" 404 -
127.0.0.1 - root [21/May/2018:12:12:39 -0600] "GET /manager/text/ HTTP/1.1" 200 44
127.0.0.1 - - [21/May/2018:12:12:39 -0600] "HEAD /netbeans-tomcat-status-test HTTP/1.1" 404 -
127.0.0.1 - root [21/May/2018:12:12:39 -0600] "GET /manager/text/ HTTP/1.1" 200 44
127.0.0.1 - - [21/May/2018:12:12:39 -0600] "HEAD /netbeans-tomcat-status-test HTTP/1.1" 404 -
127.0.0.1 - root [21/May/2018:12:12:39 -0600] "GET /manager/text/ HTTP/1.1" 200 44
127.0.0.1 - root [21/May/2018:12:12:40 -0600] "GET /manager/text/list HTTP/1.1" 200 411
127.0.0.1 - root [21/May/2018:12:12:40 -0600] "GET /manager/text/list HTTP/1.1" 200 411
127.0.0.1 - root [21/May/2018:12:12:40 -0600] "GET /manager/text/undeploy?path=/MVC HTTP/1.1" 200 73
127.0.0.1 - root [21/May/2018:12:12:41 -0600] "GET /manager/text/deploy?config=file%3A%2FC%3A%2FUsers%2Fadmin%2FAppData%2FLocal%2FTemp%2Fcontext5004656093511990469.xml&path=/MVC HTTP/1.1" 200 74
127.0.0.1 - root [21/May/2018:12:12:41 -0600] "GET /manager/text/start?path=/MVC HTTP/1.1" 200 73
127.0.0.1 - - [21/May/2018:12:12:41 -0600] "HEAD /netbeans-tomcat-status-test HTTP/1.1" 404 -
127.0.0.1 - root [21/May/2018:12:12:41 -0600] "GET /manager/text/ HTTP/1.1" 200 44
0:0:0:0:0:0:0:1 - - [21/May/2018:12:12:42 -0600] "GET /MVC/Index.jsp HTTP/1.1" 200 860
0:0:0:0:0:0:0:1 - - [21/May/2018:12:12:42 -0600] "GET /MVC/css/bootstrap.min.css HTTP/1.1" 200 140421
127.0.0.1 - - [21/May/2018:12:14:12 -0600] "HEAD /netbeans-tomcat-status-test HTTP/1.1" 404 -
127.0.0.1 - root [21/May/2018:12:14:12 -0600] "GET /manager/text/ HTTP/1.1" 200 44
127.0.0.1 - - [21/May/2018:12:14:12 -0600] "HEAD /netbeans-tomcat-status-test HTTP/1.1" 404 -
127.0.0.1 - root [21/May/2018:12:14:12 -0600] "GET /manager/text/ HTTP/1.1" 200 44
127.0.0.1 - - [21/May/2018:12:14:12 -0600] "HEAD /netbeans-tomcat-status-test HTTP/1.1" 404 -
127.0.0.1 - root [21/May/2018:12:14:12 -0600] "GET /manager/text/ HTTP/1.1" 200 44
127.0.0.1 - root [21/May/2018:12:14:12 -0600] "GET /manager/text/list HTTP/1.1" 200 412
127.0.0.1 - - [21/May/2018:12:14:12 -0600] "HEAD /netbeans-tomcat-status-test HTTP/1.1" 404 -
127.0.0.1 - root [21/May/2018:12:14:12 -0600] "GET /manager/text/ HTTP/1.1" 200 44
0:0:0:0:0:0:0:1 - - [21/May/2018:12:14:12 -0600] "GET /MVC/Index.jsp HTTP/1.1" 200 911
0:0:0:0:0:0:0:1 - - [21/May/2018:12:14:12 -0600] "GET /MVC/css/bootstrap.min.css HTTP/1.1" 200 140421
0:0:0:0:0:0:0:1 - - [21/May/2018:12:14:12 -0600] "GET /favicon.ico HTTP/1.1" 200 21630
0:0:0:0:0:0:0:1 - - [21/May/2018:12:14:16 -0600] "GET /MVC/Index.jsp HTTP/1.1" 200 911
0:0:0:0:0:0:0:1 - - [21/May/2018:12:14:16 -0600] "GET /favicon.ico HTTP/1.1" 200 21630
0:0:0:0:0:0:0:1 - - [21/May/2018:12:23:45 -0600] "GET /MVC/catalogoProductos HTTP/1.1" 200 416
127.0.0.1 - - [21/May/2018:12:35:20 -0600] "HEAD /netbeans-tomcat-status-test HTTP/1.1" 404 -
127.0.0.1 - root [21/May/2018:12:35:20 -0600] "GET /manager/text/ HTTP/1.1" 200 44
127.0.0.1 - - [21/May/2018:12:35:20 -0600] "HEAD /netbeans-tomcat-status-test HTTP/1.1" 404 -
127.0.0.1 - root [21/May/2018:12:35:20 -0600] "GET /manager/text/ HTTP/1.1" 200 44
127.0.0.1 - - [21/May/2018:12:35:20 -0600] "HEAD /netbeans-tomcat-status-test HTTP/1.1" 404 -
127.0.0.1 - root [21/May/2018:12:35:20 -0600] "GET /manager/text/ HTTP/1.1" 200 44
127.0.0.1 - root [21/May/2018:12:35:20 -0600] "GET /manager/text/list HTTP/1.1" 200 412
127.0.0.1 - root [21/May/2018:12:35:20 -0600] "GET /manager/text/reload?path=/MVC HTTP/1.1" 200 73
127.0.0.1 - - [21/May/2018:12:35:20 -0600] "HEAD /netbeans-tomcat-status-test HTTP/1.1" 404 -
127.0.0.1 - root [21/May/2018:12:35:20 -0600] "GET /manager/text/ HTTP/1.1" 200 44
127.0.0.1 - - [21/May/2018:12:41:41 -0600] "HEAD /netbeans-tomcat-status-test HTTP/1.1" 404 -
127.0.0.1 - - [21/May/2018:12:41:41 -0600] "GET /manager/text/ HTTP/1.1" 401 2536
127.0.0.1 - root [21/May/2018:12:41:42 -0600] "GET /manager/text/ HTTP/1.1" 200 44
127.0.0.1 - - [21/May/2018:12:41:42 -0600] "HEAD /netbeans-tomcat-status-test HTTP/1.1" 404 -
127.0.0.1 - root [21/May/2018:12:41:42 -0600] "GET /manager/text/ HTTP/1.1" 200 44
127.0.0.1 - - [21/May/2018:12:41:42 -0600] "HEAD /netbeans-tomcat-status-test HTTP/1.1" 404 -
127.0.0.1 - root [21/May/2018:12:41:42 -0600] "GET /manager/text/ HTTP/1.1" 200 44
127.0.0.1 - - [21/May/2018:12:41:42 -0600] "HEAD /netbeans-tomcat-status-test HTTP/1.1" 404 -
127.0.0.1 - root [21/May/2018:12:41:42 -0600] "GET /manager/text/ HTTP/1.1" 200 44
127.0.0.1 - root [21/May/2018:12:41:43 -0600] "GET /manager/text/list HTTP/1.1" 200 412
127.0.0.1 - root [21/May/2018:12:41:43 -0600] "GET /manager/text/list HTTP/1.1" 200 412
127.0.0.1 - root [21/May/2018:12:41:43 -0600] "GET /manager/text/deploy?config=file%3A%2FC%3A%2FUsers%2Fadmin%2FAppData%2FLocal%2FTemp%2Fcontext4705110767205095724.xml&path=/MVCJSP HTTP/1.1" 200 77
127.0.0.1 - root [21/May/2018:12:41:43 -0600] "GET /manager/text/start?path=/MVCJSP HTTP/1.1" 200 76
0:0:0:0:0:0:0:1 - - [21/May/2018:12:41:44 -0600] "GET /MVCJSP/frmvacante.jsp HTTP/1.1" 200 2444
0:0:0:0:0:0:0:1 - - [21/May/2018:12:41:44 -0600] "GET /MVCJSP/css/bootstrap.css HTTP/1.1" 200 121205
0:0:0:0:0:0:0:1 - - [21/May/2018:12:41:44 -0600] "GET /MVCJSP/favicon HTTP/1.1" 404 1011
0:0:0:0:0:0:0:1 - - [21/May/2018:12:41:44 -0600] "GET /favicon.ico HTTP/1.1" 200 21630
0:0:0:0:0:0:0:1 - - [21/May/2018:12:41:55 -0600] "POST /MVCJSP/vacante HTTP/1.1" 500 1533
127.0.0.1 - - [21/May/2018:14:04:26 -0600] "HEAD /netbeans-tomcat-status-test HTTP/1.1" 404 -
127.0.0.1 - root [21/May/2018:14:04:26 -0600] "GET /manager/text/ HTTP/1.1" 200 44
127.0.0.1 - - [21/May/2018:14:04:26 -0600] "HEAD /netbeans-tomcat-status-test HTTP/1.1" 404 -
127.0.0.1 - root [21/May/2018:14:04:26 -0600] "GET /manager/text/ HTTP/1.1" 200 44
127.0.0.1 - - [21/May/2018:14:04:26 -0600] "HEAD /netbeans-tomcat-status-test HTTP/1.1" 404 -
127.0.0.1 - root [21/May/2018:14:04:26 -0600] "GET /manager/text/ HTTP/1.1" 200 44
127.0.0.1 - root [21/May/2018:14:04:26 -0600] "GET /manager/text/list HTTP/1.1" 200 451
127.0.0.1 - root [21/May/2018:14:04:26 -0600] "GET /manager/text/reload?path=/MVCJSP HTTP/1.1" 200 76
127.0.0.1 - - [21/May/2018:14:04:26 -0600] "HEAD /netbeans-tomcat-status-test HTTP/1.1" 404 -
127.0.0.1 - root [21/May/2018:14:04:26 -0600] "GET /manager/text/ HTTP/1.1" 200 44
127.0.0.1 - - [21/May/2018:14:07:43 -0600] "HEAD /netbeans-tomcat-status-test HTTP/1.1" 404 -
127.0.0.1 - root [21/May/2018:14:07:43 -0600] "GET /manager/text/ HTTP/1.1" 200 44
127.0.0.1 - - [21/May/2018:14:07:43 -0600] "HEAD /netbeans-tomcat-status-test HTTP/1.1" 404 -
127.0.0.1 - root [21/May/2018:14:07:43 -0600] "GET /manager/text/ HTTP/1.1" 200 44
127.0.0.1 - - [21/May/2018:14:07:43 -0600] "HEAD /netbeans-tomcat-status-test HTTP/1.1" 404 -
127.0.0.1 - root [21/May/2018:14:07:43 -0600] "GET /manager/text/ HTTP/1.1" 200 44
127.0.0.1 - root [21/May/2018:14:07:43 -0600] "GET /manager/text/list HTTP/1.1" 200 451
127.0.0.1 - root [21/May/2018:14:07:43 -0600] "GET /manager/text/reload?path=/MVCJSP HTTP/1.1" 200 76
127.0.0.1 - - [21/May/2018:14:07:43 -0600] "HEAD /netbeans-tomcat-status-test HTTP/1.1" 404 -
127.0.0.1 - root [21/May/2018:14:07:43 -0600] "GET /manager/text/ HTTP/1.1" 200 44
127.0.0.1 - - [21/May/2018:14:08:43 -0600] "HEAD /netbeans-tomcat-status-test HTTP/1.1" 404 -
127.0.0.1 - root [21/May/2018:14:08:43 -0600] "GET /manager/text/ HTTP/1.1" 200 44
127.0.0.1 - - [21/May/2018:14:08:43 -0600] "HEAD /netbeans-tomcat-status-test HTTP/1.1" 404 -
127.0.0.1 - root [21/May/2018:14:08:43 -0600] "GET /manager/text/ HTTP/1.1" 200 44
127.0.0.1 - - [21/May/2018:14:08:43 -0600] "HEAD /netbeans-tomcat-status-test HTTP/1.1" 404 -
127.0.0.1 - root [21/May/2018:14:08:43 -0600] "GET /manager/text/ HTTP/1.1" 200 44
127.0.0.1 - root [21/May/2018:14:08:43 -0600] "GET /manager/text/list HTTP/1.1" 200 451
127.0.0.1 - root [21/May/2018:14:08:43 -0600] "GET /manager/text/reload?path=/MVCJSP HTTP/1.1" 200 76
127.0.0.1 - - [21/May/2018:14:08:43 -0600] "HEAD /netbeans-tomcat-status-test HTTP/1.1" 404 -
127.0.0.1 - root [21/May/2018:14:08:43 -0600] "GET /manager/text/ HTTP/1.1" 200 44
127.0.0.1 - - [21/May/2018:14:09:07 -0600] "HEAD /netbeans-tomcat-status-test HTTP/1.1" 404 -
127.0.0.1 - root [21/May/2018:14:09:07 -0600] "GET /manager/text/ HTTP/1.1" 200 44
127.0.0.1 - - [21/May/2018:14:09:07 -0600] "HEAD /netbeans-tomcat-status-test HTTP/1.1" 404 -
127.0.0.1 - root [21/May/2018:14:09:07 -0600] "GET /manager/text/ HTTP/1.1" 200 44
127.0.0.1 - - [21/May/2018:14:09:07 -0600] "HEAD /netbeans-tomcat-status-test HTTP/1.1" 404 -
127.0.0.1 - root [21/May/2018:14:09:07 -0600] "GET /manager/text/ HTTP/1.1" 200 44
127.0.0.1 - - [21/May/2018:14:09:07 -0600] "HEAD /netbeans-tomcat-status-test HTTP/1.1" 404 -
127.0.0.1 - root [21/May/2018:14:09:07 -0600] "GET /manager/text/ HTTP/1.1" 200 44
127.0.0.1 - root [21/May/2018:14:09:07 -0600] "GET /manager/text/list HTTP/1.1" 200 451
127.0.0.1 - root [21/May/2018:14:09:07 -0600] "GET /manager/text/list HTTP/1.1" 200 451
127.0.0.1 - root [21/May/2018:14:09:07 -0600] "GET /manager/text/reload?path=/MVCJSP HTTP/1.1" 200 76
0:0:0:0:0:0:0:1 - - [21/May/2018:14:09:08 -0600] "GET /MVCJSP/mensaje.jsp HTTP/1.1" 200 1337
0:0:0:0:0:0:0:1 - - [21/May/2018:14:09:08 -0600] "GET /MVCJSP/css/bootstrap.css HTTP/1.1" 304 -
0:0:0:0:0:0:0:1 - - [21/May/2018:14:09:08 -0600] "GET /MVCJSP/favicon HTTP/1.1" 404 1011
127.0.0.1 - - [21/May/2018:14:09:16 -0600] "HEAD /netbeans-tomcat-status-test HTTP/1.1" 404 -
127.0.0.1 - root [21/May/2018:14:09:16 -0600] "GET /manager/text/ HTTP/1.1" 200 44
127.0.0.1 - - [21/May/2018:14:09:16 -0600] "HEAD /netbeans-tomcat-status-test HTTP/1.1" 404 -
127.0.0.1 - root [21/May/2018:14:09:16 -0600] "GET /manager/text/ HTTP/1.1" 200 44
127.0.0.1 - - [21/May/2018:14:09:16 -0600] "HEAD /netbeans-tomcat-status-test HTTP/1.1" 404 -
127.0.0.1 - root [21/May/2018:14:09:16 -0600] "GET /manager/text/ HTTP/1.1" 200 44
127.0.0.1 - - [21/May/2018:14:09:16 -0600] "HEAD /netbeans-tomcat-status-test HTTP/1.1" 404 -
127.0.0.1 - root [21/May/2018:14:09:16 -0600] "GET /manager/text/ HTTP/1.1" 200 44
127.0.0.1 - root [21/May/2018:14:09:16 -0600] "GET /manager/text/list HTTP/1.1" 200 451
127.0.0.1 - root [21/May/2018:14:09:16 -0600] "GET /manager/text/list HTTP/1.1" 200 451
0:0:0:0:0:0:0:1 - - [21/May/2018:14:09:16 -0600] "GET /MVCJSP/frmvacante.jsp HTTP/1.1" 200 2444
0:0:0:0:0:0:0:1 - - [21/May/2018:14:09:16 -0600] "GET /MVCJSP/favicon HTTP/1.1" 404 1011
0:0:0:0:0:0:0:1 - - [21/May/2018:14:09:21 -0600] "POST /MVCJSP/vacante HTTP/1.1" 500 1533
127.0.0.1 - - [21/May/2018:15:11:03 -0600] "HEAD /netbeans-tomcat-status-test HTTP/1.1" 404 -
127.0.0.1 - root [21/May/2018:15:11:03 -0600] "GET /manager/text/ HTTP/1.1" 200 44
127.0.0.1 - - [21/May/2018:15:11:03 -0600] "HEAD /netbeans-tomcat-status-test HTTP/1.1" 404 -
127.0.0.1 - root [21/May/2018:15:11:03 -0600] "GET /manager/text/ HTTP/1.1" 200 44
127.0.0.1 - - [21/May/2018:15:11:03 -0600] "HEAD /netbeans-tomcat-status-test HTTP/1.1" 404 -
127.0.0.1 - root [21/May/2018:15:11:03 -0600] "GET /manager/text/ HTTP/1.1" 200 44
127.0.0.1 - root [21/May/2018:15:11:03 -0600] "GET /manager/text/list HTTP/1.1" 200 451
127.0.0.1 - root [21/May/2018:15:11:03 -0600] "GET /manager/text/reload?path=/MVC HTTP/1.1" 200 73
127.0.0.1 - - [21/May/2018:15:11:03 -0600] "HEAD /netbeans-tomcat-status-test HTTP/1.1" 404 -
127.0.0.1 - root [21/May/2018:15:11:03 -0600] "GET /manager/text/ HTTP/1.1" 200 44
127.0.0.1 - - [21/May/2018:15:50:34 -0600] "HEAD /netbeans-tomcat-status-test HTTP/1.1" 404 -
127.0.0.1 - root [21/May/2018:15:50:34 -0600] "GET /manager/text/ HTTP/1.1" 200 44
127.0.0.1 - - [21/May/2018:15:50:34 -0600] "HEAD /netbeans-tomcat-status-test HTTP/1.1" 404 -
127.0.0.1 - root [21/May/2018:15:50:34 -0600] "GET /manager/text/ HTTP/1.1" 200 44
127.0.0.1 - - [21/May/2018:15:50:34 -0600] "HEAD /netbeans-tomcat-status-test HTTP/1.1" 404 -
127.0.0.1 - root [21/May/2018:15:50:34 -0600] "GET /manager/text/ HTTP/1.1" 200 44
