127.0.0.1 - - [25/May/2018:14:05:43 -0600] "HEAD /netbeans-tomcat-status-test HTTP/1.1" 404 -
127.0.0.1 - - [25/May/2018:14:05:43 -0600] "GET /manager/text/ HTTP/1.1" 401 2536
127.0.0.1 - root [25/May/2018:14:07:01 -0600] "GET /manager/text/ HTTP/1.1" 200 44
127.0.0.1 - - [25/May/2018:14:07:01 -0600] "HEAD /netbeans-tomcat-status-test HTTP/1.1" 404 -
127.0.0.1 - root [25/May/2018:14:07:01 -0600] "GET /manager/text/ HTTP/1.1" 200 44
127.0.0.1 - - [25/May/2018:14:07:01 -0600] "HEAD /netbeans-tomcat-status-test HTTP/1.1" 404 -
127.0.0.1 - root [25/May/2018:14:07:01 -0600] "GET /manager/text/ HTTP/1.1" 200 44
127.0.0.1 - - [25/May/2018:14:07:01 -0600] "HEAD /netbeans-tomcat-status-test HTTP/1.1" 404 -
127.0.0.1 - root [25/May/2018:14:07:01 -0600] "GET /manager/text/ HTTP/1.1" 200 44
127.0.0.1 - root [25/May/2018:14:07:01 -0600] "GET /manager/text/list HTTP/1.1" 200 451
127.0.0.1 - root [25/May/2018:14:07:01 -0600] "GET /manager/text/list HTTP/1.1" 200 451
0:0:0:0:0:0:0:1 - - [25/May/2018:14:07:02 -0600] "GET /MVC7/ejercicio.jsp HTTP/1.1" 200 1091
0:0:0:0:0:0:0:1 - - [25/May/2018:14:07:03 -0600] "GET /favicon.ico HTTP/1.1" 200 21630
0:0:0:0:0:0:0:1 - - [25/May/2018:14:07:11 -0600] "POST /MVC7/ejercicio.jsp HTTP/1.1" 200 1192
0:0:0:0:0:0:0:1 - - [25/May/2018:14:07:52 -0600] "POST /MVC7/ejercicio.jsp HTTP/1.1" 200 1192
0:0:0:0:0:0:0:1 - - [25/May/2018:14:07:57 -0600] "POST /MVC7/ejercicio.jsp HTTP/1.1" 200 1192
127.0.0.1 - - [25/May/2018:15:09:33 -0600] "HEAD /netbeans-tomcat-status-test HTTP/1.1" 404 -
127.0.0.1 - root [25/May/2018:15:09:33 -0600] "GET /manager/text/ HTTP/1.1" 200 44
127.0.0.1 - - [25/May/2018:15:09:33 -0600] "HEAD /netbeans-tomcat-status-test HTTP/1.1" 404 -
127.0.0.1 - root [25/May/2018:15:09:33 -0600] "GET /manager/text/ HTTP/1.1" 200 44
127.0.0.1 - - [25/May/2018:15:09:33 -0600] "HEAD /netbeans-tomcat-status-test HTTP/1.1" 404 -
127.0.0.1 - root [25/May/2018:15:09:33 -0600] "GET /manager/text/ HTTP/1.1" 200 44
127.0.0.1 - - [25/May/2018:15:09:33 -0600] "HEAD /netbeans-tomcat-status-test HTTP/1.1" 404 -
127.0.0.1 - root [25/May/2018:15:09:33 -0600] "GET /manager/text/ HTTP/1.1" 200 44
127.0.0.1 - root [25/May/2018:15:09:34 -0600] "GET /manager/text/list HTTP/1.1" 200 451
127.0.0.1 - root [25/May/2018:15:09:34 -0600] "GET /manager/text/list HTTP/1.1" 200 451
0:0:0:0:0:0:0:1 - - [25/May/2018:15:09:34 -0600] "GET /MVC7/ejercicio.jsp HTTP/1.1" 200 1091
0:0:0:0:0:0:0:1 - - [25/May/2018:15:09:40 -0600] "POST /MVC7/ejercicio.jsp HTTP/1.1" 200 1099
127.0.0.1 - - [25/May/2018:16:36:43 -0600] "HEAD /netbeans-tomcat-status-test HTTP/1.1" 404 -
127.0.0.1 - root [25/May/2018:16:36:43 -0600] "GET /manager/text/ HTTP/1.1" 200 44
127.0.0.1 - - [25/May/2018:16:36:43 -0600] "HEAD /netbeans-tomcat-status-test HTTP/1.1" 404 -
127.0.0.1 - root [25/May/2018:16:36:43 -0600] "GET /manager/text/ HTTP/1.1" 200 44
127.0.0.1 - - [25/May/2018:16:36:43 -0600] "HEAD /netbeans-tomcat-status-test HTTP/1.1" 404 -
127.0.0.1 - root [25/May/2018:16:36:43 -0600] "GET /manager/text/ HTTP/1.1" 200 44
127.0.0.1 - root [25/May/2018:16:36:43 -0600] "GET /manager/text/list HTTP/1.1" 200 451
127.0.0.1 - - [25/May/2018:16:36:43 -0600] "HEAD /netbeans-tomcat-status-test HTTP/1.1" 404 -
127.0.0.1 - root [25/May/2018:16:36:43 -0600] "GET /manager/text/ HTTP/1.1" 200 44
127.0.0.1 - - [25/May/2018:16:38:04 -0600] "HEAD /netbeans-tomcat-status-test HTTP/1.1" 404 -
127.0.0.1 - root [25/May/2018:16:38:04 -0600] "GET /manager/text/ HTTP/1.1" 200 44
127.0.0.1 - - [25/May/2018:16:38:04 -0600] "HEAD /netbeans-tomcat-status-test HTTP/1.1" 404 -
127.0.0.1 - root [25/May/2018:16:38:04 -0600] "GET /manager/text/ HTTP/1.1" 200 44
127.0.0.1 - - [25/May/2018:16:38:04 -0600] "HEAD /netbeans-tomcat-status-test HTTP/1.1" 404 -
127.0.0.1 - root [25/May/2018:16:38:04 -0600] "GET /manager/text/ HTTP/1.1" 200 44
127.0.0.1 - - [25/May/2018:16:38:04 -0600] "HEAD /netbeans-tomcat-status-test HTTP/1.1" 404 -
127.0.0.1 - root [25/May/2018:16:38:04 -0600] "GET /manager/text/ HTTP/1.1" 200 44
127.0.0.1 - root [25/May/2018:16:38:04 -0600] "GET /manager/text/list HTTP/1.1" 200 451
127.0.0.1 - root [25/May/2018:16:38:04 -0600] "GET /manager/text/list HTTP/1.1" 200 451
0:0:0:0:0:0:0:1 - - [25/May/2018:16:38:05 -0600] "GET /MVC7/uvas.jsp HTTP/1.1" 200 2359
0:0:0:0:0:0:0:1 - - [25/May/2018:16:38:17 -0600] "POST /MVC7/uvas.jsp HTTP/1.1" 200 2449
0:0:0:0:0:0:0:1 - - [25/May/2018:16:39:07 -0600] "POST /MVC7/uvas.jsp HTTP/1.1" 200 2440
127.0.0.1 - - [25/May/2018:16:47:01 -0600] "HEAD /netbeans-tomcat-status-test HTTP/1.1" 404 -
127.0.0.1 - root [25/May/2018:16:47:01 -0600] "GET /manager/text/ HTTP/1.1" 200 44
127.0.0.1 - - [25/May/2018:16:47:01 -0600] "HEAD /netbeans-tomcat-status-test HTTP/1.1" 404 -
127.0.0.1 - root [25/May/2018:16:47:01 -0600] "GET /manager/text/ HTTP/1.1" 200 44
127.0.0.1 - - [25/May/2018:16:47:01 -0600] "HEAD /netbeans-tomcat-status-test HTTP/1.1" 404 -
127.0.0.1 - root [25/May/2018:16:47:01 -0600] "GET /manager/text/ HTTP/1.1" 200 44
127.0.0.1 - - [25/May/2018:16:47:01 -0600] "HEAD /netbeans-tomcat-status-test HTTP/1.1" 404 -
127.0.0.1 - root [25/May/2018:16:47:01 -0600] "GET /manager/text/ HTTP/1.1" 200 44
127.0.0.1 - root [25/May/2018:16:47:01 -0600] "GET /manager/text/list HTTP/1.1" 200 451
127.0.0.1 - root [25/May/2018:16:47:01 -0600] "GET /manager/text/list HTTP/1.1" 200 451
0:0:0:0:0:0:0:1 - - [25/May/2018:16:47:02 -0600] "GET /MVC7/uvas.jsp HTTP/1.1" 200 2359
0:0:0:0:0:0:0:1 - - [25/May/2018:16:47:16 -0600] "POST /MVC7/uvas.jsp HTTP/1.1" 200 2438
127.0.0.1 - - [25/May/2018:16:48:39 -0600] "HEAD /netbeans-tomcat-status-test HTTP/1.1" 404 -
127.0.0.1 - root [25/May/2018:16:48:39 -0600] "GET /manager/text/ HTTP/1.1" 200 44
127.0.0.1 - - [25/May/2018:16:48:39 -0600] "HEAD /netbeans-tomcat-status-test HTTP/1.1" 404 -
127.0.0.1 - root [25/May/2018:16:48:39 -0600] "GET /manager/text/ HTTP/1.1" 200 44
127.0.0.1 - - [25/May/2018:16:48:39 -0600] "HEAD /netbeans-tomcat-status-test HTTP/1.1" 404 -
127.0.0.1 - root [25/May/2018:16:48:39 -0600] "GET /manager/text/ HTTP/1.1" 200 44
127.0.0.1 - - [25/May/2018:16:48:39 -0600] "HEAD /netbeans-tomcat-status-test HTTP/1.1" 404 -
127.0.0.1 - root [25/May/2018:16:48:39 -0600] "GET /manager/text/ HTTP/1.1" 200 44
127.0.0.1 - root [25/May/2018:16:48:39 -0600] "GET /manager/text/list HTTP/1.1" 200 451
127.0.0.1 - root [25/May/2018:16:48:39 -0600] "GET /manager/text/list HTTP/1.1" 200 451
0:0:0:0:0:0:0:1 - - [25/May/2018:16:48:39 -0600] "GET /MVC7/uvas.jsp HTTP/1.1" 200 2359
0:0:0:0:0:0:0:1 - - [25/May/2018:16:49:27 -0600] "POST /MVC7/uvas.jsp HTTP/1.1" 200 2435
0:0:0:0:0:0:0:1 - - [25/May/2018:16:49:51 -0600] "POST /MVC7/uvas.jsp HTTP/1.1" 200 2433
0:0:0:0:0:0:0:1 - - [25/May/2018:16:52:03 -0600] "POST /MVC7/uvas.jsp HTTP/1.1" 200 2436
0:0:0:0:0:0:0:1 - - [25/May/2018:16:55:29 -0600] "POST /MVC7/uvas.jsp HTTP/1.1" 200 2436
0:0:0:0:0:0:0:1 - - [25/May/2018:16:55:37 -0600] "POST /MVC7/uvas.jsp HTTP/1.1" 200 2449
127.0.0.1 - - [25/May/2018:17:10:57 -0600] "HEAD /netbeans-tomcat-status-test HTTP/1.1" 404 -
127.0.0.1 - root [25/May/2018:17:10:57 -0600] "GET /manager/text/ HTTP/1.1" 200 44
127.0.0.1 - - [25/May/2018:17:10:57 -0600] "HEAD /netbeans-tomcat-status-test HTTP/1.1" 404 -
127.0.0.1 - root [25/May/2018:17:10:57 -0600] "GET /manager/text/ HTTP/1.1" 200 44
127.0.0.1 - - [25/May/2018:17:10:57 -0600] "HEAD /netbeans-tomcat-status-test HTTP/1.1" 404 -
127.0.0.1 - root [25/May/2018:17:10:57 -0600] "GET /manager/text/ HTTP/1.1" 200 44
127.0.0.1 - - [25/May/2018:17:10:57 -0600] "HEAD /netbeans-tomcat-status-test HTTP/1.1" 404 -
127.0.0.1 - root [25/May/2018:17:10:57 -0600] "GET /manager/text/ HTTP/1.1" 200 44
127.0.0.1 - root [25/May/2018:17:10:57 -0600] "GET /manager/text/list HTTP/1.1" 200 451
127.0.0.1 - root [25/May/2018:17:10:57 -0600] "GET /manager/text/list HTTP/1.1" 200 451
0:0:0:0:0:0:0:1 - - [25/May/2018:17:10:57 -0600] "GET /MVC7/uvas.jsp HTTP/1.1" 200 2359
0:0:0:0:0:0:0:1 - - [25/May/2018:17:10:58 -0600] "GET /favicon.ico HTTP/1.1" 200 21630
127.0.0.1 - - [25/May/2018:17:13:49 -0600] "HEAD /netbeans-tomcat-status-test HTTP/1.1" 404 -
127.0.0.1 - root [25/May/2018:17:13:49 -0600] "GET /manager/text/ HTTP/1.1" 200 44
127.0.0.1 - - [25/May/2018:17:13:49 -0600] "HEAD /netbeans-tomcat-status-test HTTP/1.1" 404 -
127.0.0.1 - root [25/May/2018:17:13:49 -0600] "GET /manager/text/ HTTP/1.1" 200 44
127.0.0.1 - - [25/May/2018:17:13:49 -0600] "HEAD /netbeans-tomcat-status-test HTTP/1.1" 404 -
127.0.0.1 - root [25/May/2018:17:13:49 -0600] "GET /manager/text/ HTTP/1.1" 200 44
127.0.0.1 - - [25/May/2018:17:13:49 -0600] "HEAD /netbeans-tomcat-status-test HTTP/1.1" 404 -
127.0.0.1 - root [25/May/2018:17:13:49 -0600] "GET /manager/text/ HTTP/1.1" 200 44
127.0.0.1 - - [25/May/2018:17:13:56 -0600] "HEAD /netbeans-tomcat-status-test HTTP/1.1" 404 -
127.0.0.1 - - [25/May/2018:17:13:56 -0600] "HEAD /netbeans-tomcat-status-test HTTP/1.1" 404 -
127.0.0.1 - root [25/May/2018:17:13:56 -0600] "GET /manager/text/ HTTP/1.1" 200 44
127.0.0.1 - root [25/May/2018:17:13:56 -0600] "GET /manager/text/ HTTP/1.1" 200 44
127.0.0.1 - - [25/May/2018:17:13:56 -0600] "HEAD /netbeans-tomcat-status-test HTTP/1.1" 404 -
127.0.0.1 - - [25/May/2018:17:13:56 -0600] "HEAD /netbeans-tomcat-status-test HTTP/1.1" 404 -
127.0.0.1 - root [25/May/2018:17:13:56 -0600] "GET /manager/text/ HTTP/1.1" 200 44
127.0.0.1 - root [25/May/2018:17:13:56 -0600] "GET /manager/text/ HTTP/1.1" 200 44
127.0.0.1 - - [25/May/2018:17:13:56 -0600] "HEAD /netbeans-tomcat-status-test HTTP/1.1" 404 -
127.0.0.1 - - [25/May/2018:17:13:56 -0600] "HEAD /netbeans-tomcat-status-test HTTP/1.1" 404 -
127.0.0.1 - root [25/May/2018:17:13:56 -0600] "GET /manager/text/ HTTP/1.1" 200 44
127.0.0.1 - root [25/May/2018:17:13:56 -0600] "GET /manager/text/ HTTP/1.1" 200 44
127.0.0.1 - - [25/May/2018:17:13:56 -0600] "HEAD /netbeans-tomcat-status-test HTTP/1.1" 404 -
127.0.0.1 - - [25/May/2018:17:13:56 -0600] "HEAD /netbeans-tomcat-status-test HTTP/1.1" 404 -
127.0.0.1 - root [25/May/2018:17:13:56 -0600] "GET /manager/text/ HTTP/1.1" 200 44
127.0.0.1 - root [25/May/2018:17:13:56 -0600] "GET /manager/text/ HTTP/1.1" 200 44
127.0.0.1 - - [25/May/2018:17:13:56 -0600] "HEAD /netbeans-tomcat-status-test HTTP/1.1" 404 -
127.0.0.1 - root [25/May/2018:17:13:56 -0600] "GET /manager/text/ HTTP/1.1" 200 44
127.0.0.1 - - [25/May/2018:17:13:56 -0600] "HEAD /netbeans-tomcat-status-test HTTP/1.1" 404 -
127.0.0.1 - root [25/May/2018:17:13:56 -0600] "GET /manager/text/ HTTP/1.1" 200 44
127.0.0.1 - root [25/May/2018:17:13:57 -0600] "GET /manager/text/list HTTP/1.1" 200 451
127.0.0.1 - root [25/May/2018:17:13:57 -0600] "GET /manager/text/list HTTP/1.1" 200 451
0:0:0:0:0:0:0:1 - - [25/May/2018:17:13:58 -0600] "GET /MVC7/uvas.jsp HTTP/1.1" 200 2359
127.0.0.1 - - [25/May/2018:17:13:58 -0600] "HEAD /netbeans-tomcat-status-test HTTP/1.1" 404 -
127.0.0.1 - root [25/May/2018:17:13:58 -0600] "GET /manager/text/ HTTP/1.1" 200 44
127.0.0.1 - - [25/May/2018:17:13:58 -0600] "HEAD /netbeans-tomcat-status-test HTTP/1.1" 404 -
127.0.0.1 - root [25/May/2018:17:13:58 -0600] "GET /manager/text/ HTTP/1.1" 200 44
127.0.0.1 - - [25/May/2018:17:13:58 -0600] "HEAD /netbeans-tomcat-status-test HTTP/1.1" 404 -
127.0.0.1 - root [25/May/2018:17:13:58 -0600] "GET /manager/text/ HTTP/1.1" 200 44
127.0.0.1 - - [25/May/2018:17:13:58 -0600] "HEAD /netbeans-tomcat-status-test HTTP/1.1" 404 -
127.0.0.1 - root [25/May/2018:17:13:58 -0600] "GET /manager/text/ HTTP/1.1" 200 44
127.0.0.1 - root [25/May/2018:17:13:58 -0600] "GET /manager/text/list HTTP/1.1" 200 451
127.0.0.1 - - [25/May/2018:17:13:58 -0600] "HEAD /netbeans-tomcat-status-test HTTP/1.1" 404 -
127.0.0.1 - root [25/May/2018:17:13:58 -0600] "GET /manager/text/list HTTP/1.1" 200 451
127.0.0.1 - root [25/May/2018:17:13:58 -0600] "GET /manager/text/ HTTP/1.1" 200 44
127.0.0.1 - root [25/May/2018:17:13:58 -0600] "GET /manager/text/undeploy?path=/MVC7 HTTP/1.1" 200 74
127.0.0.1 - root [25/May/2018:17:13:58 -0600] "GET /manager/text/deploy?config=file%3A%2FC%3A%2FUsers%2Fadmin%2FAppData%2FLocal%2FTemp%2Fcontext9172384198960801645.xml&path=/MVC7 HTTP/1.1" 200 75
127.0.0.1 - root [25/May/2018:17:13:58 -0600] "GET /manager/text/start?path=/MVC7 HTTP/1.1" 200 74
0:0:0:0:0:0:0:1 - - [25/May/2018:17:13:59 -0600] "GET /MVC7 HTTP/1.1" 302 -
0:0:0:0:0:0:0:1 - - [25/May/2018:17:13:59 -0600] "GET /MVC7/ HTTP/1.1" 200 269
0:0:0:0:0:0:0:1 - - [25/May/2018:17:14:08 -0600] "POST /MVC7/uvas.jsp HTTP/1.1" 200 2433
