127.0.0.1 - - [28/Jan/2020:15:52:30 -0600] "HEAD /netbeans-tomcat-status-test HTTP/1.1" 404 -
127.0.0.1 - - [28/Jan/2020:15:52:30 -0600] "GET /manager/text/ HTTP/1.1" 401 2536
127.0.0.1 - root [28/Jan/2020:15:52:32 -0600] "GET /manager/text/ HTTP/1.1" 200 44
127.0.0.1 - - [28/Jan/2020:15:52:32 -0600] "HEAD /netbeans-tomcat-status-test HTTP/1.1" 404 -
127.0.0.1 - root [28/Jan/2020:15:52:32 -0600] "GET /manager/text/ HTTP/1.1" 200 44
127.0.0.1 - - [28/Jan/2020:15:52:32 -0600] "HEAD /netbeans-tomcat-status-test HTTP/1.1" 404 -
127.0.0.1 - root [28/Jan/2020:15:52:32 -0600] "GET /manager/text/ HTTP/1.1" 200 44
127.0.0.1 - - [28/Jan/2020:15:52:32 -0600] "HEAD /netbeans-tomcat-status-test HTTP/1.1" 404 -
127.0.0.1 - root [28/Jan/2020:15:52:32 -0600] "GET /manager/text/ HTTP/1.1" 200 44
127.0.0.1 - - [28/Jan/2020:15:53:11 -0600] "HEAD /netbeans-tomcat-status-test HTTP/1.1" 404 -
127.0.0.1 - root [28/Jan/2020:15:53:11 -0600] "GET /manager/text/ HTTP/1.1" 200 44
127.0.0.1 - - [28/Jan/2020:15:53:11 -0600] "HEAD /netbeans-tomcat-status-test HTTP/1.1" 404 -
127.0.0.1 - root [28/Jan/2020:15:53:11 -0600] "GET /manager/text/ HTTP/1.1" 200 44
127.0.0.1 - - [28/Jan/2020:15:53:11 -0600] "HEAD /netbeans-tomcat-status-test HTTP/1.1" 404 -
127.0.0.1 - root [28/Jan/2020:15:53:11 -0600] "GET /manager/text/ HTTP/1.1" 200 44
127.0.0.1 - root [28/Jan/2020:15:53:11 -0600] "GET /manager/text/list HTTP/1.1" 200 451
127.0.0.1 - - [28/Jan/2020:15:53:17 -0600] "HEAD /netbeans-tomcat-status-test HTTP/1.1" 404 -
127.0.0.1 - root [28/Jan/2020:15:53:17 -0600] "GET /manager/text/ HTTP/1.1" 200 44
127.0.0.1 - - [28/Jan/2020:15:53:17 -0600] "HEAD /netbeans-tomcat-status-test HTTP/1.1" 404 -
127.0.0.1 - root [28/Jan/2020:15:53:17 -0600] "GET /manager/text/ HTTP/1.1" 200 44
127.0.0.1 - - [28/Jan/2020:15:53:17 -0600] "HEAD /netbeans-tomcat-status-test HTTP/1.1" 404 -
127.0.0.1 - root [28/Jan/2020:15:53:17 -0600] "GET /manager/text/ HTTP/1.1" 200 44
127.0.0.1 - - [28/Jan/2020:15:53:17 -0600] "HEAD /netbeans-tomcat-status-test HTTP/1.1" 404 -
127.0.0.1 - root [28/Jan/2020:15:53:17 -0600] "GET /manager/text/list HTTP/1.1" 200 451
127.0.0.1 - root [28/Jan/2020:15:53:17 -0600] "GET /manager/text/ HTTP/1.1" 200 44
127.0.0.1 - root [28/Jan/2020:15:53:17 -0600] "GET /manager/text/list HTTP/1.1" 200 451
127.0.0.1 - root [28/Jan/2020:15:53:18 -0600] "GET /manager/text/deploy?config=file%3A%2FC%3A%2FUsers%2FCHRIST%7E1.RAM%2FAppData%2FLocal%2FTemp%2Fcontext8950022999039175645.xml&path=/proyectoHotel_grupo1 HTTP/1.1" 200 91
127.0.0.1 - root [28/Jan/2020:15:53:18 -0600] "GET /manager/text/start?path=/proyectoHotel_grupo1 HTTP/1.1" 200 90
0:0:0:0:0:0:0:1 - - [28/Jan/2020:15:53:19 -0600] "GET /proyectoHotel_grupo1 HTTP/1.1" 302 -
0:0:0:0:0:0:0:1 - - [28/Jan/2020:15:53:19 -0600] "GET /proyectoHotel_grupo1/ HTTP/1.1" 404 966
127.0.0.1 - - [28/Jan/2020:15:53:36 -0600] "HEAD /netbeans-tomcat-status-test HTTP/1.1" 404 -
127.0.0.1 - root [28/Jan/2020:15:53:36 -0600] "GET /manager/text/ HTTP/1.1" 200 44
127.0.0.1 - - [28/Jan/2020:15:53:36 -0600] "HEAD /netbeans-tomcat-status-test HTTP/1.1" 404 -
127.0.0.1 - root [28/Jan/2020:15:53:36 -0600] "GET /manager/text/ HTTP/1.1" 200 44
127.0.0.1 - - [28/Jan/2020:15:53:36 -0600] "HEAD /netbeans-tomcat-status-test HTTP/1.1" 404 -
127.0.0.1 - root [28/Jan/2020:15:53:36 -0600] "GET /manager/text/ HTTP/1.1" 200 44
127.0.0.1 - root [28/Jan/2020:15:53:36 -0600] "GET /manager/text/list HTTP/1.1" 200 596
127.0.0.1 - - [28/Jan/2020:15:53:36 -0600] "HEAD /netbeans-tomcat-status-test HTTP/1.1" 404 -
127.0.0.1 - root [28/Jan/2020:15:53:36 -0600] "GET /manager/text/ HTTP/1.1" 200 44
127.0.0.1 - root [28/Jan/2020:15:53:36 -0600] "GET /manager/text/list HTTP/1.1" 200 596
127.0.0.1 - root [28/Jan/2020:15:53:37 -0600] "GET /manager/text/undeploy?path=/proyectoHotel_grupo1 HTTP/1.1" 200 90
127.0.0.1 - root [28/Jan/2020:15:53:38 -0600] "GET /manager/text/deploy?config=file%3A%2FC%3A%2FUsers%2FCHRIST%7E1.RAM%2FAppData%2FLocal%2FTemp%2Fcontext4608149934140160190.xml&path=/proyectoHotel_grupo1 HTTP/1.1" 200 91
127.0.0.1 - root [28/Jan/2020:15:53:38 -0600] "GET /manager/text/start?path=/proyectoHotel_grupo1 HTTP/1.1" 200 90
0:0:0:0:0:0:0:1 - - [28/Jan/2020:15:53:39 -0600] "GET /proyectoHotel_grupo1 HTTP/1.1" 302 -
0:0:0:0:0:0:0:1 - - [28/Jan/2020:15:53:39 -0600] "GET /proyectoHotel_grupo1/ HTTP/1.1" 404 966
0:0:0:0:0:0:0:1 - - [28/Jan/2020:15:53:39 -0600] "GET /favicon.ico HTTP/1.1" 200 21630
0:0:0:0:0:0:0:1 - - [28/Jan/2020:15:55:03 -0600] "GET /proyectoHotel_grupo1/index.xhtml HTTP/1.1" 200 728
127.0.0.1 - - [28/Jan/2020:15:55:41 -0600] "HEAD /netbeans-tomcat-status-test HTTP/1.1" 404 -
127.0.0.1 - root [28/Jan/2020:15:55:41 -0600] "GET /manager/text/ HTTP/1.1" 200 44
127.0.0.1 - - [28/Jan/2020:15:55:41 -0600] "HEAD /netbeans-tomcat-status-test HTTP/1.1" 404 -
127.0.0.1 - root [28/Jan/2020:15:55:41 -0600] "GET /manager/text/ HTTP/1.1" 200 44
127.0.0.1 - - [28/Jan/2020:15:55:41 -0600] "HEAD /netbeans-tomcat-status-test HTTP/1.1" 404 -
127.0.0.1 - root [28/Jan/2020:15:55:41 -0600] "GET /manager/text/ HTTP/1.1" 200 44
127.0.0.1 - root [28/Jan/2020:15:55:41 -0600] "GET /manager/text/list HTTP/1.1" 200 596
127.0.0.1 - root [28/Jan/2020:15:55:42 -0600] "GET /manager/text/undeploy?path=/proyectoHotel_grupo1 HTTP/1.1" 200 90
127.0.0.1 - root [28/Jan/2020:15:55:43 -0600] "GET /manager/text/deploy?config=file%3A%2FC%3A%2FUsers%2FCHRIST%7E1.RAM%2FAppData%2FLocal%2FTemp%2Fcontext5734918368872981876.xml&path=/proyectoHotel_grupo1 HTTP/1.1" 200 91
127.0.0.1 - - [28/Jan/2020:15:55:43 -0600] "HEAD /netbeans-tomcat-status-test HTTP/1.1" 404 -
127.0.0.1 - root [28/Jan/2020:15:55:43 -0600] "GET /manager/text/ HTTP/1.1" 200 44
127.0.0.1 - - [28/Jan/2020:15:55:49 -0600] "HEAD /netbeans-tomcat-status-test HTTP/1.1" 404 -
127.0.0.1 - root [28/Jan/2020:15:55:49 -0600] "GET /manager/text/ HTTP/1.1" 200 44
127.0.0.1 - - [28/Jan/2020:15:55:49 -0600] "HEAD /netbeans-tomcat-status-test HTTP/1.1" 404 -
127.0.0.1 - root [28/Jan/2020:15:55:49 -0600] "GET /manager/text/ HTTP/1.1" 200 44
127.0.0.1 - - [28/Jan/2020:15:55:49 -0600] "HEAD /netbeans-tomcat-status-test HTTP/1.1" 404 -
127.0.0.1 - root [28/Jan/2020:15:55:49 -0600] "GET /manager/text/ HTTP/1.1" 200 44
127.0.0.1 - root [28/Jan/2020:15:55:49 -0600] "GET /manager/text/list HTTP/1.1" 200 596
127.0.0.1 - root [28/Jan/2020:15:55:50 -0600] "GET /manager/text/undeploy?path=/proyectoHotel_grupo1 HTTP/1.1" 200 90
127.0.0.1 - root [28/Jan/2020:15:55:51 -0600] "GET /manager/text/deploy?config=file%3A%2FC%3A%2FUsers%2FCHRIST%7E1.RAM%2FAppData%2FLocal%2FTemp%2Fcontext8516982110729582615.xml&path=/proyectoHotel_grupo1 HTTP/1.1" 200 91
127.0.0.1 - - [28/Jan/2020:15:55:51 -0600] "HEAD /netbeans-tomcat-status-test HTTP/1.1" 404 -
127.0.0.1 - root [28/Jan/2020:15:55:51 -0600] "GET /manager/text/ HTTP/1.1" 200 44
127.0.0.1 - - [28/Jan/2020:15:55:54 -0600] "HEAD /netbeans-tomcat-status-test HTTP/1.1" 404 -
127.0.0.1 - root [28/Jan/2020:15:55:54 -0600] "GET /manager/text/ HTTP/1.1" 200 44
127.0.0.1 - - [28/Jan/2020:15:55:54 -0600] "HEAD /netbeans-tomcat-status-test HTTP/1.1" 404 -
127.0.0.1 - root [28/Jan/2020:15:55:54 -0600] "GET /manager/text/ HTTP/1.1" 200 44
127.0.0.1 - - [28/Jan/2020:15:55:54 -0600] "HEAD /netbeans-tomcat-status-test HTTP/1.1" 404 -
127.0.0.1 - root [28/Jan/2020:15:55:54 -0600] "GET /manager/text/ HTTP/1.1" 200 44
127.0.0.1 - - [28/Jan/2020:15:55:54 -0600] "HEAD /netbeans-tomcat-status-test HTTP/1.1" 404 -
127.0.0.1 - root [28/Jan/2020:15:55:54 -0600] "GET /manager/text/list HTTP/1.1" 200 596
127.0.0.1 - root [28/Jan/2020:15:55:54 -0600] "GET /manager/text/ HTTP/1.1" 200 44
127.0.0.1 - root [28/Jan/2020:15:55:54 -0600] "GET /manager/text/list HTTP/1.1" 200 596
127.0.0.1 - root [28/Jan/2020:15:55:55 -0600] "GET /manager/text/undeploy?path=/proyectoHotel_grupo1 HTTP/1.1" 200 90
127.0.0.1 - root [28/Jan/2020:15:55:56 -0600] "GET /manager/text/deploy?config=file%3A%2FC%3A%2FUsers%2FCHRIST%7E1.RAM%2FAppData%2FLocal%2FTemp%2Fcontext4233441919124406399.xml&path=/proyectoHotel_grupo1/index.xhtml HTTP/1.1" 200 103
127.0.0.1 - root [28/Jan/2020:15:55:56 -0600] "GET /manager/text/start?path=/proyectoHotel_grupo1/index.xhtml HTTP/1.1" 200 102
127.0.0.1 - - [28/Jan/2020:15:56:20 -0600] "HEAD /netbeans-tomcat-status-test HTTP/1.1" 404 -
127.0.0.1 - root [28/Jan/2020:15:56:20 -0600] "GET /manager/text/ HTTP/1.1" 200 44
127.0.0.1 - - [28/Jan/2020:15:56:20 -0600] "HEAD /netbeans-tomcat-status-test HTTP/1.1" 404 -
127.0.0.1 - root [28/Jan/2020:15:56:20 -0600] "GET /manager/text/ HTTP/1.1" 200 44
127.0.0.1 - - [28/Jan/2020:15:56:20 -0600] "HEAD /netbeans-tomcat-status-test HTTP/1.1" 404 -
127.0.0.1 - root [28/Jan/2020:15:56:20 -0600] "GET /manager/text/ HTTP/1.1" 200 44
127.0.0.1 - root [28/Jan/2020:15:56:20 -0600] "GET /manager/text/list HTTP/1.1" 200 608
127.0.0.1 - - [28/Jan/2020:15:56:20 -0600] "HEAD /netbeans-tomcat-status-test HTTP/1.1" 404 -
127.0.0.1 - root [28/Jan/2020:15:56:20 -0600] "GET /manager/text/ HTTP/1.1" 200 44
0:0:0:0:0:0:0:1 - - [28/Jan/2020:15:56:22 -0600] "GET /proyectoHotel_grupo1/index.xhtml HTTP/1.1" 302 -
0:0:0:0:0:0:0:1 - - [28/Jan/2020:15:56:22 -0600] "GET /proyectoHotel_grupo1/index.xhtml/ HTTP/1.1" 404 966
0:0:0:0:0:0:0:1 - - [28/Jan/2020:15:56:27 -0600] "GET /proyectoHotel_grupo1/index.xhtml/ HTTP/1.1" 404 966
0:0:0:0:0:0:0:1 - - [28/Jan/2020:15:56:27 -0600] "GET /favicon.ico HTTP/1.1" 200 21630
0:0:0:0:0:0:0:1 - - [28/Jan/2020:15:56:27 -0600] "GET /proyectoHotel_grupo1/index.xhtml/ HTTP/1.1" 404 966
0:0:0:0:0:0:0:1 - - [28/Jan/2020:15:56:27 -0600] "GET /favicon.ico HTTP/1.1" 200 21630
0:0:0:0:0:0:0:1 - - [28/Jan/2020:15:56:28 -0600] "GET /proyectoHotel_grupo1/index.xhtml/ HTTP/1.1" 404 966
0:0:0:0:0:0:0:1 - - [28/Jan/2020:15:56:28 -0600] "GET /favicon.ico HTTP/1.1" 200 21630
127.0.0.1 - - [28/Jan/2020:15:56:36 -0600] "HEAD /netbeans-tomcat-status-test HTTP/1.1" 404 -
127.0.0.1 - root [28/Jan/2020:15:56:36 -0600] "GET /manager/text/ HTTP/1.1" 200 44
127.0.0.1 - - [28/Jan/2020:15:56:36 -0600] "HEAD /netbeans-tomcat-status-test HTTP/1.1" 404 -
127.0.0.1 - root [28/Jan/2020:15:56:36 -0600] "GET /manager/text/ HTTP/1.1" 200 44
127.0.0.1 - - [28/Jan/2020:15:56:36 -0600] "HEAD /netbeans-tomcat-status-test HTTP/1.1" 404 -
127.0.0.1 - root [28/Jan/2020:15:56:36 -0600] "GET /manager/text/ HTTP/1.1" 200 44
127.0.0.1 - - [28/Jan/2020:15:56:36 -0600] "HEAD /netbeans-tomcat-status-test HTTP/1.1" 404 -
127.0.0.1 - root [28/Jan/2020:15:56:36 -0600] "GET /manager/text/list HTTP/1.1" 200 608
127.0.0.1 - root [28/Jan/2020:15:56:36 -0600] "GET /manager/text/ HTTP/1.1" 200 44
127.0.0.1 - root [28/Jan/2020:15:56:36 -0600] "GET /manager/text/list HTTP/1.1" 200 608
127.0.0.1 - root [28/Jan/2020:15:56:37 -0600] "GET /manager/text/undeploy?path=/proyectoHotel_grupo1/index.xhtml HTTP/1.1" 200 102
127.0.0.1 - root [28/Jan/2020:15:56:38 -0600] "GET /manager/text/deploy?config=file%3A%2FC%3A%2FUsers%2FCHRIST%7E1.RAM%2FAppData%2FLocal%2FTemp%2Fcontext7681299294769885305.xml&path=/proyectoHotel_grupo1/index.xhtml HTTP/1.1" 200 103
127.0.0.1 - root [28/Jan/2020:15:56:38 -0600] "GET /manager/text/start?path=/proyectoHotel_grupo1/index.xhtml HTTP/1.1" 200 102
0:0:0:0:0:0:0:1 - - [28/Jan/2020:15:56:38 -0600] "GET /proyectoHotel_grupo1/index.xhtml/faces/index.xhtml HTTP/1.1" 404 966
0:0:0:0:0:0:0:1 - - [28/Jan/2020:15:56:56 -0600] "GET /proyectoHotel_grupo1/faces/index.xhtml HTTP/1.1" 404 1039
127.0.0.1 - - [28/Jan/2020:15:57:06 -0600] "HEAD /netbeans-tomcat-status-test HTTP/1.1" 404 -
127.0.0.1 - root [28/Jan/2020:15:57:06 -0600] "GET /manager/text/ HTTP/1.1" 200 44
127.0.0.1 - - [28/Jan/2020:15:57:06 -0600] "HEAD /netbeans-tomcat-status-test HTTP/1.1" 404 -
127.0.0.1 - root [28/Jan/2020:15:57:06 -0600] "GET /manager/text/ HTTP/1.1" 200 44
127.0.0.1 - - [28/Jan/2020:15:57:06 -0600] "HEAD /netbeans-tomcat-status-test HTTP/1.1" 404 -
127.0.0.1 - root [28/Jan/2020:15:57:06 -0600] "GET /manager/text/ HTTP/1.1" 200 44
127.0.0.1 - - [28/Jan/2020:15:57:06 -0600] "HEAD /netbeans-tomcat-status-test HTTP/1.1" 404 -
127.0.0.1 - root [28/Jan/2020:15:57:06 -0600] "GET /manager/text/list HTTP/1.1" 200 608
127.0.0.1 - root [28/Jan/2020:15:57:06 -0600] "GET /manager/text/ HTTP/1.1" 200 44
127.0.0.1 - root [28/Jan/2020:15:57:06 -0600] "GET /manager/text/list HTTP/1.1" 200 608
127.0.0.1 - root [28/Jan/2020:15:57:06 -0600] "GET /manager/text/undeploy?path=/proyectoHotel_grupo1/index.xhtml HTTP/1.1" 200 102
127.0.0.1 - root [28/Jan/2020:15:57:07 -0600] "GET /manager/text/deploy?config=file%3A%2FC%3A%2FUsers%2FCHRIST%7E1.RAM%2FAppData%2FLocal%2FTemp%2Fcontext6995644183280394259.xml&path=/proyectoHotel_grupo1/index.xhtml HTTP/1.1" 200 103
127.0.0.1 - root [28/Jan/2020:15:57:07 -0600] "GET /manager/text/start?path=/proyectoHotel_grupo1/index.xhtml HTTP/1.1" 200 102
0:0:0:0:0:0:0:1 - - [28/Jan/2020:15:57:07 -0600] "GET /proyectoHotel_grupo1/index.xhtml HTTP/1.1" 302 -
0:0:0:0:0:0:0:1 - - [28/Jan/2020:15:57:07 -0600] "GET /proyectoHotel_grupo1/index.xhtml/ HTTP/1.1" 404 966
0:0:0:0:0:0:0:1 - - [28/Jan/2020:15:57:16 -0600] "GET /proyectoHotel_grupo1/faces/index.xhtml/ HTTP/1.1" 404 1044
127.0.0.1 - - [28/Jan/2020:15:57:19 -0600] "HEAD /netbeans-tomcat-status-test HTTP/1.1" 404 -
127.0.0.1 - root [28/Jan/2020:15:57:19 -0600] "GET /manager/text/ HTTP/1.1" 200 44
127.0.0.1 - - [28/Jan/2020:15:57:19 -0600] "HEAD /netbeans-tomcat-status-test HTTP/1.1" 404 -
127.0.0.1 - root [28/Jan/2020:15:57:19 -0600] "GET /manager/text/ HTTP/1.1" 200 44
127.0.0.1 - root [28/Jan/2020:15:57:19 -0600] "GET /manager/text/list HTTP/1.1" 200 608
127.0.0.1 - root [28/Jan/2020:15:57:20 -0600] "GET /manager/text/undeploy?path=/proyectoHotel_grupo1/index.xhtml HTTP/1.1" 200 102
127.0.0.1 - - [28/Jan/2020:15:57:32 -0600] "HEAD /netbeans-tomcat-status-test HTTP/1.1" 404 -
127.0.0.1 - root [28/Jan/2020:15:57:32 -0600] "GET /manager/text/ HTTP/1.1" 200 44
127.0.0.1 - - [28/Jan/2020:15:57:32 -0600] "HEAD /netbeans-tomcat-status-test HTTP/1.1" 404 -
127.0.0.1 - root [28/Jan/2020:15:57:32 -0600] "GET /manager/text/ HTTP/1.1" 200 44
127.0.0.1 - - [28/Jan/2020:15:57:32 -0600] "HEAD /netbeans-tomcat-status-test HTTP/1.1" 404 -
127.0.0.1 - root [28/Jan/2020:15:57:32 -0600] "GET /manager/text/ HTTP/1.1" 200 44
127.0.0.1 - - [28/Jan/2020:15:57:32 -0600] "HEAD /netbeans-tomcat-status-test HTTP/1.1" 404 -
127.0.0.1 - root [28/Jan/2020:15:57:32 -0600] "GET /manager/text/list HTTP/1.1" 200 451
127.0.0.1 - root [28/Jan/2020:15:57:32 -0600] "GET /manager/text/ HTTP/1.1" 200 44
127.0.0.1 - root [28/Jan/2020:15:57:32 -0600] "GET /manager/text/list HTTP/1.1" 200 451
127.0.0.1 - root [28/Jan/2020:15:57:33 -0600] "GET /manager/text/deploy?config=file%3A%2FC%3A%2FUsers%2FCHRIST%7E1.RAM%2FAppData%2FLocal%2FTemp%2Fcontext1326445212182633602.xml&path=/proyectoHotel_grupo1/index.xhtml HTTP/1.1" 200 103
127.0.0.1 - root [28/Jan/2020:15:57:33 -0600] "GET /manager/text/start?path=/proyectoHotel_grupo1/index.xhtml HTTP/1.1" 200 102
0:0:0:0:0:0:0:1 - - [28/Jan/2020:15:57:33 -0600] "GET /proyectoHotel_grupo1/index.xhtml/faces/index.xhtml HTTP/1.1" 404 966
127.0.0.1 - - [28/Jan/2020:15:57:55 -0600] "HEAD /netbeans-tomcat-status-test HTTP/1.1" 404 -
127.0.0.1 - root [28/Jan/2020:15:57:55 -0600] "GET /manager/text/ HTTP/1.1" 200 44
127.0.0.1 - - [28/Jan/2020:15:57:55 -0600] "HEAD /netbeans-tomcat-status-test HTTP/1.1" 404 -
127.0.0.1 - root [28/Jan/2020:15:57:55 -0600] "GET /manager/text/ HTTP/1.1" 200 44
127.0.0.1 - - [28/Jan/2020:15:57:55 -0600] "HEAD /netbeans-tomcat-status-test HTTP/1.1" 404 -
127.0.0.1 - root [28/Jan/2020:15:57:55 -0600] "GET /manager/text/ HTTP/1.1" 200 44
127.0.0.1 - root [28/Jan/2020:15:57:55 -0600] "GET /manager/text/list HTTP/1.1" 200 608
127.0.0.1 - root [28/Jan/2020:15:57:56 -0600] "GET /manager/text/undeploy?path=/proyectoHotel_grupo1/index.xhtml HTTP/1.1" 200 102
127.0.0.1 - root [28/Jan/2020:15:57:57 -0600] "GET /manager/text/deploy?config=file%3A%2FC%3A%2FUsers%2FCHRIST%7E1.RAM%2FAppData%2FLocal%2FTemp%2Fcontext4584233210889399853.xml&path=/proyectoHotel_grupo1/index.xhtml HTTP/1.1" 200 103
127.0.0.1 - - [28/Jan/2020:15:57:57 -0600] "HEAD /netbeans-tomcat-status-test HTTP/1.1" 404 -
127.0.0.1 - root [28/Jan/2020:15:57:57 -0600] "GET /manager/text/ HTTP/1.1" 200 44
127.0.0.1 - - [28/Jan/2020:15:58:06 -0600] "HEAD /netbeans-tomcat-status-test HTTP/1.1" 404 -
127.0.0.1 - root [28/Jan/2020:15:58:06 -0600] "GET /manager/text/ HTTP/1.1" 200 44
127.0.0.1 - - [28/Jan/2020:15:58:06 -0600] "HEAD /netbeans-tomcat-status-test HTTP/1.1" 404 -
127.0.0.1 - root [28/Jan/2020:15:58:06 -0600] "GET /manager/text/ HTTP/1.1" 200 44
127.0.0.1 - - [28/Jan/2020:15:58:06 -0600] "HEAD /netbeans-tomcat-status-test HTTP/1.1" 404 -
127.0.0.1 - root [28/Jan/2020:15:58:06 -0600] "GET /manager/text/ HTTP/1.1" 200 44
127.0.0.1 - root [28/Jan/2020:15:58:06 -0600] "GET /manager/text/list HTTP/1.1" 200 608
127.0.0.1 - root [28/Jan/2020:15:58:07 -0600] "GET /manager/text/undeploy?path=/proyectoHotel_grupo1/index.xhtml HTTP/1.1" 200 102
127.0.0.1 - root [28/Jan/2020:15:58:08 -0600] "GET /manager/text/deploy?config=file%3A%2FC%3A%2FUsers%2FCHRIST%7E1.RAM%2FAppData%2FLocal%2FTemp%2Fcontext6589031143808008134.xml&path=/proyectoHotel_grupo1/index.xhtml HTTP/1.1" 200 103
127.0.0.1 - - [28/Jan/2020:15:58:08 -0600] "HEAD /netbeans-tomcat-status-test HTTP/1.1" 404 -
127.0.0.1 - root [28/Jan/2020:15:58:08 -0600] "GET /manager/text/ HTTP/1.1" 200 44
127.0.0.1 - - [28/Jan/2020:15:58:12 -0600] "HEAD /netbeans-tomcat-status-test HTTP/1.1" 404 -
127.0.0.1 - root [28/Jan/2020:15:58:12 -0600] "GET /manager/text/ HTTP/1.1" 200 44
127.0.0.1 - - [28/Jan/2020:15:58:12 -0600] "HEAD /netbeans-tomcat-status-test HTTP/1.1" 404 -
127.0.0.1 - root [28/Jan/2020:15:58:12 -0600] "GET /manager/text/ HTTP/1.1" 200 44
127.0.0.1 - - [28/Jan/2020:15:58:12 -0600] "HEAD /netbeans-tomcat-status-test HTTP/1.1" 404 -
127.0.0.1 - root [28/Jan/2020:15:58:12 -0600] "GET /manager/text/ HTTP/1.1" 200 44
127.0.0.1 - - [28/Jan/2020:15:58:12 -0600] "HEAD /netbeans-tomcat-status-test HTTP/1.1" 404 -
127.0.0.1 - root [28/Jan/2020:15:58:12 -0600] "GET /manager/text/list HTTP/1.1" 200 608
127.0.0.1 - root [28/Jan/2020:15:58:12 -0600] "GET /manager/text/ HTTP/1.1" 200 44
127.0.0.1 - root [28/Jan/2020:15:58:12 -0600] "GET /manager/text/list HTTP/1.1" 200 608
127.0.0.1 - root [28/Jan/2020:15:58:13 -0600] "GET /manager/text/undeploy?path=/proyectoHotel_grupo1/index.xhtml HTTP/1.1" 200 102
127.0.0.1 - root [28/Jan/2020:15:58:14 -0600] "GET /manager/text/deploy?config=file%3A%2FC%3A%2FUsers%2FCHRIST%7E1.RAM%2FAppData%2FLocal%2FTemp%2Fcontext8153124965259073984.xml&path=/proyectoHotel_grupo1 HTTP/1.1" 200 91
127.0.0.1 - root [28/Jan/2020:15:58:14 -0600] "GET /manager/text/start?path=/proyectoHotel_grupo1 HTTP/1.1" 200 90
0:0:0:0:0:0:0:1 - - [28/Jan/2020:15:58:14 -0600] "GET /proyectoHotel_grupo1/faces/index.xhtml HTTP/1.1" 404 966
0:0:0:0:0:0:0:1 - - [28/Jan/2020:15:58:19 -0600] "GET /proyectoHotel_grupo1/index.xhtml HTTP/1.1" 200 728
127.0.0.1 - - [28/Jan/2020:15:58:41 -0600] "HEAD /netbeans-tomcat-status-test HTTP/1.1" 404 -
127.0.0.1 - root [28/Jan/2020:15:58:41 -0600] "GET /manager/text/ HTTP/1.1" 200 44
127.0.0.1 - - [28/Jan/2020:15:58:41 -0600] "HEAD /netbeans-tomcat-status-test HTTP/1.1" 404 -
127.0.0.1 - root [28/Jan/2020:15:58:41 -0600] "GET /manager/text/ HTTP/1.1" 200 44
127.0.0.1 - - [28/Jan/2020:15:58:41 -0600] "HEAD /netbeans-tomcat-status-test HTTP/1.1" 404 -
127.0.0.1 - root [28/Jan/2020:15:58:41 -0600] "GET /manager/text/ HTTP/1.1" 200 44
127.0.0.1 - root [28/Jan/2020:15:58:41 -0600] "GET /manager/text/list HTTP/1.1" 200 596
127.0.0.1 - - [28/Jan/2020:15:58:41 -0600] "HEAD /netbeans-tomcat-status-test HTTP/1.1" 404 -
127.0.0.1 - root [28/Jan/2020:15:58:41 -0600] "GET /manager/text/ HTTP/1.1" 200 44
0:0:0:0:0:0:0:1 - - [28/Jan/2020:15:58:42 -0600] "GET /proyectoHotel_grupo1/index.xhtml HTTP/1.1" 200 730
0:0:0:0:0:0:0:1 - - [28/Jan/2020:15:58:42 -0600] "GET /favicon.ico HTTP/1.1" 200 21630
0:0:0:0:0:0:0:1 - - [28/Jan/2020:15:58:48 -0600] "GET /proyectoHotel_grupo1/index.xhtml HTTP/1.1" 304 -
0:0:0:0:0:0:0:1 - - [28/Jan/2020:15:58:48 -0600] "GET /favicon.ico HTTP/1.1" 200 21630
127.0.0.1 - - [28/Jan/2020:15:58:50 -0600] "HEAD /netbeans-tomcat-status-test HTTP/1.1" 404 -
127.0.0.1 - root [28/Jan/2020:15:58:50 -0600] "GET /manager/text/ HTTP/1.1" 200 44
127.0.0.1 - - [28/Jan/2020:15:58:50 -0600] "HEAD /netbeans-tomcat-status-test HTTP/1.1" 404 -
127.0.0.1 - root [28/Jan/2020:15:58:50 -0600] "GET /manager/text/ HTTP/1.1" 200 44
127.0.0.1 - root [28/Jan/2020:15:58:50 -0600] "GET /manager/text/list HTTP/1.1" 200 596
127.0.0.1 - root [28/Jan/2020:15:58:50 -0600] "GET /manager/text/undeploy?path=/proyectoHotel_grupo1 HTTP/1.1" 200 90
127.0.0.1 - - [28/Jan/2020:15:59:01 -0600] "HEAD /netbeans-tomcat-status-test HTTP/1.1" 404 -
127.0.0.1 - root [28/Jan/2020:15:59:01 -0600] "GET /manager/text/ HTTP/1.1" 200 44
127.0.0.1 - - [28/Jan/2020:15:59:01 -0600] "HEAD /netbeans-tomcat-status-test HTTP/1.1" 404 -
127.0.0.1 - root [28/Jan/2020:15:59:01 -0600] "GET /manager/text/ HTTP/1.1" 200 44
127.0.0.1 - - [28/Jan/2020:15:59:01 -0600] "HEAD /netbeans-tomcat-status-test HTTP/1.1" 404 -
127.0.0.1 - root [28/Jan/2020:15:59:01 -0600] "GET /manager/text/ HTTP/1.1" 200 44
127.0.0.1 - root [28/Jan/2020:15:59:01 -0600] "GET /manager/text/list HTTP/1.1" 200 451
127.0.0.1 - - [28/Jan/2020:15:59:10 -0600] "HEAD /netbeans-tomcat-status-test HTTP/1.1" 404 -
127.0.0.1 - root [28/Jan/2020:15:59:10 -0600] "GET /manager/text/ HTTP/1.1" 200 44
127.0.0.1 - - [28/Jan/2020:15:59:10 -0600] "HEAD /netbeans-tomcat-status-test HTTP/1.1" 404 -
127.0.0.1 - root [28/Jan/2020:15:59:10 -0600] "GET /manager/text/ HTTP/1.1" 200 44
127.0.0.1 - - [28/Jan/2020:15:59:10 -0600] "HEAD /netbeans-tomcat-status-test HTTP/1.1" 404 -
127.0.0.1 - root [28/Jan/2020:15:59:10 -0600] "GET /manager/text/ HTTP/1.1" 200 44
127.0.0.1 - - [28/Jan/2020:15:59:10 -0600] "HEAD /netbeans-tomcat-status-test HTTP/1.1" 404 -
127.0.0.1 - root [28/Jan/2020:15:59:10 -0600] "GET /manager/text/list HTTP/1.1" 200 451
127.0.0.1 - root [28/Jan/2020:15:59:10 -0600] "GET /manager/text/ HTTP/1.1" 200 44
127.0.0.1 - root [28/Jan/2020:15:59:10 -0600] "GET /manager/text/list HTTP/1.1" 200 451
127.0.0.1 - root [28/Jan/2020:15:59:11 -0600] "GET /manager/text/deploy?config=file%3A%2FC%3A%2FUsers%2FCHRIST%7E1.RAM%2FAppData%2FLocal%2FTemp%2Fcontext5158448332946099266.xml&path=/proyectoHotel_grupo1 HTTP/1.1" 200 91
127.0.0.1 - root [28/Jan/2020:15:59:11 -0600] "GET /manager/text/start?path=/proyectoHotel_grupo1 HTTP/1.1" 200 90
0:0:0:0:0:0:0:1 - - [28/Jan/2020:15:59:11 -0600] "GET /proyectoHotel_grupo1/faces/index.xhtml HTTP/1.1" 404 966
0:0:0:0:0:0:0:1 - - [28/Jan/2020:15:59:18 -0600] "GET /proyectoHotel_grupo1/index.xhtml HTTP/1.1" 200 760
127.0.0.1 - - [28/Jan/2020:15:59:31 -0600] "HEAD /netbeans-tomcat-status-test HTTP/1.1" 404 -
127.0.0.1 - root [28/Jan/2020:15:59:31 -0600] "GET /manager/text/ HTTP/1.1" 200 44
127.0.0.1 - - [28/Jan/2020:15:59:31 -0600] "HEAD /netbeans-tomcat-status-test HTTP/1.1" 404 -
127.0.0.1 - root [28/Jan/2020:15:59:31 -0600] "GET /manager/text/ HTTP/1.1" 200 44
127.0.0.1 - - [28/Jan/2020:15:59:31 -0600] "HEAD /netbeans-tomcat-status-test HTTP/1.1" 404 -
127.0.0.1 - root [28/Jan/2020:15:59:31 -0600] "GET /manager/text/ HTTP/1.1" 200 44
127.0.0.1 - root [28/Jan/2020:15:59:31 -0600] "GET /manager/text/list HTTP/1.1" 200 596
127.0.0.1 - root [28/Jan/2020:15:59:31 -0600] "GET /manager/text/stop?path=/proyectoHotel_grupo1 HTTP/1.1" 200 87
127.0.0.1 - root [28/Jan/2020:15:59:32 -0600] "GET /manager/text/start?path=/proyectoHotel_grupo1 HTTP/1.1" 200 90
127.0.0.1 - - [28/Jan/2020:15:59:32 -0600] "HEAD /netbeans-tomcat-status-test HTTP/1.1" 404 -
127.0.0.1 - root [28/Jan/2020:15:59:32 -0600] "GET /manager/text/ HTTP/1.1" 200 44
127.0.0.1 - - [28/Jan/2020:15:59:34 -0600] "HEAD /netbeans-tomcat-status-test HTTP/1.1" 404 -
127.0.0.1 - root [28/Jan/2020:15:59:34 -0600] "GET /manager/text/ HTTP/1.1" 200 44
127.0.0.1 - - [28/Jan/2020:15:59:34 -0600] "HEAD /netbeans-tomcat-status-test HTTP/1.1" 404 -
127.0.0.1 - root [28/Jan/2020:15:59:34 -0600] "GET /manager/text/ HTTP/1.1" 200 44
127.0.0.1 - - [28/Jan/2020:15:59:34 -0600] "HEAD /netbeans-tomcat-status-test HTTP/1.1" 404 -
127.0.0.1 - root [28/Jan/2020:15:59:34 -0600] "GET /manager/text/ HTTP/1.1" 200 44
127.0.0.1 - - [28/Jan/2020:15:59:34 -0600] "HEAD /netbeans-tomcat-status-test HTTP/1.1" 404 -
127.0.0.1 - root [28/Jan/2020:15:59:34 -0600] "GET /manager/text/list HTTP/1.1" 200 596
127.0.0.1 - root [28/Jan/2020:15:59:34 -0600] "GET /manager/text/ HTTP/1.1" 200 44
127.0.0.1 - root [28/Jan/2020:15:59:34 -0600] "GET /manager/text/list HTTP/1.1" 200 596
127.0.0.1 - root [28/Jan/2020:15:59:35 -0600] "GET /manager/text/undeploy?path=/proyectoHotel_grupo1 HTTP/1.1" 200 90
127.0.0.1 - root [28/Jan/2020:15:59:36 -0600] "GET /manager/text/deploy?config=file%3A%2FC%3A%2FUsers%2FCHRIST%7E1.RAM%2FAppData%2FLocal%2FTemp%2Fcontext7141002965264779090.xml&path=/proyectoHotel_grupo1 HTTP/1.1" 200 91
127.0.0.1 - root [28/Jan/2020:15:59:36 -0600] "GET /manager/text/start?path=/proyectoHotel_grupo1 HTTP/1.1" 200 90
0:0:0:0:0:0:0:1 - - [28/Jan/2020:15:59:36 -0600] "GET /proyectoHotel_grupo1 HTTP/1.1" 302 -
0:0:0:0:0:0:0:1 - - [28/Jan/2020:15:59:36 -0600] "GET /proyectoHotel_grupo1/ HTTP/1.1" 200 760
127.0.0.1 - - [28/Jan/2020:16:00:23 -0600] "HEAD /netbeans-tomcat-status-test HTTP/1.1" 404 -
127.0.0.1 - root [28/Jan/2020:16:00:23 -0600] "GET /manager/text/ HTTP/1.1" 200 44
127.0.0.1 - - [28/Jan/2020:16:00:23 -0600] "HEAD /netbeans-tomcat-status-test HTTP/1.1" 404 -
127.0.0.1 - root [28/Jan/2020:16:00:23 -0600] "GET /manager/text/ HTTP/1.1" 200 44
127.0.0.1 - - [28/Jan/2020:16:00:23 -0600] "HEAD /netbeans-tomcat-status-test HTTP/1.1" 404 -
127.0.0.1 - root [28/Jan/2020:16:00:23 -0600] "GET /manager/text/ HTTP/1.1" 200 44
127.0.0.1 - root [28/Jan/2020:16:00:23 -0600] "GET /manager/text/list HTTP/1.1" 200 596
127.0.0.1 - - [28/Jan/2020:16:00:23 -0600] "HEAD /netbeans-tomcat-status-test HTTP/1.1" 404 -
127.0.0.1 - root [28/Jan/2020:16:00:23 -0600] "GET /manager/text/ HTTP/1.1" 200 44
0:0:0:0:0:0:0:1 - - [28/Jan/2020:16:00:24 -0600] "GET /proyectoHotel_grupo1/ HTTP/1.1" 200 805
0:0:0:0:0:0:0:1 - - [28/Jan/2020:16:00:24 -0600] "GET /favicon.ico HTTP/1.1" 200 21630
0:0:0:0:0:0:0:1 - - [28/Jan/2020:16:00:25 -0600] "GET /proyectoHotel_grupo1/ HTTP/1.1" 304 -
0:0:0:0:0:0:0:1 - - [28/Jan/2020:16:00:25 -0600] "GET /favicon.ico HTTP/1.1" 200 21630
127.0.0.1 - - [28/Jan/2020:16:00:33 -0600] "HEAD /netbeans-tomcat-status-test HTTP/1.1" 404 -
127.0.0.1 - root [28/Jan/2020:16:00:33 -0600] "GET /manager/text/ HTTP/1.1" 200 44
127.0.0.1 - - [28/Jan/2020:16:00:33 -0600] "HEAD /netbeans-tomcat-status-test HTTP/1.1" 404 -
127.0.0.1 - root [28/Jan/2020:16:00:33 -0600] "GET /manager/text/ HTTP/1.1" 200 44
127.0.0.1 - - [28/Jan/2020:16:00:33 -0600] "HEAD /netbeans-tomcat-status-test HTTP/1.1" 404 -
127.0.0.1 - root [28/Jan/2020:16:00:33 -0600] "GET /manager/text/ HTTP/1.1" 200 44
127.0.0.1 - root [28/Jan/2020:16:00:33 -0600] "GET /manager/text/list HTTP/1.1" 200 596
127.0.0.1 - - [28/Jan/2020:16:00:33 -0600] "HEAD /netbeans-tomcat-status-test HTTP/1.1" 404 -
127.0.0.1 - root [28/Jan/2020:16:00:33 -0600] "GET /manager/text/ HTTP/1.1" 200 44
127.0.0.1 - - [28/Jan/2020:16:00:46 -0600] "HEAD /netbeans-tomcat-status-test HTTP/1.1" 404 -
127.0.0.1 - root [28/Jan/2020:16:00:46 -0600] "GET /manager/text/ HTTP/1.1" 200 44
127.0.0.1 - - [28/Jan/2020:16:00:46 -0600] "HEAD /netbeans-tomcat-status-test HTTP/1.1" 404 -
127.0.0.1 - root [28/Jan/2020:16:00:46 -0600] "GET /manager/text/ HTTP/1.1" 200 44
127.0.0.1 - - [28/Jan/2020:16:00:46 -0600] "HEAD /netbeans-tomcat-status-test HTTP/1.1" 404 -
127.0.0.1 - root [28/Jan/2020:16:00:46 -0600] "GET /manager/text/ HTTP/1.1" 200 44
127.0.0.1 - root [28/Jan/2020:16:00:46 -0600] "GET /manager/text/list HTTP/1.1" 200 596
127.0.0.1 - - [28/Jan/2020:16:00:46 -0600] "HEAD /netbeans-tomcat-status-test HTTP/1.1" 404 -
127.0.0.1 - root [28/Jan/2020:16:00:46 -0600] "GET /manager/text/ HTTP/1.1" 200 44
0:0:0:0:0:0:0:1 - - [28/Jan/2020:16:00:48 -0600] "GET /proyectoHotel_grupo1/ HTTP/1.1" 200 863
0:0:0:0:0:0:0:1 - - [28/Jan/2020:16:00:48 -0600] "GET /favicon.ico HTTP/1.1" 200 21630
0:0:0:0:0:0:0:1 - - [28/Jan/2020:16:00:49 -0600] "GET /proyectoHotel_grupo1/ HTTP/1.1" 304 -
0:0:0:0:0:0:0:1 - - [28/Jan/2020:16:00:49 -0600] "GET /favicon.ico HTTP/1.1" 200 21630
0:0:0:0:0:0:0:1 - - [28/Jan/2020:16:00:49 -0600] "GET /proyectoHotel_grupo1/ HTTP/1.1" 304 -
0:0:0:0:0:0:0:1 - - [28/Jan/2020:16:00:49 -0600] "GET /favicon.ico HTTP/1.1" 200 21630
127.0.0.1 - - [28/Jan/2020:16:00:53 -0600] "HEAD /netbeans-tomcat-status-test HTTP/1.1" 404 -
127.0.0.1 - root [28/Jan/2020:16:00:53 -0600] "GET /manager/text/ HTTP/1.1" 200 44
127.0.0.1 - - [28/Jan/2020:16:00:53 -0600] "HEAD /netbeans-tomcat-status-test HTTP/1.1" 404 -
127.0.0.1 - root [28/Jan/2020:16:00:53 -0600] "GET /manager/text/ HTTP/1.1" 200 44
127.0.0.1 - - [28/Jan/2020:16:00:53 -0600] "HEAD /netbeans-tomcat-status-test HTTP/1.1" 404 -
127.0.0.1 - root [28/Jan/2020:16:00:53 -0600] "GET /manager/text/ HTTP/1.1" 200 44
127.0.0.1 - root [28/Jan/2020:16:00:53 -0600] "GET /manager/text/list HTTP/1.1" 200 596
127.0.0.1 - - [28/Jan/2020:16:00:53 -0600] "HEAD /netbeans-tomcat-status-test HTTP/1.1" 404 -
127.0.0.1 - root [28/Jan/2020:16:00:53 -0600] "GET /manager/text/ HTTP/1.1" 200 44
0:0:0:0:0:0:0:1 - - [28/Jan/2020:16:00:54 -0600] "GET /proyectoHotel_grupo1/ HTTP/1.1" 200 880
0:0:0:0:0:0:0:1 - - [28/Jan/2020:16:00:54 -0600] "GET /favicon.ico HTTP/1.1" 200 21630
0:0:0:0:0:0:0:1 - - [28/Jan/2020:16:00:55 -0600] "GET /proyectoHotel_grupo1/ HTTP/1.1" 304 -
0:0:0:0:0:0:0:1 - - [28/Jan/2020:16:00:55 -0600] "GET /favicon.ico HTTP/1.1" 200 21630
127.0.0.1 - - [28/Jan/2020:16:00:59 -0600] "HEAD /netbeans-tomcat-status-test HTTP/1.1" 404 -
127.0.0.1 - root [28/Jan/2020:16:00:59 -0600] "GET /manager/text/ HTTP/1.1" 200 44
127.0.0.1 - - [28/Jan/2020:16:00:59 -0600] "HEAD /netbeans-tomcat-status-test HTTP/1.1" 404 -
127.0.0.1 - root [28/Jan/2020:16:00:59 -0600] "GET /manager/text/ HTTP/1.1" 200 44
127.0.0.1 - - [28/Jan/2020:16:00:59 -0600] "HEAD /netbeans-tomcat-status-test HTTP/1.1" 404 -
127.0.0.1 - root [28/Jan/2020:16:00:59 -0600] "GET /manager/text/ HTTP/1.1" 200 44
127.0.0.1 - root [28/Jan/2020:16:00:59 -0600] "GET /manager/text/list HTTP/1.1" 200 596
127.0.0.1 - - [28/Jan/2020:16:00:59 -0600] "HEAD /netbeans-tomcat-status-test HTTP/1.1" 404 -
127.0.0.1 - root [28/Jan/2020:16:00:59 -0600] "GET /manager/text/ HTTP/1.1" 200 44
0:0:0:0:0:0:0:1 - - [28/Jan/2020:16:00:59 -0600] "GET /proyectoHotel_grupo1/ HTTP/1.1" 200 898
0:0:0:0:0:0:0:1 - - [28/Jan/2020:16:00:59 -0600] "GET /favicon.ico HTTP/1.1" 200 21630
127.0.0.1 - - [28/Jan/2020:16:01:52 -0600] "HEAD /netbeans-tomcat-status-test HTTP/1.1" 404 -
127.0.0.1 - root [28/Jan/2020:16:01:52 -0600] "GET /manager/text/ HTTP/1.1" 200 44
127.0.0.1 - - [28/Jan/2020:16:01:52 -0600] "HEAD /netbeans-tomcat-status-test HTTP/1.1" 404 -
127.0.0.1 - root [28/Jan/2020:16:01:52 -0600] "GET /manager/text/ HTTP/1.1" 200 44
127.0.0.1 - root [28/Jan/2020:16:01:52 -0600] "GET /manager/text/list HTTP/1.1" 200 596
127.0.0.1 - root [28/Jan/2020:16:01:53 -0600] "GET /manager/text/undeploy?path=/proyectoHotel_grupo1 HTTP/1.1" 200 90
127.0.0.1 - - [28/Jan/2020:16:02:10 -0600] "HEAD /netbeans-tomcat-status-test HTTP/1.1" 404 -
127.0.0.1 - root [28/Jan/2020:16:02:10 -0600] "GET /manager/text/ HTTP/1.1" 200 44
127.0.0.1 - - [28/Jan/2020:16:02:10 -0600] "HEAD /netbeans-tomcat-status-test HTTP/1.1" 404 -
127.0.0.1 - root [28/Jan/2020:16:02:10 -0600] "GET /manager/text/ HTTP/1.1" 200 44
127.0.0.1 - - [28/Jan/2020:16:02:10 -0600] "HEAD /netbeans-tomcat-status-test HTTP/1.1" 404 -
127.0.0.1 - root [28/Jan/2020:16:02:10 -0600] "GET /manager/text/ HTTP/1.1" 200 44
127.0.0.1 - - [28/Jan/2020:16:02:10 -0600] "HEAD /netbeans-tomcat-status-test HTTP/1.1" 404 -
127.0.0.1 - root [28/Jan/2020:16:02:10 -0600] "GET /manager/text/list HTTP/1.1" 200 451
127.0.0.1 - root [28/Jan/2020:16:02:10 -0600] "GET /manager/text/ HTTP/1.1" 200 44
127.0.0.1 - root [28/Jan/2020:16:02:10 -0600] "GET /manager/text/list HTTP/1.1" 200 451
127.0.0.1 - root [28/Jan/2020:16:02:11 -0600] "GET /manager/text/deploy?config=file%3A%2FC%3A%2FUsers%2FCHRIST%7E1.RAM%2FAppData%2FLocal%2FTemp%2Fcontext7144187107929267349.xml&path=/proyectoHotel_grupo1 HTTP/1.1" 200 91
127.0.0.1 - root [28/Jan/2020:16:02:11 -0600] "GET /manager/text/start?path=/proyectoHotel_grupo1 HTTP/1.1" 200 90
0:0:0:0:0:0:0:1 - - [28/Jan/2020:16:02:11 -0600] "GET /proyectoHotel_grupo1 HTTP/1.1" 302 -
0:0:0:0:0:0:0:1 - - [28/Jan/2020:16:02:11 -0600] "GET /proyectoHotel_grupo1/ HTTP/1.1" 200 898
127.0.0.1 - - [28/Jan/2020:16:04:04 -0600] "HEAD /netbeans-tomcat-status-test HTTP/1.1" 404 -
127.0.0.1 - root [28/Jan/2020:16:04:04 -0600] "GET /manager/text/ HTTP/1.1" 200 44
127.0.0.1 - - [28/Jan/2020:16:04:04 -0600] "HEAD /netbeans-tomcat-status-test HTTP/1.1" 404 -
127.0.0.1 - root [28/Jan/2020:16:04:04 -0600] "GET /manager/text/ HTTP/1.1" 200 44
127.0.0.1 - - [28/Jan/2020:16:04:04 -0600] "HEAD /netbeans-tomcat-status-test HTTP/1.1" 404 -
127.0.0.1 - root [28/Jan/2020:16:04:04 -0600] "GET /manager/text/ HTTP/1.1" 200 44
127.0.0.1 - root [28/Jan/2020:16:04:04 -0600] "GET /manager/text/list HTTP/1.1" 200 596
127.0.0.1 - root [28/Jan/2020:16:04:06 -0600] "GET /manager/text/reload?path=/proyectoHotel_grupo1 HTTP/1.1" 200 90
127.0.0.1 - - [28/Jan/2020:16:04:06 -0600] "HEAD /netbeans-tomcat-status-test HTTP/1.1" 404 -
127.0.0.1 - root [28/Jan/2020:16:04:06 -0600] "GET /manager/text/ HTTP/1.1" 200 44
127.0.0.1 - - [28/Jan/2020:16:04:21 -0600] "HEAD /netbeans-tomcat-status-test HTTP/1.1" 404 -
127.0.0.1 - root [28/Jan/2020:16:04:21 -0600] "GET /manager/text/ HTTP/1.1" 200 44
127.0.0.1 - - [28/Jan/2020:16:04:21 -0600] "HEAD /netbeans-tomcat-status-test HTTP/1.1" 404 -
127.0.0.1 - root [28/Jan/2020:16:04:21 -0600] "GET /manager/text/ HTTP/1.1" 200 44
127.0.0.1 - - [28/Jan/2020:16:04:21 -0600] "HEAD /netbeans-tomcat-status-test HTTP/1.1" 404 -
127.0.0.1 - root [28/Jan/2020:16:04:21 -0600] "GET /manager/text/ HTTP/1.1" 200 44
127.0.0.1 - - [28/Jan/2020:16:04:21 -0600] "HEAD /netbeans-tomcat-status-test HTTP/1.1" 404 -
127.0.0.1 - root [28/Jan/2020:16:04:21 -0600] "GET /manager/text/list HTTP/1.1" 200 596
127.0.0.1 - root [28/Jan/2020:16:04:21 -0600] "GET /manager/text/ HTTP/1.1" 200 44
127.0.0.1 - root [28/Jan/2020:16:04:21 -0600] "GET /manager/text/list HTTP/1.1" 200 596
127.0.0.1 - root [28/Jan/2020:16:04:21 -0600] "GET /manager/text/undeploy?path=/proyectoHotel_grupo1 HTTP/1.1" 200 90
127.0.0.1 - root [28/Jan/2020:16:04:22 -0600] "GET /manager/text/deploy?config=file%3A%2FC%3A%2FUsers%2FCHRIST%7E1.RAM%2FAppData%2FLocal%2FTemp%2Fcontext1489865018978016834.xml&path=/proyectoHotel_grupo1 HTTP/1.1" 200 91
127.0.0.1 - root [28/Jan/2020:16:04:22 -0600] "GET /manager/text/start?path=/proyectoHotel_grupo1 HTTP/1.1" 200 90
0:0:0:0:0:0:0:1 - - [28/Jan/2020:16:04:22 -0600] "GET /proyectoHotel_grupo1 HTTP/1.1" 302 -
0:0:0:0:0:0:0:1 - - [28/Jan/2020:16:04:22 -0600] "GET /proyectoHotel_grupo1/ HTTP/1.1" 304 -
127.0.0.1 - - [28/Jan/2020:16:06:33 -0600] "HEAD /netbeans-tomcat-status-test HTTP/1.1" 404 -
127.0.0.1 - root [28/Jan/2020:16:06:33 -0600] "GET /manager/text/ HTTP/1.1" 200 44
127.0.0.1 - - [28/Jan/2020:16:06:33 -0600] "HEAD /netbeans-tomcat-status-test HTTP/1.1" 404 -
127.0.0.1 - root [28/Jan/2020:16:06:33 -0600] "GET /manager/text/ HTTP/1.1" 200 44
127.0.0.1 - - [28/Jan/2020:16:06:33 -0600] "HEAD /netbeans-tomcat-status-test HTTP/1.1" 404 -
127.0.0.1 - root [28/Jan/2020:16:06:33 -0600] "GET /manager/text/ HTTP/1.1" 200 44
127.0.0.1 - root [28/Jan/2020:16:06:33 -0600] "GET /manager/text/list HTTP/1.1" 200 596
127.0.0.1 - root [28/Jan/2020:16:06:33 -0600] "GET /manager/text/stop?path=/proyectoHotel_grupo1 HTTP/1.1" 200 87
127.0.0.1 - root [28/Jan/2020:16:06:34 -0600] "GET /manager/text/start?path=/proyectoHotel_grupo1 HTTP/1.1" 200 90
127.0.0.1 - - [28/Jan/2020:16:06:34 -0600] "HEAD /netbeans-tomcat-status-test HTTP/1.1" 404 -
127.0.0.1 - root [28/Jan/2020:16:06:34 -0600] "GET /manager/text/ HTTP/1.1" 200 44
127.0.0.1 - - [28/Jan/2020:16:06:36 -0600] "HEAD /netbeans-tomcat-status-test HTTP/1.1" 404 -
127.0.0.1 - root [28/Jan/2020:16:06:36 -0600] "GET /manager/text/ HTTP/1.1" 200 44
127.0.0.1 - - [28/Jan/2020:16:06:36 -0600] "HEAD /netbeans-tomcat-status-test HTTP/1.1" 404 -
127.0.0.1 - root [28/Jan/2020:16:06:36 -0600] "GET /manager/text/ HTTP/1.1" 200 44
127.0.0.1 - root [28/Jan/2020:16:06:36 -0600] "GET /manager/text/list HTTP/1.1" 200 596
127.0.0.1 - root [28/Jan/2020:16:06:37 -0600] "GET /manager/text/undeploy?path=/proyectoHotel_grupo1 HTTP/1.1" 200 90
127.0.0.1 - - [28/Jan/2020:16:06:50 -0600] "HEAD /netbeans-tomcat-status-test HTTP/1.1" 404 -
127.0.0.1 - root [28/Jan/2020:16:06:50 -0600] "GET /manager/text/ HTTP/1.1" 200 44
127.0.0.1 - - [28/Jan/2020:16:06:50 -0600] "HEAD /netbeans-tomcat-status-test HTTP/1.1" 404 -
127.0.0.1 - root [28/Jan/2020:16:06:50 -0600] "GET /manager/text/ HTTP/1.1" 200 44
127.0.0.1 - - [28/Jan/2020:16:06:50 -0600] "HEAD /netbeans-tomcat-status-test HTTP/1.1" 404 -
127.0.0.1 - root [28/Jan/2020:16:06:50 -0600] "GET /manager/text/ HTTP/1.1" 200 44
127.0.0.1 - - [28/Jan/2020:16:06:50 -0600] "HEAD /netbeans-tomcat-status-test HTTP/1.1" 404 -
127.0.0.1 - root [28/Jan/2020:16:06:50 -0600] "GET /manager/text/list HTTP/1.1" 200 451
127.0.0.1 - root [28/Jan/2020:16:06:50 -0600] "GET /manager/text/ HTTP/1.1" 200 44
127.0.0.1 - root [28/Jan/2020:16:06:50 -0600] "GET /manager/text/list HTTP/1.1" 200 451
127.0.0.1 - root [28/Jan/2020:16:06:51 -0600] "GET /manager/text/deploy?config=file%3A%2FC%3A%2FUsers%2FCHRIST%7E1.RAM%2FAppData%2FLocal%2FTemp%2Fcontext6235579186391944189.xml&path=/proyectoHotel_grupo1 HTTP/1.1" 200 91
127.0.0.1 - root [28/Jan/2020:16:06:51 -0600] "GET /manager/text/start?path=/proyectoHotel_grupo1 HTTP/1.1" 200 90
0:0:0:0:0:0:0:1 - - [28/Jan/2020:16:06:51 -0600] "GET /proyectoHotel_grupo1/faces/index.xhtml HTTP/1.1" 404 966
0:0:0:0:0:0:0:1 - - [28/Jan/2020:16:06:59 -0600] "GET /proyectoHotel_grupo1/index.xhtml HTTP/1.1" 200 898
127.0.0.1 - - [28/Jan/2020:16:07:08 -0600] "HEAD /netbeans-tomcat-status-test HTTP/1.1" 404 -
127.0.0.1 - root [28/Jan/2020:16:07:08 -0600] "GET /manager/text/ HTTP/1.1" 200 44
127.0.0.1 - - [28/Jan/2020:16:07:08 -0600] "HEAD /netbeans-tomcat-status-test HTTP/1.1" 404 -
127.0.0.1 - root [28/Jan/2020:16:07:08 -0600] "GET /manager/text/ HTTP/1.1" 200 44
127.0.0.1 - root [28/Jan/2020:16:07:08 -0600] "GET /manager/text/list HTTP/1.1" 200 596
127.0.0.1 - root [28/Jan/2020:16:07:09 -0600] "GET /manager/text/undeploy?path=/proyectoHotel_grupo1 HTTP/1.1" 200 90
127.0.0.1 - - [28/Jan/2020:16:07:18 -0600] "HEAD /netbeans-tomcat-status-test HTTP/1.1" 404 -
127.0.0.1 - root [28/Jan/2020:16:07:18 -0600] "GET /manager/text/ HTTP/1.1" 200 44
127.0.0.1 - - [28/Jan/2020:16:07:18 -0600] "HEAD /netbeans-tomcat-status-test HTTP/1.1" 404 -
127.0.0.1 - root [28/Jan/2020:16:07:18 -0600] "GET /manager/text/ HTTP/1.1" 200 44
127.0.0.1 - - [28/Jan/2020:16:07:18 -0600] "HEAD /netbeans-tomcat-status-test HTTP/1.1" 404 -
127.0.0.1 - root [28/Jan/2020:16:07:18 -0600] "GET /manager/text/ HTTP/1.1" 200 44
127.0.0.1 - - [28/Jan/2020:16:07:18 -0600] "HEAD /netbeans-tomcat-status-test HTTP/1.1" 404 -
127.0.0.1 - root [28/Jan/2020:16:07:18 -0600] "GET /manager/text/list HTTP/1.1" 200 451
127.0.0.1 - root [28/Jan/2020:16:07:18 -0600] "GET /manager/text/ HTTP/1.1" 200 44
127.0.0.1 - root [28/Jan/2020:16:07:18 -0600] "GET /manager/text/list HTTP/1.1" 200 451
127.0.0.1 - root [28/Jan/2020:16:07:19 -0600] "GET /manager/text/deploy?config=file%3A%2FC%3A%2FUsers%2FCHRIST%7E1.RAM%2FAppData%2FLocal%2FTemp%2Fcontext3890479030785754939.xml&path=/proyectoHotel_grupo1 HTTP/1.1" 200 91
127.0.0.1 - root [28/Jan/2020:16:07:19 -0600] "GET /manager/text/start?path=/proyectoHotel_grupo1 HTTP/1.1" 200 90
0:0:0:0:0:0:0:1 - - [28/Jan/2020:16:07:19 -0600] "GET /proyectoHotel_grupo1 HTTP/1.1" 302 -
0:0:0:0:0:0:0:1 - - [28/Jan/2020:16:07:19 -0600] "GET /proyectoHotel_grupo1/ HTTP/1.1" 304 -
0:0:0:0:0:0:0:1 - - [28/Jan/2020:16:07:34 -0600] "GET /proyectoHotel_grupo1/ HTTP/1.1" 304 -
0:0:0:0:0:0:0:1 - - [28/Jan/2020:16:07:34 -0600] "GET /favicon.ico HTTP/1.1" 200 21630
0:0:0:0:0:0:0:1 - - [28/Jan/2020:16:07:34 -0600] "GET /proyectoHotel_grupo1/ HTTP/1.1" 304 -
0:0:0:0:0:0:0:1 - - [28/Jan/2020:16:07:34 -0600] "GET /favicon.ico HTTP/1.1" 200 21630
127.0.0.1 - - [28/Jan/2020:16:08:02 -0600] "HEAD /netbeans-tomcat-status-test HTTP/1.1" 404 -
127.0.0.1 - root [28/Jan/2020:16:08:02 -0600] "GET /manager/text/ HTTP/1.1" 200 44
127.0.0.1 - - [28/Jan/2020:16:08:02 -0600] "HEAD /netbeans-tomcat-status-test HTTP/1.1" 404 -
127.0.0.1 - root [28/Jan/2020:16:08:02 -0600] "GET /manager/text/ HTTP/1.1" 200 44
127.0.0.1 - - [28/Jan/2020:16:08:02 -0600] "HEAD /netbeans-tomcat-status-test HTTP/1.1" 404 -
127.0.0.1 - root [28/Jan/2020:16:08:02 -0600] "GET /manager/text/ HTTP/1.1" 200 44
127.0.0.1 - root [28/Jan/2020:16:08:02 -0600] "GET /manager/text/list HTTP/1.1" 200 596
127.0.0.1 - root [28/Jan/2020:16:08:02 -0600] "GET /manager/text/stop?path=/proyectoHotel_grupo1 HTTP/1.1" 200 87
127.0.0.1 - root [28/Jan/2020:16:08:03 -0600] "GET /manager/text/start?path=/proyectoHotel_grupo1 HTTP/1.1" 200 90
127.0.0.1 - - [28/Jan/2020:16:08:03 -0600] "HEAD /netbeans-tomcat-status-test HTTP/1.1" 404 -
127.0.0.1 - root [28/Jan/2020:16:08:03 -0600] "GET /manager/text/ HTTP/1.1" 200 44
127.0.0.1 - - [28/Jan/2020:16:08:06 -0600] "HEAD /netbeans-tomcat-status-test HTTP/1.1" 404 -
127.0.0.1 - root [28/Jan/2020:16:08:06 -0600] "GET /manager/text/ HTTP/1.1" 200 44
127.0.0.1 - - [28/Jan/2020:16:08:06 -0600] "HEAD /netbeans-tomcat-status-test HTTP/1.1" 404 -
127.0.0.1 - root [28/Jan/2020:16:08:06 -0600] "GET /manager/text/ HTTP/1.1" 200 44
127.0.0.1 - root [28/Jan/2020:16:08:06 -0600] "GET /manager/text/list HTTP/1.1" 200 596
127.0.0.1 - root [28/Jan/2020:16:08:07 -0600] "GET /manager/text/undeploy?path=/proyectoHotel_grupo1 HTTP/1.1" 200 90
127.0.0.1 - - [28/Jan/2020:16:08:16 -0600] "HEAD /netbeans-tomcat-status-test HTTP/1.1" 404 -
127.0.0.1 - root [28/Jan/2020:16:08:16 -0600] "GET /manager/text/ HTTP/1.1" 200 44
127.0.0.1 - - [28/Jan/2020:16:08:16 -0600] "HEAD /netbeans-tomcat-status-test HTTP/1.1" 404 -
127.0.0.1 - root [28/Jan/2020:16:08:16 -0600] "GET /manager/text/ HTTP/1.1" 200 44
127.0.0.1 - - [28/Jan/2020:16:08:16 -0600] "HEAD /netbeans-tomcat-status-test HTTP/1.1" 404 -
127.0.0.1 - root [28/Jan/2020:16:08:16 -0600] "GET /manager/text/ HTTP/1.1" 200 44
127.0.0.1 - root [28/Jan/2020:16:08:16 -0600] "GET /manager/text/list HTTP/1.1" 200 451
127.0.0.1 - - [28/Jan/2020:16:08:18 -0600] "HEAD /netbeans-tomcat-status-test HTTP/1.1" 404 -
127.0.0.1 - root [28/Jan/2020:16:08:18 -0600] "GET /manager/text/ HTTP/1.1" 200 44
127.0.0.1 - - [28/Jan/2020:16:08:18 -0600] "HEAD /netbeans-tomcat-status-test HTTP/1.1" 404 -
127.0.0.1 - root [28/Jan/2020:16:08:18 -0600] "GET /manager/text/ HTTP/1.1" 200 44
127.0.0.1 - root [28/Jan/2020:16:08:18 -0600] "GET /manager/text/list HTTP/1.1" 200 451
127.0.0.1 - - [28/Jan/2020:16:08:29 -0600] "HEAD /netbeans-tomcat-status-test HTTP/1.1" 404 -
127.0.0.1 - root [28/Jan/2020:16:08:29 -0600] "GET /manager/text/ HTTP/1.1" 200 44
127.0.0.1 - - [28/Jan/2020:16:08:29 -0600] "HEAD /netbeans-tomcat-status-test HTTP/1.1" 404 -
127.0.0.1 - root [28/Jan/2020:16:08:29 -0600] "GET /manager/text/ HTTP/1.1" 200 44
127.0.0.1 - - [28/Jan/2020:16:08:29 -0600] "HEAD /netbeans-tomcat-status-test HTTP/1.1" 404 -
127.0.0.1 - root [28/Jan/2020:16:08:29 -0600] "GET /manager/text/ HTTP/1.1" 200 44
127.0.0.1 - - [28/Jan/2020:16:08:29 -0600] "HEAD /netbeans-tomcat-status-test HTTP/1.1" 404 -
127.0.0.1 - root [28/Jan/2020:16:08:29 -0600] "GET /manager/text/list HTTP/1.1" 200 451
127.0.0.1 - root [28/Jan/2020:16:08:29 -0600] "GET /manager/text/ HTTP/1.1" 200 44
127.0.0.1 - root [28/Jan/2020:16:08:29 -0600] "GET /manager/text/list HTTP/1.1" 200 451
127.0.0.1 - root [28/Jan/2020:16:08:30 -0600] "GET /manager/text/deploy?config=file%3A%2FC%3A%2FUsers%2FCHRIST%7E1.RAM%2FAppData%2FLocal%2FTemp%2Fcontext1736695955091588726.xml&path=/proyectoHotel_grupo1 HTTP/1.1" 200 91
127.0.0.1 - root [28/Jan/2020:16:08:30 -0600] "GET /manager/text/start?path=/proyectoHotel_grupo1 HTTP/1.1" 200 90
0:0:0:0:0:0:0:1 - - [28/Jan/2020:16:08:31 -0600] "GET /proyectoHotel_grupo1/index.xhtml HTTP/1.1" 404 966
127.0.0.1 - - [28/Jan/2020:16:08:46 -0600] "HEAD /netbeans-tomcat-status-test HTTP/1.1" 404 -
127.0.0.1 - root [28/Jan/2020:16:08:46 -0600] "GET /manager/text/ HTTP/1.1" 200 44
127.0.0.1 - - [28/Jan/2020:16:08:46 -0600] "HEAD /netbeans-tomcat-status-test HTTP/1.1" 404 -
127.0.0.1 - root [28/Jan/2020:16:08:46 -0600] "GET /manager/text/ HTTP/1.1" 200 44
127.0.0.1 - - [28/Jan/2020:16:08:46 -0600] "HEAD /netbeans-tomcat-status-test HTTP/1.1" 404 -
127.0.0.1 - root [28/Jan/2020:16:08:46 -0600] "GET /manager/text/ HTTP/1.1" 200 44
127.0.0.1 - - [28/Jan/2020:16:08:46 -0600] "HEAD /netbeans-tomcat-status-test HTTP/1.1" 404 -
127.0.0.1 - root [28/Jan/2020:16:08:46 -0600] "GET /manager/text/ HTTP/1.1" 200 44
127.0.0.1 - root [28/Jan/2020:16:08:46 -0600] "GET /manager/text/list HTTP/1.1" 200 596
127.0.0.1 - root [28/Jan/2020:16:08:46 -0600] "GET /manager/text/list HTTP/1.1" 200 596
127.0.0.1 - root [28/Jan/2020:16:08:46 -0600] "GET /manager/text/undeploy?path=/proyectoHotel_grupo1 HTTP/1.1" 200 90
127.0.0.1 - root [28/Jan/2020:16:08:47 -0600] "GET /manager/text/deploy?config=file%3A%2FC%3A%2FUsers%2FCHRIST%7E1.RAM%2FAppData%2FLocal%2FTemp%2Fcontext7672986023964486856.xml&path=/proyectoHotel_grupo1 HTTP/1.1" 200 91
127.0.0.1 - root [28/Jan/2020:16:08:47 -0600] "GET /manager/text/start?path=/proyectoHotel_grupo1 HTTP/1.1" 200 90
0:0:0:0:0:0:0:1 - - [28/Jan/2020:16:08:47 -0600] "GET /proyectoHotel_grupo1/index.xhtml HTTP/1.1" 404 966
127.0.0.1 - - [28/Jan/2020:16:10:09 -0600] "HEAD /netbeans-tomcat-status-test HTTP/1.1" 404 -
127.0.0.1 - root [28/Jan/2020:16:10:09 -0600] "GET /manager/text/ HTTP/1.1" 200 44
127.0.0.1 - - [28/Jan/2020:16:10:09 -0600] "HEAD /netbeans-tomcat-status-test HTTP/1.1" 404 -
127.0.0.1 - root [28/Jan/2020:16:10:09 -0600] "GET /manager/text/ HTTP/1.1" 200 44
127.0.0.1 - - [28/Jan/2020:16:10:09 -0600] "HEAD /netbeans-tomcat-status-test HTTP/1.1" 404 -
127.0.0.1 - root [28/Jan/2020:16:10:09 -0600] "GET /manager/text/ HTTP/1.1" 200 44
127.0.0.1 - root [28/Jan/2020:16:10:09 -0600] "GET /manager/text/list HTTP/1.1" 200 596
127.0.0.1 - root [28/Jan/2020:16:10:09 -0600] "GET /manager/text/stop?path=/proyectoHotel_grupo1 HTTP/1.1" 200 87
127.0.0.1 - root [28/Jan/2020:16:10:10 -0600] "GET /manager/text/start?path=/proyectoHotel_grupo1 HTTP/1.1" 200 90
127.0.0.1 - - [28/Jan/2020:16:10:10 -0600] "HEAD /netbeans-tomcat-status-test HTTP/1.1" 404 -
127.0.0.1 - root [28/Jan/2020:16:10:10 -0600] "GET /manager/text/ HTTP/1.1" 200 44
127.0.0.1 - - [28/Jan/2020:16:10:11 -0600] "HEAD /netbeans-tomcat-status-test HTTP/1.1" 404 -
127.0.0.1 - root [28/Jan/2020:16:10:11 -0600] "GET /manager/text/ HTTP/1.1" 200 44
127.0.0.1 - root [28/Jan/2020:16:10:11 -0600] "GET /manager/text/list HTTP/1.1" 200 596
127.0.0.1 - root [28/Jan/2020:16:10:12 -0600] "GET /manager/text/undeploy?path=/proyectoHotel_grupo1 HTTP/1.1" 200 90
127.0.0.1 - - [28/Jan/2020:16:10:22 -0600] "HEAD /netbeans-tomcat-status-test HTTP/1.1" 404 -
127.0.0.1 - root [28/Jan/2020:16:10:22 -0600] "GET /manager/text/ HTTP/1.1" 200 44
127.0.0.1 - - [28/Jan/2020:16:10:22 -0600] "HEAD /netbeans-tomcat-status-test HTTP/1.1" 404 -
127.0.0.1 - root [28/Jan/2020:16:10:22 -0600] "GET /manager/text/ HTTP/1.1" 200 44
127.0.0.1 - - [28/Jan/2020:16:10:22 -0600] "HEAD /netbeans-tomcat-status-test HTTP/1.1" 404 -
127.0.0.1 - root [28/Jan/2020:16:10:22 -0600] "GET /manager/text/ HTTP/1.1" 200 44
127.0.0.1 - - [28/Jan/2020:16:10:22 -0600] "HEAD /netbeans-tomcat-status-test HTTP/1.1" 404 -
127.0.0.1 - root [28/Jan/2020:16:10:22 -0600] "GET /manager/text/list HTTP/1.1" 200 451
127.0.0.1 - root [28/Jan/2020:16:10:22 -0600] "GET /manager/text/ HTTP/1.1" 200 44
127.0.0.1 - root [28/Jan/2020:16:10:22 -0600] "GET /manager/text/list HTTP/1.1" 200 451
127.0.0.1 - root [28/Jan/2020:16:10:22 -0600] "GET /manager/text/deploy?config=file%3A%2FC%3A%2FUsers%2FCHRIST%7E1.RAM%2FAppData%2FLocal%2FTemp%2Fcontext6957091052489698713.xml&path=/proyectoHotel_grupo1 HTTP/1.1" 200 91
127.0.0.1 - root [28/Jan/2020:16:10:22 -0600] "GET /manager/text/start?path=/proyectoHotel_grupo1 HTTP/1.1" 200 90
0:0:0:0:0:0:0:1 - - [28/Jan/2020:16:10:23 -0600] "GET /proyectoHotel_grupo1 HTTP/1.1" 302 -
0:0:0:0:0:0:0:1 - - [28/Jan/2020:16:10:23 -0600] "GET /proyectoHotel_grupo1/ HTTP/1.1" 404 966
127.0.0.1 - - [28/Jan/2020:16:10:30 -0600] "HEAD /netbeans-tomcat-status-test HTTP/1.1" 404 -
127.0.0.1 - root [28/Jan/2020:16:10:30 -0600] "GET /manager/text/ HTTP/1.1" 200 44
127.0.0.1 - - [28/Jan/2020:16:10:30 -0600] "HEAD /netbeans-tomcat-status-test HTTP/1.1" 404 -
127.0.0.1 - root [28/Jan/2020:16:10:30 -0600] "GET /manager/text/ HTTP/1.1" 200 44
127.0.0.1 - - [28/Jan/2020:16:10:30 -0600] "HEAD /netbeans-tomcat-status-test HTTP/1.1" 404 -
127.0.0.1 - root [28/Jan/2020:16:10:30 -0600] "GET /manager/text/ HTTP/1.1" 200 44
127.0.0.1 - - [28/Jan/2020:16:10:30 -0600] "HEAD /netbeans-tomcat-status-test HTTP/1.1" 404 -
127.0.0.1 - root [28/Jan/2020:16:10:30 -0600] "GET /manager/text/list HTTP/1.1" 200 596
127.0.0.1 - root [28/Jan/2020:16:10:30 -0600] "GET /manager/text/ HTTP/1.1" 200 44
127.0.0.1 - root [28/Jan/2020:16:10:30 -0600] "GET /manager/text/list HTTP/1.1" 200 596
127.0.0.1 - root [28/Jan/2020:16:10:31 -0600] "GET /manager/text/undeploy?path=/proyectoHotel_grupo1 HTTP/1.1" 200 90
127.0.0.1 - root [28/Jan/2020:16:10:32 -0600] "GET /manager/text/deploy?config=file%3A%2FC%3A%2FUsers%2FCHRIST%7E1.RAM%2FAppData%2FLocal%2FTemp%2Fcontext3476945660917642482.xml&path=/proyectoHotel_grupo1 HTTP/1.1" 200 91
127.0.0.1 - root [28/Jan/2020:16:10:32 -0600] "GET /manager/text/start?path=/proyectoHotel_grupo1 HTTP/1.1" 200 90
0:0:0:0:0:0:0:1 - - [28/Jan/2020:16:10:32 -0600] "GET /proyectoHotel_grupo1/index.xhtml HTTP/1.1" 404 966
0:0:0:0:0:0:0:1 - - [28/Jan/2020:16:10:51 -0600] "GET /proyectoHotel_grupo1/ HTTP/1.1" 404 966
0:0:0:0:0:0:0:1 - - [28/Jan/2020:16:10:51 -0600] "GET /favicon.ico HTTP/1.1" 200 21630
0:0:0:0:0:0:0:1 - - [28/Jan/2020:16:10:51 -0600] "GET /proyectoHotel_grupo1/ HTTP/1.1" 404 966
0:0:0:0:0:0:0:1 - - [28/Jan/2020:16:10:51 -0600] "GET /favicon.ico HTTP/1.1" 200 21630
127.0.0.1 - - [28/Jan/2020:16:12:44 -0600] "HEAD /netbeans-tomcat-status-test HTTP/1.1" 404 -
127.0.0.1 - root [28/Jan/2020:16:12:44 -0600] "GET /manager/text/ HTTP/1.1" 200 44
127.0.0.1 - - [28/Jan/2020:16:12:44 -0600] "HEAD /netbeans-tomcat-status-test HTTP/1.1" 404 -
127.0.0.1 - root [28/Jan/2020:16:12:44 -0600] "GET /manager/text/ HTTP/1.1" 200 44
127.0.0.1 - - [28/Jan/2020:16:12:44 -0600] "HEAD /netbeans-tomcat-status-test HTTP/1.1" 404 -
127.0.0.1 - root [28/Jan/2020:16:12:44 -0600] "GET /manager/text/ HTTP/1.1" 200 44
127.0.0.1 - root [28/Jan/2020:16:12:44 -0600] "GET /manager/text/list HTTP/1.1" 200 596
127.0.0.1 - - [28/Jan/2020:16:12:44 -0600] "HEAD /netbeans-tomcat-status-test HTTP/1.1" 404 -
127.0.0.1 - root [28/Jan/2020:16:12:44 -0600] "GET /manager/text/ HTTP/1.1" 200 44
127.0.0.1 - - [28/Jan/2020:16:12:48 -0600] "HEAD /netbeans-tomcat-status-test HTTP/1.1" 404 -
127.0.0.1 - root [28/Jan/2020:16:12:48 -0600] "GET /manager/text/ HTTP/1.1" 200 44
127.0.0.1 - - [28/Jan/2020:16:12:48 -0600] "HEAD /netbeans-tomcat-status-test HTTP/1.1" 404 -
127.0.0.1 - root [28/Jan/2020:16:12:48 -0600] "GET /manager/text/ HTTP/1.1" 200 44
127.0.0.1 - - [28/Jan/2020:16:12:48 -0600] "HEAD /netbeans-tomcat-status-test HTTP/1.1" 404 -
127.0.0.1 - root [28/Jan/2020:16:12:48 -0600] "GET /manager/text/ HTTP/1.1" 200 44
127.0.0.1 - root [28/Jan/2020:16:12:48 -0600] "GET /manager/text/list HTTP/1.1" 200 596
127.0.0.1 - - [28/Jan/2020:16:12:48 -0600] "HEAD /netbeans-tomcat-status-test HTTP/1.1" 404 -
127.0.0.1 - root [28/Jan/2020:16:12:48 -0600] "GET /manager/text/ HTTP/1.1" 200 44
127.0.0.1 - root [28/Jan/2020:16:12:48 -0600] "GET /manager/text/list HTTP/1.1" 200 596
127.0.0.1 - root [28/Jan/2020:16:12:48 -0600] "GET /manager/text/undeploy?path=/proyectoHotel_grupo1 HTTP/1.1" 200 90
127.0.0.1 - root [28/Jan/2020:16:12:49 -0600] "GET /manager/text/deploy?config=file%3A%2FC%3A%2FUsers%2FCHRIST%7E1.RAM%2FAppData%2FLocal%2FTemp%2Fcontext2977260771283692742.xml&path=/proyectoHotel_grupo1 HTTP/1.1" 200 91
127.0.0.1 - root [28/Jan/2020:16:12:49 -0600] "GET /manager/text/start?path=/proyectoHotel_grupo1 HTTP/1.1" 200 90
0:0:0:0:0:0:0:1 - - [28/Jan/2020:16:12:49 -0600] "GET /proyectoHotel_grupo1/index.xhtml HTTP/1.1" 404 966
0:0:0:0:0:0:0:1 - - [28/Jan/2020:16:12:57 -0600] "GET /proyectoHotel_grupo1/ HTTP/1.1" 404 966
0:0:0:0:0:0:0:1 - - [28/Jan/2020:16:13:07 -0600] "GET /proyectoHotel_grupo1/faces/index.xhtml HTTP/1.1" 404 966
127.0.0.1 - - [28/Jan/2020:16:13:12 -0600] "HEAD /netbeans-tomcat-status-test HTTP/1.1" 404 -
127.0.0.1 - root [28/Jan/2020:16:13:12 -0600] "GET /manager/text/ HTTP/1.1" 200 44
127.0.0.1 - - [28/Jan/2020:16:13:12 -0600] "HEAD /netbeans-tomcat-status-test HTTP/1.1" 404 -
127.0.0.1 - root [28/Jan/2020:16:13:12 -0600] "GET /manager/text/ HTTP/1.1" 200 44
127.0.0.1 - root [28/Jan/2020:16:13:12 -0600] "GET /manager/text/list HTTP/1.1" 200 596
127.0.0.1 - root [28/Jan/2020:16:13:12 -0600] "GET /manager/text/undeploy?path=/proyectoHotel_grupo1 HTTP/1.1" 200 90
127.0.0.1 - - [28/Jan/2020:16:13:20 -0600] "HEAD /netbeans-tomcat-status-test HTTP/1.1" 404 -
127.0.0.1 - root [28/Jan/2020:16:13:20 -0600] "GET /manager/text/ HTTP/1.1" 200 44
127.0.0.1 - - [28/Jan/2020:16:13:20 -0600] "HEAD /netbeans-tomcat-status-test HTTP/1.1" 404 -
127.0.0.1 - root [28/Jan/2020:16:13:20 -0600] "GET /manager/text/ HTTP/1.1" 200 44
127.0.0.1 - - [28/Jan/2020:16:13:20 -0600] "HEAD /netbeans-tomcat-status-test HTTP/1.1" 404 -
127.0.0.1 - root [28/Jan/2020:16:13:20 -0600] "GET /manager/text/ HTTP/1.1" 200 44
127.0.0.1 - - [28/Jan/2020:16:13:20 -0600] "HEAD /netbeans-tomcat-status-test HTTP/1.1" 404 -
127.0.0.1 - root [28/Jan/2020:16:13:20 -0600] "GET /manager/text/ HTTP/1.1" 200 44
127.0.0.1 - root [28/Jan/2020:16:13:20 -0600] "GET /manager/text/list HTTP/1.1" 200 451
127.0.0.1 - root [28/Jan/2020:16:13:20 -0600] "GET /manager/text/list HTTP/1.1" 200 451
127.0.0.1 - root [28/Jan/2020:16:13:21 -0600] "GET /manager/text/deploy?config=file%3A%2FC%3A%2FUsers%2FCHRIST%7E1.RAM%2FAppData%2FLocal%2FTemp%2Fcontext6693187741753103766.xml&path=/proyectoHotel_grupo1 HTTP/1.1" 200 91
127.0.0.1 - root [28/Jan/2020:16:13:21 -0600] "GET /manager/text/start?path=/proyectoHotel_grupo1 HTTP/1.1" 200 90
0:0:0:0:0:0:0:1 - - [28/Jan/2020:16:13:21 -0600] "GET /proyectoHotel_grupo1 HTTP/1.1" 302 -
0:0:0:0:0:0:0:1 - - [28/Jan/2020:16:13:21 -0600] "GET /proyectoHotel_grupo1/ HTTP/1.1" 404 966
0:0:0:0:0:0:0:1 - - [28/Jan/2020:16:13:31 -0600] "GET /proyectoHotel_grupo1/index.xhtml HTTP/1.1" 404 966
127.0.0.1 - - [28/Jan/2020:16:13:39 -0600] "HEAD /netbeans-tomcat-status-test HTTP/1.1" 404 -
127.0.0.1 - root [28/Jan/2020:16:13:39 -0600] "GET /manager/text/ HTTP/1.1" 200 44
127.0.0.1 - - [28/Jan/2020:16:13:39 -0600] "HEAD /netbeans-tomcat-status-test HTTP/1.1" 404 -
127.0.0.1 - root [28/Jan/2020:16:13:39 -0600] "GET /manager/text/ HTTP/1.1" 200 44
127.0.0.1 - - [28/Jan/2020:16:13:39 -0600] "HEAD /netbeans-tomcat-status-test HTTP/1.1" 404 -
127.0.0.1 - root [28/Jan/2020:16:13:39 -0600] "GET /manager/text/ HTTP/1.1" 200 44
127.0.0.1 - root [28/Jan/2020:16:13:39 -0600] "GET /manager/text/list HTTP/1.1" 200 596
127.0.0.1 - - [28/Jan/2020:16:13:39 -0600] "HEAD /netbeans-tomcat-status-test HTTP/1.1" 404 -
127.0.0.1 - root [28/Jan/2020:16:13:39 -0600] "GET /manager/text/ HTTP/1.1" 200 44
127.0.0.1 - - [28/Jan/2020:16:13:54 -0600] "HEAD /netbeans-tomcat-status-test HTTP/1.1" 404 -
127.0.0.1 - root [28/Jan/2020:16:13:54 -0600] "GET /manager/text/ HTTP/1.1" 200 44
127.0.0.1 - - [28/Jan/2020:16:13:54 -0600] "HEAD /netbeans-tomcat-status-test HTTP/1.1" 404 -
127.0.0.1 - root [28/Jan/2020:16:13:54 -0600] "GET /manager/text/ HTTP/1.1" 200 44
127.0.0.1 - - [28/Jan/2020:16:13:54 -0600] "HEAD /netbeans-tomcat-status-test HTTP/1.1" 404 -
127.0.0.1 - root [28/Jan/2020:16:13:54 -0600] "GET /manager/text/ HTTP/1.1" 200 44
127.0.0.1 - root [28/Jan/2020:16:13:54 -0600] "GET /manager/text/list HTTP/1.1" 200 596
127.0.0.1 - root [28/Jan/2020:16:13:54 -0600] "GET /manager/text/stop?path=/proyectoHotel_grupo1 HTTP/1.1" 200 87
127.0.0.1 - root [28/Jan/2020:16:13:55 -0600] "GET /manager/text/start?path=/proyectoHotel_grupo1 HTTP/1.1" 200 90
127.0.0.1 - - [28/Jan/2020:16:13:55 -0600] "HEAD /netbeans-tomcat-status-test HTTP/1.1" 404 -
127.0.0.1 - root [28/Jan/2020:16:13:55 -0600] "GET /manager/text/ HTTP/1.1" 200 44
127.0.0.1 - - [28/Jan/2020:16:13:57 -0600] "HEAD /netbeans-tomcat-status-test HTTP/1.1" 404 -
127.0.0.1 - root [28/Jan/2020:16:13:57 -0600] "GET /manager/text/ HTTP/1.1" 200 44
127.0.0.1 - root [28/Jan/2020:16:13:57 -0600] "GET /manager/text/list HTTP/1.1" 200 596
127.0.0.1 - root [28/Jan/2020:16:13:57 -0600] "GET /manager/text/undeploy?path=/proyectoHotel_grupo1 HTTP/1.1" 200 90
127.0.0.1 - - [28/Jan/2020:16:14:07 -0600] "HEAD /netbeans-tomcat-status-test HTTP/1.1" 404 -
127.0.0.1 - root [28/Jan/2020:16:14:07 -0600] "GET /manager/text/ HTTP/1.1" 200 44
127.0.0.1 - - [28/Jan/2020:16:14:07 -0600] "HEAD /netbeans-tomcat-status-test HTTP/1.1" 404 -
127.0.0.1 - root [28/Jan/2020:16:14:07 -0600] "GET /manager/text/ HTTP/1.1" 200 44
127.0.0.1 - - [28/Jan/2020:16:14:07 -0600] "HEAD /netbeans-tomcat-status-test HTTP/1.1" 404 -
127.0.0.1 - root [28/Jan/2020:16:14:07 -0600] "GET /manager/text/ HTTP/1.1" 200 44
127.0.0.1 - - [28/Jan/2020:16:14:07 -0600] "HEAD /netbeans-tomcat-status-test HTTP/1.1" 404 -
127.0.0.1 - root [28/Jan/2020:16:14:08 -0600] "GET /manager/text/ HTTP/1.1" 200 44
127.0.0.1 - root [28/Jan/2020:16:14:08 -0600] "GET /manager/text/list HTTP/1.1" 200 451
127.0.0.1 - root [28/Jan/2020:16:14:08 -0600] "GET /manager/text/list HTTP/1.1" 200 451
127.0.0.1 - root [28/Jan/2020:16:14:08 -0600] "GET /manager/text/deploy?config=file%3A%2FC%3A%2FUsers%2FCHRIST%7E1.RAM%2FAppData%2FLocal%2FTemp%2Fcontext1479962777562802139.xml&path=/proyectoHotel_grupo1 HTTP/1.1" 200 91
127.0.0.1 - root [28/Jan/2020:16:14:08 -0600] "GET /manager/text/start?path=/proyectoHotel_grupo1 HTTP/1.1" 200 90
0:0:0:0:0:0:0:1 - - [28/Jan/2020:16:14:09 -0600] "GET /proyectoHotel_grupo1 HTTP/1.1" 302 -
0:0:0:0:0:0:0:1 - - [28/Jan/2020:16:14:09 -0600] "GET /proyectoHotel_grupo1/ HTTP/1.1" 404 966
127.0.0.1 - - [28/Jan/2020:16:14:22 -0600] "HEAD /netbeans-tomcat-status-test HTTP/1.1" 404 -
127.0.0.1 - root [28/Jan/2020:16:14:22 -0600] "GET /manager/text/ HTTP/1.1" 200 44
127.0.0.1 - - [28/Jan/2020:16:14:22 -0600] "HEAD /netbeans-tomcat-status-test HTTP/1.1" 404 -
127.0.0.1 - root [28/Jan/2020:16:14:22 -0600] "GET /manager/text/ HTTP/1.1" 200 44
127.0.0.1 - root [28/Jan/2020:16:14:22 -0600] "GET /manager/text/list HTTP/1.1" 200 596
127.0.0.1 - root [28/Jan/2020:16:14:22 -0600] "GET /manager/text/undeploy?path=/proyectoHotel_grupo1 HTTP/1.1" 200 90
127.0.0.1 - - [28/Jan/2020:16:14:31 -0600] "HEAD /netbeans-tomcat-status-test HTTP/1.1" 404 -
127.0.0.1 - root [28/Jan/2020:16:14:31 -0600] "GET /manager/text/ HTTP/1.1" 200 44
127.0.0.1 - - [28/Jan/2020:16:14:31 -0600] "HEAD /netbeans-tomcat-status-test HTTP/1.1" 404 -
127.0.0.1 - root [28/Jan/2020:16:14:31 -0600] "GET /manager/text/ HTTP/1.1" 200 44
127.0.0.1 - - [28/Jan/2020:16:14:31 -0600] "HEAD /netbeans-tomcat-status-test HTTP/1.1" 404 -
127.0.0.1 - root [28/Jan/2020:16:14:31 -0600] "GET /manager/text/ HTTP/1.1" 200 44
127.0.0.1 - - [28/Jan/2020:16:14:31 -0600] "HEAD /netbeans-tomcat-status-test HTTP/1.1" 404 -
127.0.0.1 - root [28/Jan/2020:16:14:31 -0600] "GET /manager/text/ HTTP/1.1" 200 44
127.0.0.1 - root [28/Jan/2020:16:14:31 -0600] "GET /manager/text/list HTTP/1.1" 200 451
127.0.0.1 - root [28/Jan/2020:16:14:31 -0600] "GET /manager/text/list HTTP/1.1" 200 451
127.0.0.1 - root [28/Jan/2020:16:14:32 -0600] "GET /manager/text/deploy?config=file%3A%2FC%3A%2FUsers%2FCHRIST%7E1.RAM%2FAppData%2FLocal%2FTemp%2Fcontext3424410168269971384.xml&path=/proyectoHotel_grupo1 HTTP/1.1" 200 91
127.0.0.1 - root [28/Jan/2020:16:14:32 -0600] "GET /manager/text/start?path=/proyectoHotel_grupo1 HTTP/1.1" 200 90
0:0:0:0:0:0:0:1 - - [28/Jan/2020:16:14:32 -0600] "GET /proyectoHotel_grupo1 HTTP/1.1" 302 -
0:0:0:0:0:0:0:1 - - [28/Jan/2020:16:14:32 -0600] "GET /proyectoHotel_grupo1/ HTTP/1.1" 404 966
0:0:0:0:0:0:0:1 - - [28/Jan/2020:16:14:42 -0600] "GET /proyectoHotel_grupo1/index.xhtml HTTP/1.1" 200 898
0:0:0:0:0:0:0:1 - - [28/Jan/2020:16:14:58 -0600] "GET /proyectoHotel_grupo1/index.xhtml HTTP/1.1" 304 -
0:0:0:0:0:0:0:1 - - [28/Jan/2020:16:14:58 -0600] "GET /favicon.ico HTTP/1.1" 200 21630
127.0.0.1 - - [28/Jan/2020:16:15:29 -0600] "HEAD /netbeans-tomcat-status-test HTTP/1.1" 404 -
127.0.0.1 - root [28/Jan/2020:16:15:29 -0600] "GET /manager/text/ HTTP/1.1" 200 44
127.0.0.1 - - [28/Jan/2020:16:15:29 -0600] "HEAD /netbeans-tomcat-status-test HTTP/1.1" 404 -
127.0.0.1 - root [28/Jan/2020:16:15:29 -0600] "GET /manager/text/ HTTP/1.1" 200 44
127.0.0.1 - - [28/Jan/2020:16:15:29 -0600] "HEAD /netbeans-tomcat-status-test HTTP/1.1" 404 -
127.0.0.1 - root [28/Jan/2020:16:15:29 -0600] "GET /manager/text/ HTTP/1.1" 200 44
127.0.0.1 - root [28/Jan/2020:16:15:29 -0600] "GET /manager/text/list HTTP/1.1" 200 596
127.0.0.1 - - [28/Jan/2020:16:15:29 -0600] "HEAD /netbeans-tomcat-status-test HTTP/1.1" 404 -
127.0.0.1 - root [28/Jan/2020:16:15:29 -0600] "GET /manager/text/ HTTP/1.1" 200 44
127.0.0.1 - - [28/Jan/2020:16:16:21 -0600] "HEAD /netbeans-tomcat-status-test HTTP/1.1" 404 -
127.0.0.1 - root [28/Jan/2020:16:16:21 -0600] "GET /manager/text/ HTTP/1.1" 200 44
127.0.0.1 - - [28/Jan/2020:16:16:21 -0600] "HEAD /netbeans-tomcat-status-test HTTP/1.1" 404 -
127.0.0.1 - root [28/Jan/2020:16:16:21 -0600] "GET /manager/text/ HTTP/1.1" 200 44
127.0.0.1 - - [28/Jan/2020:16:16:21 -0600] "HEAD /netbeans-tomcat-status-test HTTP/1.1" 404 -
127.0.0.1 - root [28/Jan/2020:16:16:21 -0600] "GET /manager/text/ HTTP/1.1" 200 44
127.0.0.1 - root [28/Jan/2020:16:16:21 -0600] "GET /manager/text/list HTTP/1.1" 200 596
127.0.0.1 - root [28/Jan/2020:16:16:21 -0600] "GET /manager/text/stop?path=/proyectoHotel_grupo1 HTTP/1.1" 200 87
127.0.0.1 - root [28/Jan/2020:16:16:22 -0600] "GET /manager/text/start?path=/proyectoHotel_grupo1 HTTP/1.1" 200 90
127.0.0.1 - - [28/Jan/2020:16:16:22 -0600] "HEAD /netbeans-tomcat-status-test HTTP/1.1" 404 -
127.0.0.1 - root [28/Jan/2020:16:16:22 -0600] "GET /manager/text/ HTTP/1.1" 200 44
127.0.0.1 - - [28/Jan/2020:16:16:31 -0600] "HEAD /netbeans-tomcat-status-test HTTP/1.1" 404 -
127.0.0.1 - root [28/Jan/2020:16:16:31 -0600] "GET /manager/text/ HTTP/1.1" 200 44
127.0.0.1 - - [28/Jan/2020:16:16:31 -0600] "HEAD /netbeans-tomcat-status-test HTTP/1.1" 404 -
127.0.0.1 - root [28/Jan/2020:16:16:31 -0600] "GET /manager/text/ HTTP/1.1" 200 44
127.0.0.1 - root [28/Jan/2020:16:16:31 -0600] "GET /manager/text/list HTTP/1.1" 200 596
127.0.0.1 - root [28/Jan/2020:16:16:32 -0600] "GET /manager/text/undeploy?path=/proyectoHotel_grupo1 HTTP/1.1" 200 90
127.0.0.1 - - [28/Jan/2020:16:16:42 -0600] "HEAD /netbeans-tomcat-status-test HTTP/1.1" 404 -
127.0.0.1 - root [28/Jan/2020:16:16:42 -0600] "GET /manager/text/ HTTP/1.1" 200 44
127.0.0.1 - - [28/Jan/2020:16:16:42 -0600] "HEAD /netbeans-tomcat-status-test HTTP/1.1" 404 -
127.0.0.1 - root [28/Jan/2020:16:16:42 -0600] "GET /manager/text/ HTTP/1.1" 200 44
127.0.0.1 - - [28/Jan/2020:16:16:42 -0600] "HEAD /netbeans-tomcat-status-test HTTP/1.1" 404 -
127.0.0.1 - root [28/Jan/2020:16:16:42 -0600] "GET /manager/text/ HTTP/1.1" 200 44
127.0.0.1 - - [28/Jan/2020:16:16:42 -0600] "HEAD /netbeans-tomcat-status-test HTTP/1.1" 404 -
127.0.0.1 - root [28/Jan/2020:16:16:42 -0600] "GET /manager/text/ HTTP/1.1" 200 44
127.0.0.1 - root [28/Jan/2020:16:16:42 -0600] "GET /manager/text/list HTTP/1.1" 200 451
127.0.0.1 - root [28/Jan/2020:16:16:42 -0600] "GET /manager/text/list HTTP/1.1" 200 451
127.0.0.1 - root [28/Jan/2020:16:16:43 -0600] "GET /manager/text/deploy?config=file%3A%2FC%3A%2FUsers%2FCHRIST%7E1.RAM%2FAppData%2FLocal%2FTemp%2Fcontext1130609788441582181.xml&path=/proyectoHotel_grupo1 HTTP/1.1" 200 91
127.0.0.1 - root [28/Jan/2020:16:16:43 -0600] "GET /manager/text/start?path=/proyectoHotel_grupo1 HTTP/1.1" 200 90
0:0:0:0:0:0:0:1 - - [28/Jan/2020:16:16:43 -0600] "GET /proyectoHotel_grupo1 HTTP/1.1" 302 -
0:0:0:0:0:0:0:1 - - [28/Jan/2020:16:16:43 -0600] "GET /proyectoHotel_grupo1/ HTTP/1.1" 404 1018
0:0:0:0:0:0:0:1 - - [28/Jan/2020:16:16:47 -0600] "GET /proyectoHotel_grupo1/index.xhtml HTTP/1.1" 200 908
127.0.0.1 - - [28/Jan/2020:16:16:58 -0600] "HEAD /netbeans-tomcat-status-test HTTP/1.1" 404 -
127.0.0.1 - root [28/Jan/2020:16:16:58 -0600] "GET /manager/text/ HTTP/1.1" 200 44
127.0.0.1 - - [28/Jan/2020:16:16:58 -0600] "HEAD /netbeans-tomcat-status-test HTTP/1.1" 404 -
127.0.0.1 - root [28/Jan/2020:16:16:58 -0600] "GET /manager/text/ HTTP/1.1" 200 44
127.0.0.1 - - [28/Jan/2020:16:16:58 -0600] "HEAD /netbeans-tomcat-status-test HTTP/1.1" 404 -
127.0.0.1 - root [28/Jan/2020:16:16:58 -0600] "GET /manager/text/ HTTP/1.1" 200 44
127.0.0.1 - root [28/Jan/2020:16:16:58 -0600] "GET /manager/text/list HTTP/1.1" 200 596
127.0.0.1 - root [28/Jan/2020:16:16:58 -0600] "GET /manager/text/stop?path=/proyectoHotel_grupo1 HTTP/1.1" 200 87
127.0.0.1 - root [28/Jan/2020:16:16:59 -0600] "GET /manager/text/start?path=/proyectoHotel_grupo1 HTTP/1.1" 200 296
127.0.0.1 - - [28/Jan/2020:16:17:00 -0600] "HEAD /netbeans-tomcat-status-test HTTP/1.1" 404 -
127.0.0.1 - root [28/Jan/2020:16:17:00 -0600] "GET /manager/text/ HTTP/1.1" 200 44
127.0.0.1 - - [28/Jan/2020:16:17:00 -0600] "HEAD /netbeans-tomcat-status-test HTTP/1.1" 404 -
127.0.0.1 - root [28/Jan/2020:16:17:00 -0600] "GET /manager/text/ HTTP/1.1" 200 44
127.0.0.1 - root [28/Jan/2020:16:17:00 -0600] "GET /manager/text/list HTTP/1.1" 200 596
127.0.0.1 - root [28/Jan/2020:16:17:01 -0600] "GET /manager/text/undeploy?path=/proyectoHotel_grupo1 HTTP/1.1" 200 90
127.0.0.1 - - [28/Jan/2020:16:17:10 -0600] "HEAD /netbeans-tomcat-status-test HTTP/1.1" 404 -
127.0.0.1 - root [28/Jan/2020:16:17:10 -0600] "GET /manager/text/ HTTP/1.1" 200 44
127.0.0.1 - - [28/Jan/2020:16:17:10 -0600] "HEAD /netbeans-tomcat-status-test HTTP/1.1" 404 -
127.0.0.1 - root [28/Jan/2020:16:17:10 -0600] "GET /manager/text/ HTTP/1.1" 200 44
127.0.0.1 - - [28/Jan/2020:16:17:10 -0600] "HEAD /netbeans-tomcat-status-test HTTP/1.1" 404 -
127.0.0.1 - root [28/Jan/2020:16:17:10 -0600] "GET /manager/text/ HTTP/1.1" 200 44
127.0.0.1 - - [28/Jan/2020:16:17:10 -0600] "HEAD /netbeans-tomcat-status-test HTTP/1.1" 404 -
127.0.0.1 - root [28/Jan/2020:16:17:10 -0600] "GET /manager/text/ HTTP/1.1" 200 44
127.0.0.1 - root [28/Jan/2020:16:17:10 -0600] "GET /manager/text/list HTTP/1.1" 200 451
127.0.0.1 - - [28/Jan/2020:16:17:11 -0600] "HEAD /netbeans-tomcat-status-test HTTP/1.1" 404 -
127.0.0.1 - root [28/Jan/2020:16:17:11 -0600] "GET /manager/text/ HTTP/1.1" 200 44
127.0.0.1 - root [28/Jan/2020:16:17:11 -0600] "GET /manager/text/list HTTP/1.1" 200 451
127.0.0.1 - root [28/Jan/2020:16:17:13 -0600] "GET /manager/text/list HTTP/1.1" 200 451
127.0.0.1 - - [28/Jan/2020:16:17:23 -0600] "HEAD /netbeans-tomcat-status-test HTTP/1.1" 404 -
127.0.0.1 - root [28/Jan/2020:16:17:23 -0600] "GET /manager/text/ HTTP/1.1" 200 44
127.0.0.1 - - [28/Jan/2020:16:17:23 -0600] "HEAD /netbeans-tomcat-status-test HTTP/1.1" 404 -
127.0.0.1 - root [28/Jan/2020:16:17:23 -0600] "GET /manager/text/ HTTP/1.1" 200 44
127.0.0.1 - - [28/Jan/2020:16:17:23 -0600] "HEAD /netbeans-tomcat-status-test HTTP/1.1" 404 -
127.0.0.1 - root [28/Jan/2020:16:17:23 -0600] "GET /manager/text/ HTTP/1.1" 200 44
127.0.0.1 - - [28/Jan/2020:16:17:23 -0600] "HEAD /netbeans-tomcat-status-test HTTP/1.1" 404 -
127.0.0.1 - root [28/Jan/2020:16:17:23 -0600] "GET /manager/text/ HTTP/1.1" 200 44
127.0.0.1 - root [28/Jan/2020:16:17:23 -0600] "GET /manager/text/list HTTP/1.1" 200 451
127.0.0.1 - root [28/Jan/2020:16:17:23 -0600] "GET /manager/text/list HTTP/1.1" 200 451
127.0.0.1 - root [28/Jan/2020:16:17:24 -0600] "GET /manager/text/deploy?config=file%3A%2FC%3A%2FUsers%2FCHRIST%7E1.RAM%2FAppData%2FLocal%2FTemp%2Fcontext6193280517450163761.xml&path=/proyectoHotel_grupo1 HTTP/1.1" 200 124
127.0.0.1 - - [28/Jan/2020:16:17:28 -0600] "HEAD /netbeans-tomcat-status-test HTTP/1.1" 404 -
127.0.0.1 - root [28/Jan/2020:16:17:28 -0600] "GET /manager/text/ HTTP/1.1" 200 44
127.0.0.1 - - [28/Jan/2020:16:17:28 -0600] "HEAD /netbeans-tomcat-status-test HTTP/1.1" 404 -
127.0.0.1 - root [28/Jan/2020:16:17:28 -0600] "GET /manager/text/ HTTP/1.1" 200 44
127.0.0.1 - - [28/Jan/2020:16:17:28 -0600] "HEAD /netbeans-tomcat-status-test HTTP/1.1" 404 -
127.0.0.1 - root [28/Jan/2020:16:17:28 -0600] "GET /manager/text/ HTTP/1.1" 200 44
127.0.0.1 - - [28/Jan/2020:16:17:28 -0600] "HEAD /netbeans-tomcat-status-test HTTP/1.1" 404 -
127.0.0.1 - root [28/Jan/2020:16:17:28 -0600] "GET /manager/text/list HTTP/1.1" 200 596
127.0.0.1 - root [28/Jan/2020:16:17:28 -0600] "GET /manager/text/ HTTP/1.1" 200 44
127.0.0.1 - root [28/Jan/2020:16:17:28 -0600] "GET /manager/text/list HTTP/1.1" 200 596
127.0.0.1 - root [28/Jan/2020:16:17:28 -0600] "GET /manager/text/undeploy?path=/proyectoHotel_grupo1 HTTP/1.1" 200 90
127.0.0.1 - root [28/Jan/2020:16:17:29 -0600] "GET /manager/text/deploy?config=file%3A%2FC%3A%2FUsers%2FCHRIST%7E1.RAM%2FAppData%2FLocal%2FTemp%2Fcontext3523414104877454683.xml&path=/proyectoHotel_grupo1 HTTP/1.1" 200 124
127.0.0.1 - - [28/Jan/2020:16:17:38 -0600] "HEAD /netbeans-tomcat-status-test HTTP/1.1" 404 -
127.0.0.1 - root [28/Jan/2020:16:17:38 -0600] "GET /manager/text/ HTTP/1.1" 200 44
127.0.0.1 - - [28/Jan/2020:16:17:38 -0600] "HEAD /netbeans-tomcat-status-test HTTP/1.1" 404 -
127.0.0.1 - root [28/Jan/2020:16:17:38 -0600] "GET /manager/text/ HTTP/1.1" 200 44
127.0.0.1 - - [28/Jan/2020:16:17:38 -0600] "HEAD /netbeans-tomcat-status-test HTTP/1.1" 404 -
127.0.0.1 - root [28/Jan/2020:16:17:38 -0600] "GET /manager/text/ HTTP/1.1" 200 44
127.0.0.1 - - [28/Jan/2020:16:17:38 -0600] "HEAD /netbeans-tomcat-status-test HTTP/1.1" 404 -
127.0.0.1 - root [28/Jan/2020:16:17:38 -0600] "GET /manager/text/ HTTP/1.1" 200 44
127.0.0.1 - root [28/Jan/2020:16:17:38 -0600] "GET /manager/text/list HTTP/1.1" 200 596
127.0.0.1 - root [28/Jan/2020:16:17:38 -0600] "GET /manager/text/list HTTP/1.1" 200 596
127.0.0.1 - root [28/Jan/2020:16:17:39 -0600] "GET /manager/text/undeploy?path=/proyectoHotel_grupo1 HTTP/1.1" 200 90
127.0.0.1 - root [28/Jan/2020:16:17:40 -0600] "GET /manager/text/deploy?config=file%3A%2FC%3A%2FUsers%2FCHRIST%7E1.RAM%2FAppData%2FLocal%2FTemp%2Fcontext5756145924827464910.xml&path=/proyectoHotel_grupo1 HTTP/1.1" 200 124
127.0.0.1 - - [28/Jan/2020:16:17:42 -0600] "HEAD /netbeans-tomcat-status-test HTTP/1.1" 404 -
127.0.0.1 - root [28/Jan/2020:16:17:42 -0600] "GET /manager/text/ HTTP/1.1" 200 44
127.0.0.1 - - [28/Jan/2020:16:17:42 -0600] "HEAD /netbeans-tomcat-status-test HTTP/1.1" 404 -
127.0.0.1 - root [28/Jan/2020:16:17:42 -0600] "GET /manager/text/ HTTP/1.1" 200 44
127.0.0.1 - root [28/Jan/2020:16:17:42 -0600] "GET /manager/text/list HTTP/1.1" 200 596
127.0.0.1 - root [28/Jan/2020:16:17:42 -0600] "GET /manager/text/undeploy?path=/proyectoHotel_grupo1 HTTP/1.1" 200 90
127.0.0.1 - - [28/Jan/2020:16:18:14 -0600] "HEAD /netbeans-tomcat-status-test HTTP/1.1" 404 -
127.0.0.1 - root [28/Jan/2020:16:18:14 -0600] "GET /manager/text/ HTTP/1.1" 200 44
127.0.0.1 - - [28/Jan/2020:16:18:14 -0600] "HEAD /netbeans-tomcat-status-test HTTP/1.1" 404 -
127.0.0.1 - root [28/Jan/2020:16:18:14 -0600] "GET /manager/text/ HTTP/1.1" 200 44
127.0.0.1 - - [28/Jan/2020:16:18:14 -0600] "HEAD /netbeans-tomcat-status-test HTTP/1.1" 404 -
127.0.0.1 - root [28/Jan/2020:16:18:14 -0600] "GET /manager/text/ HTTP/1.1" 200 44
127.0.0.1 - - [28/Jan/2020:16:18:14 -0600] "HEAD /netbeans-tomcat-status-test HTTP/1.1" 404 -
127.0.0.1 - root [28/Jan/2020:16:18:14 -0600] "GET /manager/text/list HTTP/1.1" 200 451
127.0.0.1 - root [28/Jan/2020:16:18:14 -0600] "GET /manager/text/ HTTP/1.1" 200 44
127.0.0.1 - root [28/Jan/2020:16:18:14 -0600] "GET /manager/text/list HTTP/1.1" 200 451
127.0.0.1 - root [28/Jan/2020:16:18:15 -0600] "GET /manager/text/deploy?config=file%3A%2FC%3A%2FUsers%2FCHRIST%7E1.RAM%2FAppData%2FLocal%2FTemp%2Fcontext494215855019410257.xml&path=/proyectoHotel_grupo1 HTTP/1.1" 200 91
127.0.0.1 - root [28/Jan/2020:16:18:15 -0600] "GET /manager/text/start?path=/proyectoHotel_grupo1 HTTP/1.1" 200 90
127.0.0.1 - - [28/Jan/2020:16:18:15 -0600] "HEAD /netbeans-tomcat-status-test HTTP/1.1" 404 -
127.0.0.1 - root [28/Jan/2020:16:18:15 -0600] "GET /manager/text/ HTTP/1.1" 200 44
127.0.0.1 - - [28/Jan/2020:16:18:35 -0600] "HEAD /netbeans-tomcat-status-test HTTP/1.1" 404 -
127.0.0.1 - root [28/Jan/2020:16:18:35 -0600] "GET /manager/text/ HTTP/1.1" 200 44
127.0.0.1 - - [28/Jan/2020:16:18:35 -0600] "HEAD /netbeans-tomcat-status-test HTTP/1.1" 404 -
127.0.0.1 - root [28/Jan/2020:16:18:35 -0600] "GET /manager/text/ HTTP/1.1" 200 44
127.0.0.1 - root [28/Jan/2020:16:18:35 -0600] "GET /manager/text/list HTTP/1.1" 200 596
127.0.0.1 - root [28/Jan/2020:16:18:36 -0600] "GET /manager/text/undeploy?path=/proyectoHotel_grupo1 HTTP/1.1" 200 90
127.0.0.1 - - [28/Jan/2020:16:18:50 -0600] "HEAD /netbeans-tomcat-status-test HTTP/1.1" 404 -
127.0.0.1 - root [28/Jan/2020:16:18:50 -0600] "GET /manager/text/ HTTP/1.1" 200 44
127.0.0.1 - - [28/Jan/2020:16:18:50 -0600] "HEAD /netbeans-tomcat-status-test HTTP/1.1" 404 -
127.0.0.1 - root [28/Jan/2020:16:18:50 -0600] "GET /manager/text/ HTTP/1.1" 200 44
127.0.0.1 - - [28/Jan/2020:16:18:50 -0600] "HEAD /netbeans-tomcat-status-test HTTP/1.1" 404 -
127.0.0.1 - root [28/Jan/2020:16:18:50 -0600] "GET /manager/text/ HTTP/1.1" 200 44
127.0.0.1 - root [28/Jan/2020:16:18:50 -0600] "GET /manager/text/list HTTP/1.1" 200 451
127.0.0.1 - - [28/Jan/2020:16:18:55 -0600] "HEAD /netbeans-tomcat-status-test HTTP/1.1" 404 -
127.0.0.1 - root [28/Jan/2020:16:18:55 -0600] "GET /manager/text/ HTTP/1.1" 200 44
127.0.0.1 - - [28/Jan/2020:16:18:55 -0600] "HEAD /netbeans-tomcat-status-test HTTP/1.1" 404 -
127.0.0.1 - root [28/Jan/2020:16:18:55 -0600] "GET /manager/text/ HTTP/1.1" 200 44
127.0.0.1 - root [28/Jan/2020:16:18:55 -0600] "GET /manager/text/list HTTP/1.1" 200 451
127.0.0.1 - - [28/Jan/2020:16:19:05 -0600] "HEAD /netbeans-tomcat-status-test HTTP/1.1" 404 -
127.0.0.1 - root [28/Jan/2020:16:19:05 -0600] "GET /manager/text/ HTTP/1.1" 200 44
127.0.0.1 - - [28/Jan/2020:16:19:05 -0600] "HEAD /netbeans-tomcat-status-test HTTP/1.1" 404 -
127.0.0.1 - root [28/Jan/2020:16:19:05 -0600] "GET /manager/text/ HTTP/1.1" 200 44
127.0.0.1 - - [28/Jan/2020:16:19:05 -0600] "HEAD /netbeans-tomcat-status-test HTTP/1.1" 404 -
127.0.0.1 - root [28/Jan/2020:16:19:05 -0600] "GET /manager/text/ HTTP/1.1" 200 44
127.0.0.1 - - [28/Jan/2020:16:19:05 -0600] "HEAD /netbeans-tomcat-status-test HTTP/1.1" 404 -
127.0.0.1 - root [28/Jan/2020:16:19:05 -0600] "GET /manager/text/ HTTP/1.1" 200 44
127.0.0.1 - root [28/Jan/2020:16:19:05 -0600] "GET /manager/text/list HTTP/1.1" 200 451
127.0.0.1 - root [28/Jan/2020:16:19:05 -0600] "GET /manager/text/list HTTP/1.1" 200 451
127.0.0.1 - root [28/Jan/2020:16:19:06 -0600] "GET /manager/text/deploy?config=file%3A%2FC%3A%2FUsers%2FCHRIST%7E1.RAM%2FAppData%2FLocal%2FTemp%2Fcontext8874392173928324191.xml&path=/proyectoHotel_grupo1 HTTP/1.1" 200 91
127.0.0.1 - root [28/Jan/2020:16:19:06 -0600] "GET /manager/text/start?path=/proyectoHotel_grupo1 HTTP/1.1" 200 90
0:0:0:0:0:0:0:1 - - [28/Jan/2020:16:19:06 -0600] "GET /proyectoHotel_grupo1 HTTP/1.1" 302 -
0:0:0:0:0:0:0:1 - - [28/Jan/2020:16:19:06 -0600] "GET /proyectoHotel_grupo1/ HTTP/1.1" 200 908
127.0.0.1 - - [28/Jan/2020:16:21:50 -0600] "HEAD /netbeans-tomcat-status-test HTTP/1.1" 404 -
127.0.0.1 - root [28/Jan/2020:16:21:50 -0600] "GET /manager/text/ HTTP/1.1" 200 44
127.0.0.1 - - [28/Jan/2020:16:21:50 -0600] "HEAD /netbeans-tomcat-status-test HTTP/1.1" 404 -
127.0.0.1 - root [28/Jan/2020:16:21:50 -0600] "GET /manager/text/ HTTP/1.1" 200 44
127.0.0.1 - - [28/Jan/2020:16:21:50 -0600] "HEAD /netbeans-tomcat-status-test HTTP/1.1" 404 -
127.0.0.1 - root [28/Jan/2020:16:21:50 -0600] "GET /manager/text/ HTTP/1.1" 200 44
127.0.0.1 - - [28/Jan/2020:16:34:07 -0600] "HEAD /netbeans-tomcat-status-test HTTP/1.1" 404 -
127.0.0.1 - - [28/Jan/2020:16:34:08 -0600] "HEAD /netbeans-tomcat-status-test HTTP/1.1" 404 -
127.0.0.1 - root [28/Jan/2020:16:34:08 -0600] "GET /manager/text/ HTTP/1.1" 200 44
127.0.0.1 - - [28/Jan/2020:16:34:08 -0600] "HEAD /netbeans-tomcat-status-test HTTP/1.1" 404 -
127.0.0.1 - root [28/Jan/2020:16:34:08 -0600] "GET /manager/text/ HTTP/1.1" 200 44
127.0.0.1 - - [28/Jan/2020:16:34:08 -0600] "HEAD /netbeans-tomcat-status-test HTTP/1.1" 404 -
127.0.0.1 - root [28/Jan/2020:16:34:08 -0600] "GET /manager/text/ HTTP/1.1" 200 44
127.0.0.1 - - [28/Jan/2020:16:34:08 -0600] "HEAD /netbeans-tomcat-status-test HTTP/1.1" 404 -
127.0.0.1 - root [28/Jan/2020:16:34:08 -0600] "GET /manager/text/list HTTP/1.1" 200 596
127.0.0.1 - root [28/Jan/2020:16:34:08 -0600] "GET /manager/text/ HTTP/1.1" 200 44
127.0.0.1 - root [28/Jan/2020:16:34:08 -0600] "GET /manager/text/list HTTP/1.1" 200 596
127.0.0.1 - root [28/Jan/2020:16:34:09 -0600] "GET /manager/text/undeploy?path=/proyectoHotel_grupo1 HTTP/1.1" 200 90
127.0.0.1 - root [28/Jan/2020:16:34:10 -0600] "GET /manager/text/deploy?config=file%3A%2FC%3A%2FUsers%2FCHRIST%7E1.RAM%2FAppData%2FLocal%2FTemp%2Fcontext3834715247066494791.xml&path=/proyectoHotel_grupo1 HTTP/1.1" 200 91
127.0.0.1 - root [28/Jan/2020:16:34:10 -0600] "GET /manager/text/start?path=/proyectoHotel_grupo1 HTTP/1.1" 200 90
0:0:0:0:0:0:0:1 - - [28/Jan/2020:16:34:10 -0600] "GET /proyectoHotel_grupo1/ HTTP/1.1" 304 -
127.0.0.1 - - [28/Jan/2020:16:36:21 -0600] "HEAD /netbeans-tomcat-status-test HTTP/1.1" 404 -
127.0.0.1 - root [28/Jan/2020:16:36:21 -0600] "GET /manager/text/ HTTP/1.1" 200 44
127.0.0.1 - - [28/Jan/2020:16:36:22 -0600] "HEAD /netbeans-tomcat-status-test HTTP/1.1" 404 -
127.0.0.1 - root [28/Jan/2020:16:36:22 -0600] "GET /manager/text/ HTTP/1.1" 200 44
127.0.0.1 - root [28/Jan/2020:16:36:22 -0600] "GET /manager/text/list HTTP/1.1" 200 596
127.0.0.1 - root [28/Jan/2020:16:36:22 -0600] "GET /manager/text/undeploy?path=/proyectoHotel_grupo1 HTTP/1.1" 200 90
127.0.0.1 - - [28/Jan/2020:16:36:30 -0600] "HEAD /netbeans-tomcat-status-test HTTP/1.1" 404 -
127.0.0.1 - root [28/Jan/2020:16:36:30 -0600] "GET /manager/text/ HTTP/1.1" 200 44
127.0.0.1 - - [28/Jan/2020:16:36:30 -0600] "HEAD /netbeans-tomcat-status-test HTTP/1.1" 404 -
127.0.0.1 - root [28/Jan/2020:16:36:30 -0600] "GET /manager/text/ HTTP/1.1" 200 44
127.0.0.1 - - [28/Jan/2020:16:36:30 -0600] "HEAD /netbeans-tomcat-status-test HTTP/1.1" 404 -
127.0.0.1 - root [28/Jan/2020:16:36:30 -0600] "GET /manager/text/ HTTP/1.1" 200 44
127.0.0.1 - - [28/Jan/2020:16:36:30 -0600] "HEAD /netbeans-tomcat-status-test HTTP/1.1" 404 -
127.0.0.1 - root [28/Jan/2020:16:36:30 -0600] "GET /manager/text/ HTTP/1.1" 200 44
127.0.0.1 - root [28/Jan/2020:16:36:30 -0600] "GET /manager/text/list HTTP/1.1" 200 451
127.0.0.1 - root [28/Jan/2020:16:36:30 -0600] "GET /manager/text/list HTTP/1.1" 200 451
127.0.0.1 - root [28/Jan/2020:16:36:31 -0600] "GET /manager/text/deploy?config=file%3A%2FC%3A%2FUsers%2FCHRIST%7E1.RAM%2FAppData%2FLocal%2FTemp%2Fcontext4332839305158472815.xml&path=/proyectoHotel_grupo1 HTTP/1.1" 200 91
127.0.0.1 - root [28/Jan/2020:16:36:31 -0600] "GET /manager/text/start?path=/proyectoHotel_grupo1 HTTP/1.1" 200 90
0:0:0:0:0:0:0:1 - - [28/Jan/2020:16:36:31 -0600] "GET /proyectoHotel_grupo1/ HTTP/1.1" 304 -
127.0.0.1 - - [28/Jan/2020:16:42:18 -0600] "HEAD /netbeans-tomcat-status-test HTTP/1.1" 404 -
127.0.0.1 - root [28/Jan/2020:16:42:18 -0600] "GET /manager/text/ HTTP/1.1" 200 44
127.0.0.1 - - [28/Jan/2020:16:42:18 -0600] "HEAD /netbeans-tomcat-status-test HTTP/1.1" 404 -
127.0.0.1 - root [28/Jan/2020:16:42:18 -0600] "GET /manager/text/ HTTP/1.1" 200 44
127.0.0.1 - - [28/Jan/2020:16:42:18 -0600] "HEAD /netbeans-tomcat-status-test HTTP/1.1" 404 -
127.0.0.1 - root [28/Jan/2020:16:42:18 -0600] "GET /manager/text/ HTTP/1.1" 200 44
127.0.0.1 - - [28/Jan/2020:16:42:18 -0600] "HEAD /netbeans-tomcat-status-test HTTP/1.1" 404 -
127.0.0.1 - root [28/Jan/2020:16:42:18 -0600] "GET /manager/text/list HTTP/1.1" 200 596
127.0.0.1 - root [28/Jan/2020:16:42:18 -0600] "GET /manager/text/ HTTP/1.1" 200 44
127.0.0.1 - root [28/Jan/2020:16:42:18 -0600] "GET /manager/text/list HTTP/1.1" 200 596
127.0.0.1 - root [28/Jan/2020:16:42:19 -0600] "GET /manager/text/undeploy?path=/proyectoHotel_grupo1 HTTP/1.1" 200 90
127.0.0.1 - root [28/Jan/2020:16:42:19 -0600] "GET /manager/text/deploy?config=file%3A%2FC%3A%2FUsers%2FCHRIST%7E1.RAM%2FAppData%2FLocal%2FTemp%2Fcontext2585401428684756992.xml&path=/proyectoHotel_grupo1 HTTP/1.1" 200 91
127.0.0.1 - root [28/Jan/2020:16:42:19 -0600] "GET /manager/text/start?path=/proyectoHotel_grupo1 HTTP/1.1" 200 90
0:0:0:0:0:0:0:1 - - [28/Jan/2020:16:42:19 -0600] "GET /proyectoHotel_grupo1/faces/welcomePrimefaces.xhtml HTTP/1.1" 404 966
0:0:0:0:0:0:0:1 - - [28/Jan/2020:16:42:28 -0600] "GET /proyectoHotel_grupo1/welcomePrimefaces.xhtml HTTP/1.1" 200 1912
127.0.0.1 - - [28/Jan/2020:16:50:52 -0600] "HEAD /netbeans-tomcat-status-test HTTP/1.1" 404 -
127.0.0.1 - root [28/Jan/2020:16:50:52 -0600] "GET /manager/text/ HTTP/1.1" 200 44
127.0.0.1 - - [28/Jan/2020:16:50:52 -0600] "HEAD /netbeans-tomcat-status-test HTTP/1.1" 404 -
127.0.0.1 - root [28/Jan/2020:16:50:52 -0600] "GET /manager/text/ HTTP/1.1" 200 44
127.0.0.1 - - [28/Jan/2020:16:51:18 -0600] "HEAD /netbeans-tomcat-status-test HTTP/1.1" 404 -
127.0.0.1 - root [28/Jan/2020:16:51:18 -0600] "GET /manager/text/ HTTP/1.1" 200 44
127.0.0.1 - - [28/Jan/2020:16:51:18 -0600] "HEAD /netbeans-tomcat-status-test HTTP/1.1" 404 -
127.0.0.1 - root [28/Jan/2020:16:51:18 -0600] "GET /manager/text/ HTTP/1.1" 200 44
127.0.0.1 - - [28/Jan/2020:16:51:18 -0600] "HEAD /netbeans-tomcat-status-test HTTP/1.1" 404 -
127.0.0.1 - root [28/Jan/2020:16:51:18 -0600] "GET /manager/text/ HTTP/1.1" 200 44
127.0.0.1 - - [28/Jan/2020:16:51:54 -0600] "HEAD /netbeans-tomcat-status-test HTTP/1.1" 404 -
127.0.0.1 - - [28/Jan/2020:16:51:54 -0600] "GET /manager/text/ HTTP/1.1" 401 2536
127.0.0.1 - root [28/Jan/2020:16:51:56 -0600] "GET /manager/text/ HTTP/1.1" 200 44
127.0.0.1 - - [28/Jan/2020:16:51:56 -0600] "HEAD /netbeans-tomcat-status-test HTTP/1.1" 404 -
127.0.0.1 - root [28/Jan/2020:16:51:56 -0600] "GET /manager/text/ HTTP/1.1" 200 44
127.0.0.1 - - [28/Jan/2020:16:51:56 -0600] "HEAD /netbeans-tomcat-status-test HTTP/1.1" 404 -
127.0.0.1 - root [28/Jan/2020:16:51:56 -0600] "GET /manager/text/ HTTP/1.1" 200 44
127.0.0.1 - - [28/Jan/2020:16:51:56 -0600] "HEAD /netbeans-tomcat-status-test HTTP/1.1" 404 -
127.0.0.1 - root [28/Jan/2020:16:51:56 -0600] "GET /manager/text/ HTTP/1.1" 200 44
127.0.0.1 - root [28/Jan/2020:16:51:56 -0600] "GET /manager/text/list HTTP/1.1" 200 596
127.0.0.1 - root [28/Jan/2020:16:51:56 -0600] "GET /manager/text/list HTTP/1.1" 200 596
127.0.0.1 - root [28/Jan/2020:16:51:57 -0600] "GET /manager/text/undeploy?path=/proyectoHotel_grupo1 HTTP/1.1" 200 90
127.0.0.1 - root [28/Jan/2020:16:51:57 -0600] "GET /manager/text/deploy?config=file%3A%2FC%3A%2FUsers%2FCHRIST%7E1.RAM%2FAppData%2FLocal%2FTemp%2Fcontext1701470040236426550.xml&path=/proyectoHotel_grupo1 HTTP/1.1" 200 91
127.0.0.1 - root [28/Jan/2020:16:51:57 -0600] "GET /manager/text/start?path=/proyectoHotel_grupo1 HTTP/1.1" 200 90
0:0:0:0:0:0:0:1 - - [28/Jan/2020:16:51:57 -0600] "GET /proyectoHotel_grupo1/ HTTP/1.1" 304 -
127.0.0.1 - - [28/Jan/2020:16:52:14 -0600] "HEAD /netbeans-tomcat-status-test HTTP/1.1" 404 -
127.0.0.1 - root [28/Jan/2020:16:52:14 -0600] "GET /manager/text/ HTTP/1.1" 200 44
127.0.0.1 - - [28/Jan/2020:16:52:14 -0600] "HEAD /netbeans-tomcat-status-test HTTP/1.1" 404 -
127.0.0.1 - root [28/Jan/2020:16:52:14 -0600] "GET /manager/text/ HTTP/1.1" 200 44
127.0.0.1 - - [28/Jan/2020:16:52:14 -0600] "HEAD /netbeans-tomcat-status-test HTTP/1.1" 404 -
127.0.0.1 - root [28/Jan/2020:16:52:14 -0600] "GET /manager/text/ HTTP/1.1" 200 44
127.0.0.1 - - [28/Jan/2020:16:52:14 -0600] "HEAD /netbeans-tomcat-status-test HTTP/1.1" 404 -
127.0.0.1 - root [28/Jan/2020:16:52:14 -0600] "GET /manager/text/list HTTP/1.1" 200 596
127.0.0.1 - root [28/Jan/2020:16:52:14 -0600] "GET /manager/text/ HTTP/1.1" 200 44
127.0.0.1 - root [28/Jan/2020:16:52:14 -0600] "GET /manager/text/list HTTP/1.1" 200 596
127.0.0.1 - root [28/Jan/2020:16:52:15 -0600] "GET /manager/text/undeploy?path=/proyectoHotel_grupo1 HTTP/1.1" 200 90
127.0.0.1 - root [28/Jan/2020:16:52:15 -0600] "GET /manager/text/deploy?config=file%3A%2FC%3A%2FUsers%2FCHRIST%7E1.RAM%2FAppData%2FLocal%2FTemp%2Fcontext159105307233846352.xml&path=/proyectoHotel_grupo1 HTTP/1.1" 200 91
127.0.0.1 - root [28/Jan/2020:16:52:15 -0600] "GET /manager/text/start?path=/proyectoHotel_grupo1 HTTP/1.1" 200 90
127.0.0.1 - - [28/Jan/2020:16:53:31 -0600] "HEAD /netbeans-tomcat-status-test HTTP/1.1" 404 -
127.0.0.1 - root [28/Jan/2020:16:53:31 -0600] "GET /manager/text/ HTTP/1.1" 200 44
127.0.0.1 - - [28/Jan/2020:16:53:31 -0600] "HEAD /netbeans-tomcat-status-test HTTP/1.1" 404 -
127.0.0.1 - root [28/Jan/2020:16:53:31 -0600] "GET /manager/text/ HTTP/1.1" 200 44
127.0.0.1 - - [28/Jan/2020:16:53:31 -0600] "HEAD /netbeans-tomcat-status-test HTTP/1.1" 404 -
127.0.0.1 - root [28/Jan/2020:16:53:31 -0600] "GET /manager/text/ HTTP/1.1" 200 44
127.0.0.1 - root [28/Jan/2020:16:53:31 -0600] "GET /manager/text/list HTTP/1.1" 200 596
127.0.0.1 - - [28/Jan/2020:16:53:31 -0600] "HEAD /netbeans-tomcat-status-test HTTP/1.1" 404 -
127.0.0.1 - root [28/Jan/2020:16:53:31 -0600] "GET /manager/text/ HTTP/1.1" 200 44
0:0:0:0:0:0:0:1 - - [28/Jan/2020:16:53:31 -0600] "GET /proyectoHotel_grupo1/ HTTP/1.1" 200 673
0:0:0:0:0:0:0:1 - - [28/Jan/2020:16:53:32 -0600] "GET /proyectoHotel_grupo1/ HTTP/1.1" 304 -
0:0:0:0:0:0:0:1 - - [28/Jan/2020:16:53:32 -0600] "GET /proyectoHotel_grupo1/ HTTP/1.1" 304 -
0:0:0:0:0:0:0:1 - - [28/Jan/2020:16:53:32 -0600] "GET /proyectoHotel_grupo1/ HTTP/1.1" 304 -
0:0:0:0:0:0:0:1 - - [28/Jan/2020:16:53:33 -0600] "GET /proyectoHotel_grupo1/ HTTP/1.1" 304 -
127.0.0.1 - - [28/Jan/2020:16:53:49 -0600] "HEAD /netbeans-tomcat-status-test HTTP/1.1" 404 -
127.0.0.1 - root [28/Jan/2020:16:53:49 -0600] "GET /manager/text/ HTTP/1.1" 200 44
127.0.0.1 - - [28/Jan/2020:16:53:49 -0600] "HEAD /netbeans-tomcat-status-test HTTP/1.1" 404 -
127.0.0.1 - root [28/Jan/2020:16:53:49 -0600] "GET /manager/text/ HTTP/1.1" 200 44
127.0.0.1 - - [28/Jan/2020:16:53:49 -0600] "HEAD /netbeans-tomcat-status-test HTTP/1.1" 404 -
127.0.0.1 - root [28/Jan/2020:16:53:49 -0600] "GET /manager/text/ HTTP/1.1" 200 44
127.0.0.1 - root [28/Jan/2020:16:53:49 -0600] "GET /manager/text/list HTTP/1.1" 200 596
127.0.0.1 - - [28/Jan/2020:16:53:49 -0600] "HEAD /netbeans-tomcat-status-test HTTP/1.1" 404 -
127.0.0.1 - root [28/Jan/2020:16:53:49 -0600] "GET /manager/text/ HTTP/1.1" 200 44
127.0.0.1 - - [28/Jan/2020:16:53:53 -0600] "HEAD /netbeans-tomcat-status-test HTTP/1.1" 404 -
127.0.0.1 - root [28/Jan/2020:16:53:53 -0600] "GET /manager/text/ HTTP/1.1" 200 44
127.0.0.1 - - [28/Jan/2020:16:53:53 -0600] "HEAD /netbeans-tomcat-status-test HTTP/1.1" 404 -
127.0.0.1 - root [28/Jan/2020:16:53:53 -0600] "GET /manager/text/ HTTP/1.1" 200 44
127.0.0.1 - - [28/Jan/2020:16:53:53 -0600] "HEAD /netbeans-tomcat-status-test HTTP/1.1" 404 -
127.0.0.1 - root [28/Jan/2020:16:53:53 -0600] "GET /manager/text/ HTTP/1.1" 200 44
127.0.0.1 - - [28/Jan/2020:16:53:53 -0600] "HEAD /netbeans-tomcat-status-test HTTP/1.1" 404 -
127.0.0.1 - root [28/Jan/2020:16:53:53 -0600] "GET /manager/text/list HTTP/1.1" 200 596
127.0.0.1 - root [28/Jan/2020:16:53:53 -0600] "GET /manager/text/ HTTP/1.1" 200 44
127.0.0.1 - root [28/Jan/2020:16:53:53 -0600] "GET /manager/text/list HTTP/1.1" 200 596
127.0.0.1 - root [28/Jan/2020:16:53:54 -0600] "GET /manager/text/undeploy?path=/proyectoHotel_grupo1 HTTP/1.1" 200 90
127.0.0.1 - root [28/Jan/2020:16:53:54 -0600] "GET /manager/text/deploy?config=file%3A%2FC%3A%2FUsers%2FCHRIST%7E1.RAM%2FAppData%2FLocal%2FTemp%2Fcontext1820096005082581788.xml&path=/proyectoHotel_grupo1 HTTP/1.1" 200 91
127.0.0.1 - root [28/Jan/2020:16:53:54 -0600] "GET /manager/text/start?path=/proyectoHotel_grupo1 HTTP/1.1" 200 90
0:0:0:0:0:0:0:1 - - [28/Jan/2020:16:53:54 -0600] "GET /proyectoHotel_grupo1/faces/welcomePrimefaces.xhtml HTTP/1.1" 404 966
0:0:0:0:0:0:0:1 - - [28/Jan/2020:16:53:56 -0600] "GET /proyectoHotel_grupo1/faces/welcomePrimefaces.xhtml HTTP/1.1" 404 966
127.0.0.1 - - [28/Jan/2020:16:54:37 -0600] "HEAD /netbeans-tomcat-status-test HTTP/1.1" 404 -
127.0.0.1 - root [28/Jan/2020:16:54:37 -0600] "GET /manager/text/ HTTP/1.1" 200 44
127.0.0.1 - - [28/Jan/2020:16:54:37 -0600] "HEAD /netbeans-tomcat-status-test HTTP/1.1" 404 -
127.0.0.1 - root [28/Jan/2020:16:54:37 -0600] "GET /manager/text/ HTTP/1.1" 200 44
127.0.0.1 - - [28/Jan/2020:16:54:37 -0600] "HEAD /netbeans-tomcat-status-test HTTP/1.1" 404 -
127.0.0.1 - root [28/Jan/2020:16:54:37 -0600] "GET /manager/text/ HTTP/1.1" 200 44
127.0.0.1 - root [28/Jan/2020:16:54:37 -0600] "GET /manager/text/list HTTP/1.1" 200 596
127.0.0.1 - - [28/Jan/2020:16:54:37 -0600] "HEAD /netbeans-tomcat-status-test HTTP/1.1" 404 -
127.0.0.1 - root [28/Jan/2020:16:54:37 -0600] "GET /manager/text/ HTTP/1.1" 200 44
127.0.0.1 - - [28/Jan/2020:16:57:55 -0600] "HEAD /netbeans-tomcat-status-test HTTP/1.1" 404 -
127.0.0.1 - root [28/Jan/2020:16:57:55 -0600] "GET /manager/text/ HTTP/1.1" 200 44
127.0.0.1 - - [28/Jan/2020:16:57:55 -0600] "HEAD /netbeans-tomcat-status-test HTTP/1.1" 404 -
127.0.0.1 - root [28/Jan/2020:16:57:55 -0600] "GET /manager/text/ HTTP/1.1" 200 44
127.0.0.1 - - [28/Jan/2020:16:57:55 -0600] "HEAD /netbeans-tomcat-status-test HTTP/1.1" 404 -
127.0.0.1 - root [28/Jan/2020:16:57:55 -0600] "GET /manager/text/ HTTP/1.1" 200 44
