127.0.0.1 - - [04/Dec/2018:15:10:23 -0600] "HEAD /netbeans-tomcat-status-test HTTP/1.1" 404 -
127.0.0.1 - - [04/Dec/2018:15:10:23 -0600] "HEAD /netbeans-tomcat-status-test HTTP/1.1" 404 -
127.0.0.1 - - [04/Dec/2018:15:10:23 -0600] "GET /manager/text/ HTTP/1.1" 401 2536
127.0.0.1 - root [04/Dec/2018:15:10:26 -0600] "GET /manager/text/ HTTP/1.1" 200 44
127.0.0.1 - - [04/Dec/2018:15:10:26 -0600] "HEAD /netbeans-tomcat-status-test HTTP/1.1" 404 -
127.0.0.1 - root [04/Dec/2018:15:10:26 -0600] "GET /manager/text/ HTTP/1.1" 200 44
127.0.0.1 - - [04/Dec/2018:15:10:26 -0600] "HEAD /netbeans-tomcat-status-test HTTP/1.1" 404 -
127.0.0.1 - root [04/Dec/2018:15:10:26 -0600] "GET /manager/text/ HTTP/1.1" 200 44
127.0.0.1 - - [04/Dec/2018:15:10:26 -0600] "HEAD /netbeans-tomcat-status-test HTTP/1.1" 404 -
127.0.0.1 - root [04/Dec/2018:15:10:26 -0600] "GET /manager/text/ HTTP/1.1" 200 44
127.0.0.1 - - [04/Dec/2018:15:10:34 -0600] "HEAD /netbeans-tomcat-status-test HTTP/1.1" 404 -
127.0.0.1 - root [04/Dec/2018:15:10:34 -0600] "GET /manager/text/ HTTP/1.1" 200 44
127.0.0.1 - - [04/Dec/2018:15:10:34 -0600] "HEAD /netbeans-tomcat-status-test HTTP/1.1" 404 -
127.0.0.1 - root [04/Dec/2018:15:10:34 -0600] "GET /manager/text/ HTTP/1.1" 200 44
127.0.0.1 - - [04/Dec/2018:15:10:34 -0600] "HEAD /netbeans-tomcat-status-test HTTP/1.1" 404 -
127.0.0.1 - root [04/Dec/2018:15:10:34 -0600] "GET /manager/text/ HTTP/1.1" 200 44
127.0.0.1 - - [04/Dec/2018:15:11:13 -0600] "HEAD /netbeans-tomcat-status-test HTTP/1.1" 404 -
127.0.0.1 - root [04/Dec/2018:15:11:13 -0600] "GET /manager/text/ HTTP/1.1" 200 44
127.0.0.1 - - [04/Dec/2018:15:11:13 -0600] "HEAD /netbeans-tomcat-status-test HTTP/1.1" 404 -
127.0.0.1 - root [04/Dec/2018:15:11:13 -0600] "GET /manager/text/ HTTP/1.1" 200 44
127.0.0.1 - - [04/Dec/2018:15:11:13 -0600] "HEAD /netbeans-tomcat-status-test HTTP/1.1" 404 -
127.0.0.1 - root [04/Dec/2018:15:11:13 -0600] "GET /manager/text/ HTTP/1.1" 200 44
127.0.0.1 - - [04/Dec/2018:15:40:40 -0600] "HEAD /netbeans-tomcat-status-test HTTP/1.1" 404 -
127.0.0.1 - root [04/Dec/2018:15:40:40 -0600] "GET /manager/text/ HTTP/1.1" 200 44
127.0.0.1 - - [04/Dec/2018:15:40:40 -0600] "HEAD /netbeans-tomcat-status-test HTTP/1.1" 404 -
127.0.0.1 - root [04/Dec/2018:15:40:40 -0600] "GET /manager/text/ HTTP/1.1" 200 44
127.0.0.1 - - [04/Dec/2018:16:06:33 -0600] "GET /tienda/ HTTP/1.1" 404 1004
127.0.0.1 - - [04/Dec/2018:16:48:43 -0600] "HEAD /netbeans-tomcat-status-test HTTP/1.1" 404 -
127.0.0.1 - root [04/Dec/2018:16:48:43 -0600] "GET /manager/text/ HTTP/1.1" 200 44
127.0.0.1 - - [04/Dec/2018:16:48:43 -0600] "HEAD /netbeans-tomcat-status-test HTTP/1.1" 404 -
127.0.0.1 - root [04/Dec/2018:16:48:43 -0600] "GET /manager/text/ HTTP/1.1" 200 44
127.0.0.1 - - [04/Dec/2018:16:48:43 -0600] "HEAD /netbeans-tomcat-status-test HTTP/1.1" 404 -
127.0.0.1 - root [04/Dec/2018:16:48:43 -0600] "GET /manager/text/ HTTP/1.1" 200 44
127.0.0.1 - - [04/Dec/2018:16:48:44 -0600] "HEAD /netbeans-tomcat-status-test HTTP/1.1" 404 -
127.0.0.1 - root [04/Dec/2018:16:48:44 -0600] "GET /manager/text/ HTTP/1.1" 200 44
