127.0.0.1 - - [01/Feb/2020:10:50:28 -0600] "HEAD /netbeans-tomcat-status-test HTTP/1.1" 404 -
127.0.0.1 - - [01/Feb/2020:10:50:28 -0600] "HEAD /netbeans-tomcat-status-test HTTP/1.1" 404 -
127.0.0.1 - - [01/Feb/2020:10:50:28 -0600] "HEAD /netbeans-tomcat-status-test HTTP/1.1" 404 -
127.0.0.1 - - [01/Feb/2020:10:50:28 -0600] "HEAD /netbeans-tomcat-status-test HTTP/1.1" 404 -
127.0.0.1 - - [01/Feb/2020:10:50:28 -0600] "GET /manager/text/ HTTP/1.1" 401 2536
127.0.0.1 - root [01/Feb/2020:10:52:18 -0600] "GET /manager/text/ HTTP/1.1" 200 44
127.0.0.1 - - [01/Feb/2020:10:52:18 -0600] "HEAD /netbeans-tomcat-status-test HTTP/1.1" 404 -
127.0.0.1 - root [01/Feb/2020:10:52:18 -0600] "GET /manager/text/ HTTP/1.1" 200 44
127.0.0.1 - - [01/Feb/2020:10:52:18 -0600] "HEAD /netbeans-tomcat-status-test HTTP/1.1" 404 -
127.0.0.1 - root [01/Feb/2020:10:52:18 -0600] "GET /manager/text/ HTTP/1.1" 200 44
127.0.0.1 - - [01/Feb/2020:10:52:18 -0600] "HEAD /netbeans-tomcat-status-test HTTP/1.1" 404 -
127.0.0.1 - root [01/Feb/2020:10:52:18 -0600] "GET /manager/text/ HTTP/1.1" 200 44
127.0.0.1 - root [01/Feb/2020:10:52:18 -0600] "GET /manager/text/list HTTP/1.1" 200 848
127.0.0.1 - root [01/Feb/2020:10:52:18 -0600] "GET /manager/text/list HTTP/1.1" 200 848
127.0.0.1 - root [01/Feb/2020:10:52:19 -0600] "GET /manager/text/undeploy?path=/MandyHotel HTTP/1.1" 200 80
127.0.0.1 - root [01/Feb/2020:10:52:21 -0600] "GET /manager/text/deploy?config=file%3A%2FC%3A%2FUsers%2FCHRIST%7E1.RAM%2FAppData%2FLocal%2FTemp%2Fcontext4604520329828497422.xml&path=/MandyHotel HTTP/1.1" 200 81
127.0.0.1 - root [01/Feb/2020:10:52:21 -0600] "GET /manager/text/start?path=/MandyHotel HTTP/1.1" 200 80
0:0:0:0:0:0:0:1 - - [01/Feb/2020:10:52:22 -0600] "GET /MandyHotel/faces/index.xhtml HTTP/1.1" 200 414
0:0:0:0:0:0:0:1 - - [01/Feb/2020:10:52:22 -0600] "GET /MandyHotel/faces/javax.faces.resource/theme.css?ln=primefaces-aristo HTTP/1.1" 304 -
0:0:0:0:0:0:0:1 - - [01/Feb/2020:10:52:24 -0600] "GET /MandyHotel/faces/faces/source/view/imagen.xhtml HTTP/1.1" 200 15033
0:0:0:0:0:0:0:1 - - [01/Feb/2020:10:52:24 -0600] "GET /MandyHotel/faces/javax.faces.resource/primefaces.css?ln=primefaces&v=5.0 HTTP/1.1" 304 -
0:0:0:0:0:0:0:1 - - [01/Feb/2020:10:52:24 -0600] "GET /MandyHotel/faces/javax.faces.resource/theme.css?ln=primefaces-aristo HTTP/1.1" 304 -
0:0:0:0:0:0:0:1 - - [01/Feb/2020:10:52:24 -0600] "GET /MandyHotel/faces/javax.faces.resource/jquery/jquery.js?ln=primefaces&v=5.0 HTTP/1.1" 304 -
0:0:0:0:0:0:0:1 - - [01/Feb/2020:10:52:24 -0600] "GET /MandyHotel/faces/javax.faces.resource/primefaces.js?ln=primefaces&v=5.0 HTTP/1.1" 304 -
0:0:0:0:0:0:0:1 - - [01/Feb/2020:10:52:24 -0600] "GET /MandyHotel/faces/javax.faces.resource/jquery/jquery-plugins.js?ln=primefaces&v=5.0 HTTP/1.1" 304 -
0:0:0:0:0:0:0:1 - - [01/Feb/2020:10:52:24 -0600] "GET /MandyHotel/faces/faces/source/js/hotel.js HTTP/1.1" 304 -
0:0:0:0:0:0:0:1 - - [01/Feb/2020:10:52:24 -0600] "GET /MandyHotel/faces/javax.faces.resource/images/ui-icons_898989_256x240.png?ln=primefaces-aristo HTTP/1.1" 304 -
0:0:0:0:0:0:0:1 - - [01/Feb/2020:10:52:24 -0600] "GET /MandyHotel/faces/faces/source/css/hotel1.css HTTP/1.1" 304 -
0:0:0:0:0:0:0:1 - - [01/Feb/2020:10:52:24 -0600] "GET /MandyHotel/faces/faces/source/img/nav/tipohabitacion.png HTTP/1.1" 304 -
0:0:0:0:0:0:0:1 - - [01/Feb/2020:10:52:24 -0600] "GET /MandyHotel/faces/faces/source/img/nav/imagen.png HTTP/1.1" 304 -
0:0:0:0:0:0:0:1 - - [01/Feb/2020:10:52:24 -0600] "GET /MandyHotel/faces/faces/source/img/nav/informacion.png HTTP/1.1" 304 -
0:0:0:0:0:0:0:1 - - [01/Feb/2020:10:52:24 -0600] "GET /MandyHotel/faces/faces/source/img/nav/habitacion.png HTTP/1.1" 304 -
0:0:0:0:0:0:0:1 - - [01/Feb/2020:10:52:24 -0600] "GET /MandyHotel/faces/faces/source/img/nav/informacionImagen.png HTTP/1.1" 304 -
0:0:0:0:0:0:0:1 - - [01/Feb/2020:10:52:24 -0600] "GET /MandyHotel/faces/faces/source/img/nav/huesped.png HTTP/1.1" 304 -
0:0:0:0:0:0:0:1 - - [01/Feb/2020:10:52:24 -0600] "GET /MandyHotel/faces/faces/source/img/nav/tema.png HTTP/1.1" 304 -
0:0:0:0:0:0:0:1 - - [01/Feb/2020:10:52:24 -0600] "GET /MandyHotel/faces/faces/source/img/nav/comentario.png HTTP/1.1" 304 -
0:0:0:0:0:0:0:1 - - [01/Feb/2020:10:52:24 -0600] "GET /MandyHotel/faces/faces/source/img/nav/reserva.png HTTP/1.1" 304 -
0:0:0:0:0:0:0:1 - - [01/Feb/2020:10:52:24 -0600] "GET /MandyHotel/faces/faces/source/img/nav/usuario.png HTTP/1.1" 304 -
0:0:0:0:0:0:0:1 - - [01/Feb/2020:10:52:24 -0600] "POST /MandyHotel/faces/source/view/imagen.xhtml HTTP/1.1" 200 10017
0:0:0:0:0:0:0:1 - - [01/Feb/2020:10:52:29 -0600] "POST /MandyHotel/faces/source/view/imagen.xhtml HTTP/1.1" 200 10017
0:0:0:0:0:0:0:1 - - [01/Feb/2020:10:52:34 -0600] "POST /MandyHotel/faces/source/view/imagen.xhtml HTTP/1.1" 200 10017
0:0:0:0:0:0:0:1 - - [01/Feb/2020:10:52:39 -0600] "POST /MandyHotel/faces/source/view/imagen.xhtml HTTP/1.1" 200 10017
0:0:0:0:0:0:0:1 - - [01/Feb/2020:10:52:44 -0600] "POST /MandyHotel/faces/source/view/imagen.xhtml HTTP/1.1" 200 10017
0:0:0:0:0:0:0:1 - - [01/Feb/2020:10:52:49 -0600] "POST /MandyHotel/faces/source/view/imagen.xhtml HTTP/1.1" 200 10017
0:0:0:0:0:0:0:1 - - [01/Feb/2020:10:52:54 -0600] "POST /MandyHotel/faces/source/view/imagen.xhtml HTTP/1.1" 200 10017
0:0:0:0:0:0:0:1 - - [01/Feb/2020:10:52:59 -0600] "POST /MandyHotel/faces/source/view/imagen.xhtml HTTP/1.1" 200 10017
0:0:0:0:0:0:0:1 - - [01/Feb/2020:10:53:04 -0600] "POST /MandyHotel/faces/source/view/imagen.xhtml HTTP/1.1" 200 10017
0:0:0:0:0:0:0:1 - - [01/Feb/2020:10:53:09 -0600] "POST /MandyHotel/faces/source/view/imagen.xhtml HTTP/1.1" 200 10017
0:0:0:0:0:0:0:1 - - [01/Feb/2020:10:53:14 -0600] "POST /MandyHotel/faces/source/view/imagen.xhtml HTTP/1.1" 200 10017
0:0:0:0:0:0:0:1 - - [01/Feb/2020:10:53:19 -0600] "POST /MandyHotel/faces/source/view/imagen.xhtml HTTP/1.1" 200 10017
0:0:0:0:0:0:0:1 - - [01/Feb/2020:10:53:24 -0600] "POST /MandyHotel/faces/source/view/imagen.xhtml HTTP/1.1" 200 10017
0:0:0:0:0:0:0:1 - - [01/Feb/2020:10:53:29 -0600] "POST /MandyHotel/faces/source/view/imagen.xhtml HTTP/1.1" 200 10017
0:0:0:0:0:0:0:1 - - [01/Feb/2020:10:53:34 -0600] "POST /MandyHotel/faces/source/view/imagen.xhtml HTTP/1.1" 200 10017
0:0:0:0:0:0:0:1 - - [01/Feb/2020:10:53:39 -0600] "POST /MandyHotel/faces/source/view/imagen.xhtml HTTP/1.1" 200 10017
0:0:0:0:0:0:0:1 - - [01/Feb/2020:10:53:44 -0600] "POST /MandyHotel/faces/source/view/imagen.xhtml HTTP/1.1" 200 10017
0:0:0:0:0:0:0:1 - - [01/Feb/2020:10:53:49 -0600] "POST /MandyHotel/faces/source/view/imagen.xhtml HTTP/1.1" 200 10017
0:0:0:0:0:0:0:1 - - [01/Feb/2020:10:53:54 -0600] "POST /MandyHotel/faces/source/view/imagen.xhtml HTTP/1.1" 200 10017
0:0:0:0:0:0:0:1 - - [01/Feb/2020:10:53:59 -0600] "POST /MandyHotel/faces/source/view/imagen.xhtml HTTP/1.1" 200 10017
0:0:0:0:0:0:0:1 - - [01/Feb/2020:10:54:04 -0600] "POST /MandyHotel/faces/source/view/imagen.xhtml HTTP/1.1" 200 10017
0:0:0:0:0:0:0:1 - - [01/Feb/2020:10:54:09 -0600] "POST /MandyHotel/faces/source/view/imagen.xhtml HTTP/1.1" 200 10017
0:0:0:0:0:0:0:1 - - [01/Feb/2020:10:54:14 -0600] "POST /MandyHotel/faces/source/view/imagen.xhtml HTTP/1.1" 200 10017
0:0:0:0:0:0:0:1 - - [01/Feb/2020:10:54:19 -0600] "POST /MandyHotel/faces/source/view/imagen.xhtml HTTP/1.1" 200 10017
0:0:0:0:0:0:0:1 - - [01/Feb/2020:10:54:24 -0600] "POST /MandyHotel/faces/source/view/imagen.xhtml HTTP/1.1" 200 10017
0:0:0:0:0:0:0:1 - - [01/Feb/2020:10:54:29 -0600] "POST /MandyHotel/faces/source/view/imagen.xhtml HTTP/1.1" 200 10017
0:0:0:0:0:0:0:1 - - [01/Feb/2020:10:54:34 -0600] "POST /MandyHotel/faces/source/view/imagen.xhtml HTTP/1.1" 200 10017
0:0:0:0:0:0:0:1 - - [01/Feb/2020:10:54:39 -0600] "POST /MandyHotel/faces/source/view/imagen.xhtml HTTP/1.1" 200 10017
0:0:0:0:0:0:0:1 - - [01/Feb/2020:10:54:44 -0600] "POST /MandyHotel/faces/source/view/imagen.xhtml HTTP/1.1" 200 10017
0:0:0:0:0:0:0:1 - - [01/Feb/2020:10:54:49 -0600] "POST /MandyHotel/faces/source/view/imagen.xhtml HTTP/1.1" 200 10017
0:0:0:0:0:0:0:1 - - [01/Feb/2020:10:54:54 -0600] "POST /MandyHotel/faces/source/view/imagen.xhtml HTTP/1.1" 200 10017
0:0:0:0:0:0:0:1 - - [01/Feb/2020:10:54:59 -0600] "POST /MandyHotel/faces/source/view/imagen.xhtml HTTP/1.1" 200 10017
0:0:0:0:0:0:0:1 - - [01/Feb/2020:10:55:04 -0600] "POST /MandyHotel/faces/source/view/imagen.xhtml HTTP/1.1" 200 10017
0:0:0:0:0:0:0:1 - - [01/Feb/2020:10:55:09 -0600] "POST /MandyHotel/faces/source/view/imagen.xhtml HTTP/1.1" 200 10017
0:0:0:0:0:0:0:1 - - [01/Feb/2020:10:55:14 -0600] "POST /MandyHotel/faces/source/view/imagen.xhtml HTTP/1.1" 200 10017
0:0:0:0:0:0:0:1 - - [01/Feb/2020:10:55:19 -0600] "POST /MandyHotel/faces/source/view/imagen.xhtml HTTP/1.1" 200 10017
0:0:0:0:0:0:0:1 - - [01/Feb/2020:10:55:24 -0600] "POST /MandyHotel/faces/source/view/imagen.xhtml HTTP/1.1" 200 10017
0:0:0:0:0:0:0:1 - - [01/Feb/2020:10:55:29 -0600] "POST /MandyHotel/faces/source/view/imagen.xhtml HTTP/1.1" 200 10017
0:0:0:0:0:0:0:1 - - [01/Feb/2020:10:55:34 -0600] "POST /MandyHotel/faces/source/view/imagen.xhtml HTTP/1.1" 200 10017
0:0:0:0:0:0:0:1 - - [01/Feb/2020:10:55:39 -0600] "POST /MandyHotel/faces/source/view/imagen.xhtml HTTP/1.1" 200 10017
0:0:0:0:0:0:0:1 - - [01/Feb/2020:10:55:44 -0600] "POST /MandyHotel/faces/source/view/imagen.xhtml HTTP/1.1" 200 10017
0:0:0:0:0:0:0:1 - - [01/Feb/2020:10:55:49 -0600] "POST /MandyHotel/faces/source/view/imagen.xhtml HTTP/1.1" 200 10017
0:0:0:0:0:0:0:1 - - [01/Feb/2020:10:55:54 -0600] "POST /MandyHotel/faces/source/view/imagen.xhtml HTTP/1.1" 200 10017
0:0:0:0:0:0:0:1 - - [01/Feb/2020:10:55:59 -0600] "POST /MandyHotel/faces/source/view/imagen.xhtml HTTP/1.1" 200 10017
0:0:0:0:0:0:0:1 - - [01/Feb/2020:10:56:04 -0600] "POST /MandyHotel/faces/source/view/imagen.xhtml HTTP/1.1" 200 10017
0:0:0:0:0:0:0:1 - - [01/Feb/2020:10:56:09 -0600] "POST /MandyHotel/faces/source/view/imagen.xhtml HTTP/1.1" 200 10017
0:0:0:0:0:0:0:1 - - [01/Feb/2020:10:56:14 -0600] "POST /MandyHotel/faces/source/view/imagen.xhtml HTTP/1.1" 200 10017
0:0:0:0:0:0:0:1 - - [01/Feb/2020:10:56:19 -0600] "POST /MandyHotel/faces/source/view/imagen.xhtml HTTP/1.1" 200 10017
0:0:0:0:0:0:0:1 - - [01/Feb/2020:10:56:24 -0600] "POST /MandyHotel/faces/source/view/imagen.xhtml HTTP/1.1" 200 10017
0:0:0:0:0:0:0:1 - - [01/Feb/2020:10:56:29 -0600] "POST /MandyHotel/faces/source/view/imagen.xhtml HTTP/1.1" 200 10017
0:0:0:0:0:0:0:1 - - [01/Feb/2020:10:56:34 -0600] "POST /MandyHotel/faces/source/view/imagen.xhtml HTTP/1.1" 200 10017
0:0:0:0:0:0:0:1 - - [01/Feb/2020:10:56:39 -0600] "POST /MandyHotel/faces/source/view/imagen.xhtml HTTP/1.1" 200 10017
0:0:0:0:0:0:0:1 - - [01/Feb/2020:10:56:44 -0600] "POST /MandyHotel/faces/source/view/imagen.xhtml HTTP/1.1" 200 10017
0:0:0:0:0:0:0:1 - - [01/Feb/2020:10:56:49 -0600] "POST /MandyHotel/faces/source/view/imagen.xhtml HTTP/1.1" 200 10017
0:0:0:0:0:0:0:1 - - [01/Feb/2020:10:56:54 -0600] "POST /MandyHotel/faces/source/view/imagen.xhtml HTTP/1.1" 200 10017
0:0:0:0:0:0:0:1 - - [01/Feb/2020:10:56:59 -0600] "POST /MandyHotel/faces/source/view/imagen.xhtml HTTP/1.1" 200 10017
0:0:0:0:0:0:0:1 - - [01/Feb/2020:10:57:04 -0600] "POST /MandyHotel/faces/source/view/imagen.xhtml HTTP/1.1" 200 10017
0:0:0:0:0:0:0:1 - - [01/Feb/2020:10:57:09 -0600] "POST /MandyHotel/faces/source/view/imagen.xhtml HTTP/1.1" 200 10017
0:0:0:0:0:0:0:1 - - [01/Feb/2020:10:57:14 -0600] "POST /MandyHotel/faces/source/view/imagen.xhtml HTTP/1.1" 200 10017
0:0:0:0:0:0:0:1 - - [01/Feb/2020:10:57:19 -0600] "POST /MandyHotel/faces/source/view/imagen.xhtml HTTP/1.1" 200 10017
0:0:0:0:0:0:0:1 - - [01/Feb/2020:10:57:24 -0600] "POST /MandyHotel/faces/source/view/imagen.xhtml HTTP/1.1" 200 10017
0:0:0:0:0:0:0:1 - - [01/Feb/2020:10:57:29 -0600] "POST /MandyHotel/faces/source/view/imagen.xhtml HTTP/1.1" 200 10017
0:0:0:0:0:0:0:1 - - [01/Feb/2020:10:57:34 -0600] "POST /MandyHotel/faces/source/view/imagen.xhtml HTTP/1.1" 200 10017
0:0:0:0:0:0:0:1 - - [01/Feb/2020:10:57:39 -0600] "POST /MandyHotel/faces/source/view/imagen.xhtml HTTP/1.1" 200 10017
0:0:0:0:0:0:0:1 - - [01/Feb/2020:10:57:44 -0600] "POST /MandyHotel/faces/source/view/imagen.xhtml HTTP/1.1" 200 10017
0:0:0:0:0:0:0:1 - - [01/Feb/2020:10:57:49 -0600] "POST /MandyHotel/faces/source/view/imagen.xhtml HTTP/1.1" 200 10017
0:0:0:0:0:0:0:1 - - [01/Feb/2020:10:57:54 -0600] "POST /MandyHotel/faces/source/view/imagen.xhtml HTTP/1.1" 200 10017
0:0:0:0:0:0:0:1 - - [01/Feb/2020:10:57:59 -0600] "POST /MandyHotel/faces/source/view/imagen.xhtml HTTP/1.1" 200 10017
0:0:0:0:0:0:0:1 - - [01/Feb/2020:10:58:04 -0600] "POST /MandyHotel/faces/source/view/imagen.xhtml HTTP/1.1" 200 10017
0:0:0:0:0:0:0:1 - - [01/Feb/2020:10:58:09 -0600] "POST /MandyHotel/faces/source/view/imagen.xhtml HTTP/1.1" 200 10017
0:0:0:0:0:0:0:1 - - [01/Feb/2020:10:58:14 -0600] "POST /MandyHotel/faces/source/view/imagen.xhtml HTTP/1.1" 200 10017
0:0:0:0:0:0:0:1 - - [01/Feb/2020:10:58:19 -0600] "POST /MandyHotel/faces/source/view/imagen.xhtml HTTP/1.1" 200 10017
0:0:0:0:0:0:0:1 - - [01/Feb/2020:10:58:24 -0600] "POST /MandyHotel/faces/source/view/imagen.xhtml HTTP/1.1" 200 10017
0:0:0:0:0:0:0:1 - - [01/Feb/2020:10:58:29 -0600] "POST /MandyHotel/faces/source/view/imagen.xhtml HTTP/1.1" 200 10017
0:0:0:0:0:0:0:1 - - [01/Feb/2020:10:58:34 -0600] "POST /MandyHotel/faces/source/view/imagen.xhtml HTTP/1.1" 200 10017
0:0:0:0:0:0:0:1 - - [01/Feb/2020:10:58:39 -0600] "POST /MandyHotel/faces/source/view/imagen.xhtml HTTP/1.1" 200 10017
0:0:0:0:0:0:0:1 - - [01/Feb/2020:10:58:44 -0600] "POST /MandyHotel/faces/source/view/imagen.xhtml HTTP/1.1" 200 10017
0:0:0:0:0:0:0:1 - - [01/Feb/2020:10:58:49 -0600] "POST /MandyHotel/faces/source/view/imagen.xhtml HTTP/1.1" 200 10017
0:0:0:0:0:0:0:1 - - [01/Feb/2020:10:58:54 -0600] "POST /MandyHotel/faces/source/view/imagen.xhtml HTTP/1.1" 200 10017
0:0:0:0:0:0:0:1 - - [01/Feb/2020:10:58:59 -0600] "POST /MandyHotel/faces/source/view/imagen.xhtml HTTP/1.1" 200 10017
0:0:0:0:0:0:0:1 - - [01/Feb/2020:10:59:04 -0600] "POST /MandyHotel/faces/source/view/imagen.xhtml HTTP/1.1" 200 10017
0:0:0:0:0:0:0:1 - - [01/Feb/2020:10:59:09 -0600] "POST /MandyHotel/faces/source/view/imagen.xhtml HTTP/1.1" 200 10017
0:0:0:0:0:0:0:1 - - [01/Feb/2020:10:59:14 -0600] "POST /MandyHotel/faces/source/view/imagen.xhtml HTTP/1.1" 200 10017
0:0:0:0:0:0:0:1 - - [01/Feb/2020:10:59:19 -0600] "POST /MandyHotel/faces/source/view/imagen.xhtml HTTP/1.1" 200 10017
0:0:0:0:0:0:0:1 - - [01/Feb/2020:10:59:24 -0600] "POST /MandyHotel/faces/source/view/imagen.xhtml HTTP/1.1" 200 10017
0:0:0:0:0:0:0:1 - - [01/Feb/2020:10:59:29 -0600] "POST /MandyHotel/faces/source/view/imagen.xhtml HTTP/1.1" 200 10017
0:0:0:0:0:0:0:1 - - [01/Feb/2020:10:59:34 -0600] "POST /MandyHotel/faces/source/view/imagen.xhtml HTTP/1.1" 200 10017
0:0:0:0:0:0:0:1 - - [01/Feb/2020:10:59:39 -0600] "POST /MandyHotel/faces/source/view/imagen.xhtml HTTP/1.1" 200 10017
0:0:0:0:0:0:0:1 - - [01/Feb/2020:10:59:44 -0600] "POST /MandyHotel/faces/source/view/imagen.xhtml HTTP/1.1" 200 10017
0:0:0:0:0:0:0:1 - - [01/Feb/2020:10:59:49 -0600] "POST /MandyHotel/faces/source/view/imagen.xhtml HTTP/1.1" 200 10017
0:0:0:0:0:0:0:1 - - [01/Feb/2020:10:59:54 -0600] "POST /MandyHotel/faces/source/view/imagen.xhtml HTTP/1.1" 200 10017
0:0:0:0:0:0:0:1 - - [01/Feb/2020:10:59:59 -0600] "POST /MandyHotel/faces/source/view/imagen.xhtml HTTP/1.1" 200 10017
0:0:0:0:0:0:0:1 - - [01/Feb/2020:11:00:04 -0600] "POST /MandyHotel/faces/source/view/imagen.xhtml HTTP/1.1" 200 10017
0:0:0:0:0:0:0:1 - - [01/Feb/2020:11:00:09 -0600] "POST /MandyHotel/faces/source/view/imagen.xhtml HTTP/1.1" 200 10017
0:0:0:0:0:0:0:1 - - [01/Feb/2020:11:00:14 -0600] "POST /MandyHotel/faces/source/view/imagen.xhtml HTTP/1.1" 200 10017
0:0:0:0:0:0:0:1 - - [01/Feb/2020:11:00:19 -0600] "POST /MandyHotel/faces/source/view/imagen.xhtml HTTP/1.1" 200 10017
0:0:0:0:0:0:0:1 - - [01/Feb/2020:11:00:24 -0600] "POST /MandyHotel/faces/source/view/imagen.xhtml HTTP/1.1" 200 10017
0:0:0:0:0:0:0:1 - - [01/Feb/2020:11:00:29 -0600] "POST /MandyHotel/faces/source/view/imagen.xhtml HTTP/1.1" 200 10017
0:0:0:0:0:0:0:1 - - [01/Feb/2020:11:00:34 -0600] "POST /MandyHotel/faces/source/view/imagen.xhtml HTTP/1.1" 200 10017
0:0:0:0:0:0:0:1 - - [01/Feb/2020:11:00:39 -0600] "POST /MandyHotel/faces/source/view/imagen.xhtml HTTP/1.1" 200 10017
0:0:0:0:0:0:0:1 - - [01/Feb/2020:11:00:44 -0600] "POST /MandyHotel/faces/source/view/imagen.xhtml HTTP/1.1" 200 10017
0:0:0:0:0:0:0:1 - - [01/Feb/2020:11:00:49 -0600] "POST /MandyHotel/faces/source/view/imagen.xhtml HTTP/1.1" 200 10017
0:0:0:0:0:0:0:1 - - [01/Feb/2020:11:00:54 -0600] "POST /MandyHotel/faces/source/view/imagen.xhtml HTTP/1.1" 200 10017
0:0:0:0:0:0:0:1 - - [01/Feb/2020:11:00:59 -0600] "POST /MandyHotel/faces/source/view/imagen.xhtml HTTP/1.1" 200 10017
0:0:0:0:0:0:0:1 - - [01/Feb/2020:11:01:04 -0600] "POST /MandyHotel/faces/source/view/imagen.xhtml HTTP/1.1" 200 10017
0:0:0:0:0:0:0:1 - - [01/Feb/2020:11:01:09 -0600] "POST /MandyHotel/faces/source/view/imagen.xhtml HTTP/1.1" 200 10017
0:0:0:0:0:0:0:1 - - [01/Feb/2020:11:01:14 -0600] "POST /MandyHotel/faces/source/view/imagen.xhtml HTTP/1.1" 200 10017
0:0:0:0:0:0:0:1 - - [01/Feb/2020:11:01:19 -0600] "POST /MandyHotel/faces/source/view/imagen.xhtml HTTP/1.1" 200 10017
0:0:0:0:0:0:0:1 - - [01/Feb/2020:11:01:24 -0600] "POST /MandyHotel/faces/source/view/imagen.xhtml HTTP/1.1" 200 10017
0:0:0:0:0:0:0:1 - - [01/Feb/2020:11:01:29 -0600] "POST /MandyHotel/faces/source/view/imagen.xhtml HTTP/1.1" 200 10017
0:0:0:0:0:0:0:1 - - [01/Feb/2020:11:01:34 -0600] "POST /MandyHotel/faces/source/view/imagen.xhtml HTTP/1.1" 200 10017
0:0:0:0:0:0:0:1 - - [01/Feb/2020:11:01:39 -0600] "POST /MandyHotel/faces/source/view/imagen.xhtml HTTP/1.1" 200 10017
0:0:0:0:0:0:0:1 - - [01/Feb/2020:11:01:44 -0600] "POST /MandyHotel/faces/source/view/imagen.xhtml HTTP/1.1" 200 10017
0:0:0:0:0:0:0:1 - - [01/Feb/2020:11:01:49 -0600] "POST /MandyHotel/faces/source/view/imagen.xhtml HTTP/1.1" 200 10017
0:0:0:0:0:0:0:1 - - [01/Feb/2020:11:01:54 -0600] "POST /MandyHotel/faces/source/view/imagen.xhtml HTTP/1.1" 200 10017
0:0:0:0:0:0:0:1 - - [01/Feb/2020:11:01:59 -0600] "POST /MandyHotel/faces/source/view/imagen.xhtml HTTP/1.1" 200 10017
0:0:0:0:0:0:0:1 - - [01/Feb/2020:11:02:04 -0600] "POST /MandyHotel/faces/source/view/imagen.xhtml HTTP/1.1" 200 10017
0:0:0:0:0:0:0:1 - - [01/Feb/2020:11:02:09 -0600] "POST /MandyHotel/faces/source/view/imagen.xhtml HTTP/1.1" 200 10017
0:0:0:0:0:0:0:1 - - [01/Feb/2020:11:02:14 -0600] "POST /MandyHotel/faces/source/view/imagen.xhtml HTTP/1.1" 200 10017
0:0:0:0:0:0:0:1 - - [01/Feb/2020:11:02:19 -0600] "POST /MandyHotel/faces/source/view/imagen.xhtml HTTP/1.1" 200 10017
0:0:0:0:0:0:0:1 - - [01/Feb/2020:11:02:24 -0600] "POST /MandyHotel/faces/source/view/imagen.xhtml HTTP/1.1" 200 10017
0:0:0:0:0:0:0:1 - - [01/Feb/2020:11:02:29 -0600] "POST /MandyHotel/faces/source/view/imagen.xhtml HTTP/1.1" 200 10017
0:0:0:0:0:0:0:1 - - [01/Feb/2020:11:02:34 -0600] "POST /MandyHotel/faces/source/view/imagen.xhtml HTTP/1.1" 200 10017
0:0:0:0:0:0:0:1 - - [01/Feb/2020:11:02:39 -0600] "POST /MandyHotel/faces/source/view/imagen.xhtml HTTP/1.1" 200 10017
0:0:0:0:0:0:0:1 - - [01/Feb/2020:11:02:44 -0600] "POST /MandyHotel/faces/source/view/imagen.xhtml HTTP/1.1" 200 10017
0:0:0:0:0:0:0:1 - - [01/Feb/2020:11:02:49 -0600] "POST /MandyHotel/faces/source/view/imagen.xhtml HTTP/1.1" 200 10017
0:0:0:0:0:0:0:1 - - [01/Feb/2020:11:02:54 -0600] "POST /MandyHotel/faces/source/view/imagen.xhtml HTTP/1.1" 200 10017
0:0:0:0:0:0:0:1 - - [01/Feb/2020:11:02:59 -0600] "POST /MandyHotel/faces/source/view/imagen.xhtml HTTP/1.1" 200 10017
0:0:0:0:0:0:0:1 - - [01/Feb/2020:11:03:04 -0600] "POST /MandyHotel/faces/source/view/imagen.xhtml HTTP/1.1" 200 10017
0:0:0:0:0:0:0:1 - - [01/Feb/2020:11:03:09 -0600] "POST /MandyHotel/faces/source/view/imagen.xhtml HTTP/1.1" 200 10017
0:0:0:0:0:0:0:1 - - [01/Feb/2020:11:03:14 -0600] "POST /MandyHotel/faces/source/view/imagen.xhtml HTTP/1.1" 200 10017
0:0:0:0:0:0:0:1 - - [01/Feb/2020:11:03:19 -0600] "POST /MandyHotel/faces/source/view/imagen.xhtml HTTP/1.1" 200 10017
0:0:0:0:0:0:0:1 - - [01/Feb/2020:11:03:24 -0600] "POST /MandyHotel/faces/source/view/imagen.xhtml HTTP/1.1" 200 10017
0:0:0:0:0:0:0:1 - - [01/Feb/2020:11:03:29 -0600] "POST /MandyHotel/faces/source/view/imagen.xhtml HTTP/1.1" 200 10017
0:0:0:0:0:0:0:1 - - [01/Feb/2020:11:03:34 -0600] "POST /MandyHotel/faces/source/view/imagen.xhtml HTTP/1.1" 200 10017
0:0:0:0:0:0:0:1 - - [01/Feb/2020:11:03:39 -0600] "POST /MandyHotel/faces/source/view/imagen.xhtml HTTP/1.1" 200 10017
0:0:0:0:0:0:0:1 - - [01/Feb/2020:11:03:44 -0600] "POST /MandyHotel/faces/source/view/imagen.xhtml HTTP/1.1" 200 10017
0:0:0:0:0:0:0:1 - - [01/Feb/2020:11:03:49 -0600] "POST /MandyHotel/faces/source/view/imagen.xhtml HTTP/1.1" 200 10017
0:0:0:0:0:0:0:1 - - [01/Feb/2020:11:03:54 -0600] "POST /MandyHotel/faces/source/view/imagen.xhtml HTTP/1.1" 200 10017
0:0:0:0:0:0:0:1 - - [01/Feb/2020:11:03:59 -0600] "POST /MandyHotel/faces/source/view/imagen.xhtml HTTP/1.1" 200 10017
0:0:0:0:0:0:0:1 - - [01/Feb/2020:11:04:04 -0600] "POST /MandyHotel/faces/source/view/imagen.xhtml HTTP/1.1" 200 10017
0:0:0:0:0:0:0:1 - - [01/Feb/2020:11:04:09 -0600] "POST /MandyHotel/faces/source/view/imagen.xhtml HTTP/1.1" 200 10017
0:0:0:0:0:0:0:1 - - [01/Feb/2020:11:04:14 -0600] "POST /MandyHotel/faces/source/view/imagen.xhtml HTTP/1.1" 200 10017
0:0:0:0:0:0:0:1 - - [01/Feb/2020:11:04:19 -0600] "POST /MandyHotel/faces/source/view/imagen.xhtml HTTP/1.1" 200 10017
0:0:0:0:0:0:0:1 - - [01/Feb/2020:11:04:24 -0600] "POST /MandyHotel/faces/source/view/imagen.xhtml HTTP/1.1" 200 10017
0:0:0:0:0:0:0:1 - - [01/Feb/2020:11:04:29 -0600] "POST /MandyHotel/faces/source/view/imagen.xhtml HTTP/1.1" 200 10017
0:0:0:0:0:0:0:1 - - [01/Feb/2020:11:04:34 -0600] "POST /MandyHotel/faces/source/view/imagen.xhtml HTTP/1.1" 200 9826
0:0:0:0:0:0:0:1 - - [01/Feb/2020:11:04:39 -0600] "POST /MandyHotel/faces/source/view/imagen.xhtml HTTP/1.1" 200 8955
0:0:0:0:0:0:0:1 - - [01/Feb/2020:11:04:44 -0600] "POST /MandyHotel/faces/source/view/imagen.xhtml HTTP/1.1" 200 8955
0:0:0:0:0:0:0:1 - - [01/Feb/2020:11:04:49 -0600] "POST /MandyHotel/faces/source/view/imagen.xhtml HTTP/1.1" 200 8955
0:0:0:0:0:0:0:1 - - [01/Feb/2020:11:04:54 -0600] "POST /MandyHotel/faces/source/view/imagen.xhtml HTTP/1.1" 200 8955
0:0:0:0:0:0:0:1 - - [01/Feb/2020:11:04:59 -0600] "POST /MandyHotel/faces/source/view/imagen.xhtml HTTP/1.1" 200 8955
0:0:0:0:0:0:0:1 - - [01/Feb/2020:11:05:04 -0600] "POST /MandyHotel/faces/source/view/imagen.xhtml HTTP/1.1" 200 8955
0:0:0:0:0:0:0:1 - - [01/Feb/2020:11:05:09 -0600] "POST /MandyHotel/faces/source/view/imagen.xhtml HTTP/1.1" 200 8955
0:0:0:0:0:0:0:1 - - [01/Feb/2020:11:05:14 -0600] "POST /MandyHotel/faces/source/view/imagen.xhtml HTTP/1.1" 200 8955
0:0:0:0:0:0:0:1 - - [01/Feb/2020:11:05:19 -0600] "POST /MandyHotel/faces/source/view/imagen.xhtml HTTP/1.1" 200 8955
0:0:0:0:0:0:0:1 - - [01/Feb/2020:11:05:25 -0600] "POST /MandyHotel/faces/source/view/imagen.xhtml HTTP/1.1" 200 8955
0:0:0:0:0:0:0:1 - - [01/Feb/2020:11:05:30 -0600] "POST /MandyHotel/faces/source/view/imagen.xhtml HTTP/1.1" 200 8955
0:0:0:0:0:0:0:1 - - [01/Feb/2020:11:05:34 -0600] "POST /MandyHotel/faces/source/view/imagen.xhtml HTTP/1.1" 200 8955
0:0:0:0:0:0:0:1 - - [01/Feb/2020:11:05:40 -0600] "POST /MandyHotel/faces/source/view/imagen.xhtml HTTP/1.1" 200 8955
0:0:0:0:0:0:0:1 - - [01/Feb/2020:11:05:45 -0600] "POST /MandyHotel/faces/source/view/imagen.xhtml HTTP/1.1" 200 8955
0:0:0:0:0:0:0:1 - - [01/Feb/2020:11:05:50 -0600] "POST /MandyHotel/faces/source/view/imagen.xhtml HTTP/1.1" 200 8955
0:0:0:0:0:0:0:1 - - [01/Feb/2020:11:05:55 -0600] "POST /MandyHotel/faces/source/view/imagen.xhtml HTTP/1.1" 200 8955
0:0:0:0:0:0:0:1 - - [01/Feb/2020:11:06:00 -0600] "POST /MandyHotel/faces/source/view/imagen.xhtml HTTP/1.1" 200 8955
0:0:0:0:0:0:0:1 - - [01/Feb/2020:11:06:05 -0600] "POST /MandyHotel/faces/source/view/imagen.xhtml HTTP/1.1" 200 8955
0:0:0:0:0:0:0:1 - - [01/Feb/2020:11:06:10 -0600] "POST /MandyHotel/faces/source/view/imagen.xhtml HTTP/1.1" 200 8955
0:0:0:0:0:0:0:1 - - [01/Feb/2020:11:06:15 -0600] "POST /MandyHotel/faces/source/view/imagen.xhtml HTTP/1.1" 200 8955
0:0:0:0:0:0:0:1 - - [01/Feb/2020:11:06:20 -0600] "POST /MandyHotel/faces/source/view/imagen.xhtml HTTP/1.1" 200 8955
0:0:0:0:0:0:0:1 - - [01/Feb/2020:11:06:25 -0600] "POST /MandyHotel/faces/source/view/imagen.xhtml HTTP/1.1" 200 8955
0:0:0:0:0:0:0:1 - - [01/Feb/2020:11:06:30 -0600] "POST /MandyHotel/faces/source/view/imagen.xhtml HTTP/1.1" 200 8955
0:0:0:0:0:0:0:1 - - [01/Feb/2020:11:06:35 -0600] "POST /MandyHotel/faces/source/view/imagen.xhtml HTTP/1.1" 200 8955
0:0:0:0:0:0:0:1 - - [01/Feb/2020:11:06:40 -0600] "POST /MandyHotel/faces/source/view/imagen.xhtml HTTP/1.1" 200 8955
0:0:0:0:0:0:0:1 - - [01/Feb/2020:11:06:45 -0600] "POST /MandyHotel/faces/source/view/imagen.xhtml HTTP/1.1" 200 8955
0:0:0:0:0:0:0:1 - - [01/Feb/2020:11:06:50 -0600] "POST /MandyHotel/faces/source/view/imagen.xhtml HTTP/1.1" 200 8955
0:0:0:0:0:0:0:1 - - [01/Feb/2020:11:06:55 -0600] "POST /MandyHotel/faces/source/view/imagen.xhtml HTTP/1.1" 200 8955
0:0:0:0:0:0:0:1 - - [01/Feb/2020:11:07:00 -0600] "POST /MandyHotel/faces/source/view/imagen.xhtml HTTP/1.1" 200 8955
0:0:0:0:0:0:0:1 - - [01/Feb/2020:11:07:05 -0600] "POST /MandyHotel/faces/source/view/imagen.xhtml HTTP/1.1" 200 8955
0:0:0:0:0:0:0:1 - - [01/Feb/2020:11:07:10 -0600] "POST /MandyHotel/faces/source/view/imagen.xhtml HTTP/1.1" 200 8955
0:0:0:0:0:0:0:1 - - [01/Feb/2020:11:07:15 -0600] "POST /MandyHotel/faces/source/view/imagen.xhtml HTTP/1.1" 200 8955
0:0:0:0:0:0:0:1 - - [01/Feb/2020:11:07:20 -0600] "POST /MandyHotel/faces/source/view/imagen.xhtml HTTP/1.1" 200 8955
0:0:0:0:0:0:0:1 - - [01/Feb/2020:11:07:25 -0600] "POST /MandyHotel/faces/source/view/imagen.xhtml HTTP/1.1" 200 8955
0:0:0:0:0:0:0:1 - - [01/Feb/2020:11:07:30 -0600] "POST /MandyHotel/faces/source/view/imagen.xhtml HTTP/1.1" 200 8955
0:0:0:0:0:0:0:1 - - [01/Feb/2020:11:07:35 -0600] "POST /MandyHotel/faces/source/view/imagen.xhtml HTTP/1.1" 200 8955
0:0:0:0:0:0:0:1 - - [01/Feb/2020:11:07:40 -0600] "POST /MandyHotel/faces/source/view/imagen.xhtml HTTP/1.1" 200 8955
0:0:0:0:0:0:0:1 - - [01/Feb/2020:11:07:45 -0600] "POST /MandyHotel/faces/source/view/imagen.xhtml HTTP/1.1" 200 8955
0:0:0:0:0:0:0:1 - - [01/Feb/2020:11:07:50 -0600] "POST /MandyHotel/faces/source/view/imagen.xhtml HTTP/1.1" 200 8955
0:0:0:0:0:0:0:1 - - [01/Feb/2020:11:07:55 -0600] "POST /MandyHotel/faces/source/view/imagen.xhtml HTTP/1.1" 200 8955
0:0:0:0:0:0:0:1 - - [01/Feb/2020:11:08:00 -0600] "POST /MandyHotel/faces/source/view/imagen.xhtml HTTP/1.1" 200 8955
0:0:0:0:0:0:0:1 - - [01/Feb/2020:11:08:05 -0600] "POST /MandyHotel/faces/source/view/imagen.xhtml HTTP/1.1" 200 8955
0:0:0:0:0:0:0:1 - - [01/Feb/2020:11:08:10 -0600] "POST /MandyHotel/faces/source/view/imagen.xhtml HTTP/1.1" 200 8955
0:0:0:0:0:0:0:1 - - [01/Feb/2020:11:08:15 -0600] "POST /MandyHotel/faces/source/view/imagen.xhtml HTTP/1.1" 200 8955
0:0:0:0:0:0:0:1 - - [01/Feb/2020:11:08:20 -0600] "POST /MandyHotel/faces/source/view/imagen.xhtml HTTP/1.1" 200 8955
0:0:0:0:0:0:0:1 - - [01/Feb/2020:11:08:25 -0600] "POST /MandyHotel/faces/source/view/imagen.xhtml HTTP/1.1" 200 8955
0:0:0:0:0:0:0:1 - - [01/Feb/2020:11:08:30 -0600] "POST /MandyHotel/faces/source/view/imagen.xhtml HTTP/1.1" 200 8955
0:0:0:0:0:0:0:1 - - [01/Feb/2020:11:08:35 -0600] "POST /MandyHotel/faces/source/view/imagen.xhtml HTTP/1.1" 200 8955
0:0:0:0:0:0:0:1 - - [01/Feb/2020:11:08:40 -0600] "POST /MandyHotel/faces/source/view/imagen.xhtml HTTP/1.1" 200 8955
0:0:0:0:0:0:0:1 - - [01/Feb/2020:11:08:45 -0600] "POST /MandyHotel/faces/source/view/imagen.xhtml HTTP/1.1" 200 8955
0:0:0:0:0:0:0:1 - - [01/Feb/2020:11:08:50 -0600] "POST /MandyHotel/faces/source/view/imagen.xhtml HTTP/1.1" 200 8955
0:0:0:0:0:0:0:1 - - [01/Feb/2020:11:08:55 -0600] "POST /MandyHotel/faces/source/view/imagen.xhtml HTTP/1.1" 200 8955
0:0:0:0:0:0:0:1 - - [01/Feb/2020:11:09:00 -0600] "POST /MandyHotel/faces/source/view/imagen.xhtml HTTP/1.1" 200 7723
0:0:0:0:0:0:0:1 - - [01/Feb/2020:11:09:05 -0600] "POST /MandyHotel/faces/source/view/imagen.xhtml HTTP/1.1" 200 7723
0:0:0:0:0:0:0:1 - - [01/Feb/2020:11:09:10 -0600] "POST /MandyHotel/faces/source/view/imagen.xhtml HTTP/1.1" 200 7723
0:0:0:0:0:0:0:1 - - [01/Feb/2020:11:09:15 -0600] "POST /MandyHotel/faces/source/view/imagen.xhtml HTTP/1.1" 200 7723
0:0:0:0:0:0:0:1 - - [01/Feb/2020:11:09:20 -0600] "POST /MandyHotel/faces/source/view/imagen.xhtml HTTP/1.1" 200 7723
0:0:0:0:0:0:0:1 - - [01/Feb/2020:11:09:25 -0600] "POST /MandyHotel/faces/source/view/imagen.xhtml HTTP/1.1" 200 7723
0:0:0:0:0:0:0:1 - - [01/Feb/2020:11:09:30 -0600] "POST /MandyHotel/faces/source/view/imagen.xhtml HTTP/1.1" 200 7723
0:0:0:0:0:0:0:1 - - [01/Feb/2020:11:09:35 -0600] "POST /MandyHotel/faces/source/view/imagen.xhtml HTTP/1.1" 200 7723
0:0:0:0:0:0:0:1 - - [01/Feb/2020:11:09:40 -0600] "POST /MandyHotel/faces/source/view/imagen.xhtml HTTP/1.1" 200 7723
0:0:0:0:0:0:0:1 - - [01/Feb/2020:11:09:45 -0600] "POST /MandyHotel/faces/source/view/imagen.xhtml HTTP/1.1" 200 7723
0:0:0:0:0:0:0:1 - - [01/Feb/2020:11:09:50 -0600] "POST /MandyHotel/faces/source/view/imagen.xhtml HTTP/1.1" 200 7723
0:0:0:0:0:0:0:1 - - [01/Feb/2020:11:09:55 -0600] "POST /MandyHotel/faces/source/view/imagen.xhtml HTTP/1.1" 200 7723
0:0:0:0:0:0:0:1 - - [01/Feb/2020:11:10:00 -0600] "POST /MandyHotel/faces/source/view/imagen.xhtml HTTP/1.1" 200 7723
0:0:0:0:0:0:0:1 - - [01/Feb/2020:11:10:05 -0600] "POST /MandyHotel/faces/source/view/imagen.xhtml HTTP/1.1" 200 7723
0:0:0:0:0:0:0:1 - - [01/Feb/2020:11:10:10 -0600] "POST /MandyHotel/faces/source/view/imagen.xhtml HTTP/1.1" 200 7723
0:0:0:0:0:0:0:1 - - [01/Feb/2020:11:10:15 -0600] "POST /MandyHotel/faces/source/view/imagen.xhtml HTTP/1.1" 200 7723
0:0:0:0:0:0:0:1 - - [01/Feb/2020:11:10:20 -0600] "POST /MandyHotel/faces/source/view/imagen.xhtml HTTP/1.1" 200 7723
0:0:0:0:0:0:0:1 - - [01/Feb/2020:11:10:25 -0600] "POST /MandyHotel/faces/source/view/imagen.xhtml HTTP/1.1" 200 7723
0:0:0:0:0:0:0:1 - - [01/Feb/2020:11:10:30 -0600] "POST /MandyHotel/faces/source/view/imagen.xhtml HTTP/1.1" 200 7723
0:0:0:0:0:0:0:1 - - [01/Feb/2020:11:10:35 -0600] "POST /MandyHotel/faces/source/view/imagen.xhtml HTTP/1.1" 200 7723
0:0:0:0:0:0:0:1 - - [01/Feb/2020:11:10:40 -0600] "POST /MandyHotel/faces/source/view/imagen.xhtml HTTP/1.1" 200 7723
0:0:0:0:0:0:0:1 - - [01/Feb/2020:11:10:45 -0600] "POST /MandyHotel/faces/source/view/imagen.xhtml HTTP/1.1" 200 7723
0:0:0:0:0:0:0:1 - - [01/Feb/2020:11:10:50 -0600] "POST /MandyHotel/faces/source/view/imagen.xhtml HTTP/1.1" 200 7723
0:0:0:0:0:0:0:1 - - [01/Feb/2020:11:10:55 -0600] "POST /MandyHotel/faces/source/view/imagen.xhtml HTTP/1.1" 200 7723
0:0:0:0:0:0:0:1 - - [01/Feb/2020:11:11:00 -0600] "POST /MandyHotel/faces/source/view/imagen.xhtml HTTP/1.1" 200 7723
0:0:0:0:0:0:0:1 - - [01/Feb/2020:11:11:05 -0600] "POST /MandyHotel/faces/source/view/imagen.xhtml HTTP/1.1" 200 7723
0:0:0:0:0:0:0:1 - - [01/Feb/2020:11:11:10 -0600] "POST /MandyHotel/faces/source/view/imagen.xhtml HTTP/1.1" 200 7723
0:0:0:0:0:0:0:1 - - [01/Feb/2020:11:11:15 -0600] "POST /MandyHotel/faces/source/view/imagen.xhtml HTTP/1.1" 200 7723
0:0:0:0:0:0:0:1 - - [01/Feb/2020:11:11:20 -0600] "POST /MandyHotel/faces/source/view/imagen.xhtml HTTP/1.1" 200 7723
0:0:0:0:0:0:0:1 - - [01/Feb/2020:11:11:25 -0600] "POST /MandyHotel/faces/source/view/imagen.xhtml HTTP/1.1" 200 7723
0:0:0:0:0:0:0:1 - - [01/Feb/2020:11:11:30 -0600] "POST /MandyHotel/faces/source/view/imagen.xhtml HTTP/1.1" 200 7723
0:0:0:0:0:0:0:1 - - [01/Feb/2020:11:11:35 -0600] "POST /MandyHotel/faces/source/view/imagen.xhtml HTTP/1.1" 200 7723
0:0:0:0:0:0:0:1 - - [01/Feb/2020:11:11:40 -0600] "POST /MandyHotel/faces/source/view/imagen.xhtml HTTP/1.1" 200 7723
0:0:0:0:0:0:0:1 - - [01/Feb/2020:11:11:45 -0600] "POST /MandyHotel/faces/source/view/imagen.xhtml HTTP/1.1" 200 7723
0:0:0:0:0:0:0:1 - - [01/Feb/2020:11:11:50 -0600] "POST /MandyHotel/faces/source/view/imagen.xhtml HTTP/1.1" 200 7723
0:0:0:0:0:0:0:1 - - [01/Feb/2020:11:11:55 -0600] "POST /MandyHotel/faces/source/view/imagen.xhtml HTTP/1.1" 200 7723
0:0:0:0:0:0:0:1 - - [01/Feb/2020:11:12:00 -0600] "POST /MandyHotel/faces/source/view/imagen.xhtml HTTP/1.1" 200 7723
0:0:0:0:0:0:0:1 - - [01/Feb/2020:11:12:05 -0600] "POST /MandyHotel/faces/source/view/imagen.xhtml HTTP/1.1" 200 7723
0:0:0:0:0:0:0:1 - - [01/Feb/2020:11:12:10 -0600] "POST /MandyHotel/faces/source/view/imagen.xhtml HTTP/1.1" 200 7723
0:0:0:0:0:0:0:1 - - [01/Feb/2020:11:12:15 -0600] "POST /MandyHotel/faces/source/view/imagen.xhtml HTTP/1.1" 200 7723
0:0:0:0:0:0:0:1 - - [01/Feb/2020:11:12:20 -0600] "POST /MandyHotel/faces/source/view/imagen.xhtml HTTP/1.1" 200 8801
0:0:0:0:0:0:0:1 - - [01/Feb/2020:11:12:25 -0600] "POST /MandyHotel/faces/source/view/imagen.xhtml HTTP/1.1" 200 8801
0:0:0:0:0:0:0:1 - - [01/Feb/2020:11:12:30 -0600] "POST /MandyHotel/faces/source/view/imagen.xhtml HTTP/1.1" 200 8801
0:0:0:0:0:0:0:1 - - [01/Feb/2020:11:12:35 -0600] "POST /MandyHotel/faces/source/view/imagen.xhtml HTTP/1.1" 200 8801
0:0:0:0:0:0:0:1 - - [01/Feb/2020:11:12:40 -0600] "POST /MandyHotel/faces/source/view/imagen.xhtml HTTP/1.1" 200 8801
0:0:0:0:0:0:0:1 - - [01/Feb/2020:11:12:45 -0600] "POST /MandyHotel/faces/source/view/imagen.xhtml HTTP/1.1" 200 7691
0:0:0:0:0:0:0:1 - - [01/Feb/2020:11:12:50 -0600] "POST /MandyHotel/faces/source/view/imagen.xhtml HTTP/1.1" 200 7691
0:0:0:0:0:0:0:1 - - [01/Feb/2020:11:12:55 -0600] "POST /MandyHotel/faces/source/view/imagen.xhtml HTTP/1.1" 200 7691
0:0:0:0:0:0:0:1 - - [01/Feb/2020:11:13:00 -0600] "POST /MandyHotel/faces/source/view/imagen.xhtml HTTP/1.1" 200 7691
0:0:0:0:0:0:0:1 - - [01/Feb/2020:11:13:05 -0600] "POST /MandyHotel/faces/source/view/imagen.xhtml HTTP/1.1" 200 7691
0:0:0:0:0:0:0:1 - - [01/Feb/2020:11:13:10 -0600] "POST /MandyHotel/faces/source/view/imagen.xhtml HTTP/1.1" 200 7691
0:0:0:0:0:0:0:1 - - [01/Feb/2020:11:13:15 -0600] "POST /MandyHotel/faces/source/view/imagen.xhtml HTTP/1.1" 200 7691
0:0:0:0:0:0:0:1 - - [01/Feb/2020:11:13:20 -0600] "POST /MandyHotel/faces/source/view/imagen.xhtml HTTP/1.1" 200 7691
0:0:0:0:0:0:0:1 - - [01/Feb/2020:11:13:25 -0600] "POST /MandyHotel/faces/source/view/imagen.xhtml HTTP/1.1" 200 7691
0:0:0:0:0:0:0:1 - - [01/Feb/2020:11:13:30 -0600] "POST /MandyHotel/faces/source/view/imagen.xhtml HTTP/1.1" 200 7691
0:0:0:0:0:0:0:1 - - [01/Feb/2020:11:13:35 -0600] "POST /MandyHotel/faces/source/view/imagen.xhtml HTTP/1.1" 200 7691
0:0:0:0:0:0:0:1 - - [01/Feb/2020:11:13:40 -0600] "POST /MandyHotel/faces/source/view/imagen.xhtml HTTP/1.1" 200 7691
0:0:0:0:0:0:0:1 - - [01/Feb/2020:11:13:45 -0600] "POST /MandyHotel/faces/source/view/imagen.xhtml HTTP/1.1" 200 7691
0:0:0:0:0:0:0:1 - - [01/Feb/2020:11:13:50 -0600] "POST /MandyHotel/faces/source/view/imagen.xhtml HTTP/1.1" 200 7691
0:0:0:0:0:0:0:1 - - [01/Feb/2020:11:13:55 -0600] "POST /MandyHotel/faces/source/view/imagen.xhtml HTTP/1.1" 200 7691
0:0:0:0:0:0:0:1 - - [01/Feb/2020:11:14:00 -0600] "POST /MandyHotel/faces/source/view/imagen.xhtml HTTP/1.1" 200 7691
0:0:0:0:0:0:0:1 - - [01/Feb/2020:11:14:05 -0600] "POST /MandyHotel/faces/source/view/imagen.xhtml HTTP/1.1" 200 7691
0:0:0:0:0:0:0:1 - - [01/Feb/2020:11:14:10 -0600] "POST /MandyHotel/faces/source/view/imagen.xhtml HTTP/1.1" 200 7691
0:0:0:0:0:0:0:1 - - [01/Feb/2020:11:14:15 -0600] "POST /MandyHotel/faces/source/view/imagen.xhtml HTTP/1.1" 200 7691
0:0:0:0:0:0:0:1 - - [01/Feb/2020:11:14:20 -0600] "POST /MandyHotel/faces/source/view/imagen.xhtml HTTP/1.1" 200 7691
0:0:0:0:0:0:0:1 - - [01/Feb/2020:11:14:25 -0600] "POST /MandyHotel/faces/source/view/imagen.xhtml HTTP/1.1" 200 7691
0:0:0:0:0:0:0:1 - - [01/Feb/2020:11:14:30 -0600] "POST /MandyHotel/faces/source/view/imagen.xhtml HTTP/1.1" 200 7691
0:0:0:0:0:0:0:1 - - [01/Feb/2020:11:14:35 -0600] "POST /MandyHotel/faces/source/view/imagen.xhtml HTTP/1.1" 200 7691
0:0:0:0:0:0:0:1 - - [01/Feb/2020:11:14:40 -0600] "POST /MandyHotel/faces/source/view/imagen.xhtml HTTP/1.1" 200 7691
0:0:0:0:0:0:0:1 - - [01/Feb/2020:11:14:45 -0600] "POST /MandyHotel/faces/source/view/imagen.xhtml HTTP/1.1" 200 7691
0:0:0:0:0:0:0:1 - - [01/Feb/2020:11:14:50 -0600] "POST /MandyHotel/faces/source/view/imagen.xhtml HTTP/1.1" 200 7691
0:0:0:0:0:0:0:1 - - [01/Feb/2020:11:14:55 -0600] "POST /MandyHotel/faces/source/view/imagen.xhtml HTTP/1.1" 200 7691
0:0:0:0:0:0:0:1 - - [01/Feb/2020:11:15:00 -0600] "POST /MandyHotel/faces/source/view/imagen.xhtml HTTP/1.1" 200 7691
0:0:0:0:0:0:0:1 - - [01/Feb/2020:11:15:05 -0600] "POST /MandyHotel/faces/source/view/imagen.xhtml HTTP/1.1" 200 7691
0:0:0:0:0:0:0:1 - - [01/Feb/2020:11:15:10 -0600] "POST /MandyHotel/faces/source/view/imagen.xhtml HTTP/1.1" 200 7691
0:0:0:0:0:0:0:1 - - [01/Feb/2020:11:15:15 -0600] "POST /MandyHotel/faces/source/view/imagen.xhtml HTTP/1.1" 200 7691
0:0:0:0:0:0:0:1 - - [01/Feb/2020:11:15:20 -0600] "POST /MandyHotel/faces/source/view/imagen.xhtml HTTP/1.1" 200 7691
0:0:0:0:0:0:0:1 - - [01/Feb/2020:11:15:25 -0600] "POST /MandyHotel/faces/source/view/imagen.xhtml HTTP/1.1" 200 7691
0:0:0:0:0:0:0:1 - - [01/Feb/2020:11:15:30 -0600] "POST /MandyHotel/faces/source/view/imagen.xhtml HTTP/1.1" 200 7691
0:0:0:0:0:0:0:1 - - [01/Feb/2020:11:15:35 -0600] "POST /MandyHotel/faces/source/view/imagen.xhtml HTTP/1.1" 200 7691
0:0:0:0:0:0:0:1 - - [01/Feb/2020:11:15:40 -0600] "POST /MandyHotel/faces/source/view/imagen.xhtml HTTP/1.1" 200 7691
0:0:0:0:0:0:0:1 - - [01/Feb/2020:11:15:45 -0600] "POST /MandyHotel/faces/source/view/imagen.xhtml HTTP/1.1" 200 7691
0:0:0:0:0:0:0:1 - - [01/Feb/2020:11:15:50 -0600] "POST /MandyHotel/faces/source/view/imagen.xhtml HTTP/1.1" 200 7691
0:0:0:0:0:0:0:1 - - [01/Feb/2020:11:15:55 -0600] "POST /MandyHotel/faces/source/view/imagen.xhtml HTTP/1.1" 200 7691
0:0:0:0:0:0:0:1 - - [01/Feb/2020:11:16:00 -0600] "POST /MandyHotel/faces/source/view/imagen.xhtml HTTP/1.1" 200 7691
0:0:0:0:0:0:0:1 - - [01/Feb/2020:11:16:05 -0600] "POST /MandyHotel/faces/source/view/imagen.xhtml HTTP/1.1" 200 7691
0:0:0:0:0:0:0:1 - - [01/Feb/2020:11:16:10 -0600] "POST /MandyHotel/faces/source/view/imagen.xhtml HTTP/1.1" 200 7691
0:0:0:0:0:0:0:1 - - [01/Feb/2020:11:16:15 -0600] "POST /MandyHotel/faces/source/view/imagen.xhtml HTTP/1.1" 200 7691
0:0:0:0:0:0:0:1 - - [01/Feb/2020:11:16:20 -0600] "POST /MandyHotel/faces/source/view/imagen.xhtml HTTP/1.1" 200 7691
0:0:0:0:0:0:0:1 - - [01/Feb/2020:11:16:25 -0600] "POST /MandyHotel/faces/source/view/imagen.xhtml HTTP/1.1" 200 7691
0:0:0:0:0:0:0:1 - - [01/Feb/2020:11:16:30 -0600] "POST /MandyHotel/faces/source/view/imagen.xhtml HTTP/1.1" 200 7691
0:0:0:0:0:0:0:1 - - [01/Feb/2020:11:16:35 -0600] "POST /MandyHotel/faces/source/view/imagen.xhtml HTTP/1.1" 200 7691
0:0:0:0:0:0:0:1 - - [01/Feb/2020:11:16:40 -0600] "POST /MandyHotel/faces/source/view/imagen.xhtml HTTP/1.1" 200 7691
0:0:0:0:0:0:0:1 - - [01/Feb/2020:11:16:45 -0600] "POST /MandyHotel/faces/source/view/imagen.xhtml HTTP/1.1" 200 7691
0:0:0:0:0:0:0:1 - - [01/Feb/2020:11:16:50 -0600] "POST /MandyHotel/faces/source/view/imagen.xhtml HTTP/1.1" 200 7691
0:0:0:0:0:0:0:1 - - [01/Feb/2020:11:16:55 -0600] "POST /MandyHotel/faces/source/view/imagen.xhtml HTTP/1.1" 200 7691
0:0:0:0:0:0:0:1 - - [01/Feb/2020:11:17:00 -0600] "POST /MandyHotel/faces/source/view/imagen.xhtml HTTP/1.1" 200 7691
0:0:0:0:0:0:0:1 - - [01/Feb/2020:11:17:05 -0600] "POST /MandyHotel/faces/source/view/imagen.xhtml HTTP/1.1" 200 7691
0:0:0:0:0:0:0:1 - - [01/Feb/2020:11:17:10 -0600] "POST /MandyHotel/faces/source/view/imagen.xhtml HTTP/1.1" 200 7691
0:0:0:0:0:0:0:1 - - [01/Feb/2020:11:17:15 -0600] "POST /MandyHotel/faces/source/view/imagen.xhtml HTTP/1.1" 200 7691
0:0:0:0:0:0:0:1 - - [01/Feb/2020:11:17:20 -0600] "POST /MandyHotel/faces/source/view/imagen.xhtml HTTP/1.1" 200 7691
0:0:0:0:0:0:0:1 - - [01/Feb/2020:11:17:25 -0600] "POST /MandyHotel/faces/source/view/imagen.xhtml HTTP/1.1" 200 7691
0:0:0:0:0:0:0:1 - - [01/Feb/2020:11:17:30 -0600] "POST /MandyHotel/faces/source/view/imagen.xhtml HTTP/1.1" 200 7691
0:0:0:0:0:0:0:1 - - [01/Feb/2020:11:17:36 -0600] "POST /MandyHotel/faces/source/view/imagen.xhtml HTTP/1.1" 200 7691
0:0:0:0:0:0:0:1 - - [01/Feb/2020:11:17:42 -0600] "POST /MandyHotel/faces/source/view/imagen.xhtml HTTP/1.1" 200 7691
0:0:0:0:0:0:0:1 - - [01/Feb/2020:11:17:48 -0600] "POST /MandyHotel/faces/source/view/imagen.xhtml HTTP/1.1" 200 7691
0:0:0:0:0:0:0:1 - - [01/Feb/2020:11:17:54 -0600] "POST /MandyHotel/faces/source/view/imagen.xhtml HTTP/1.1" 200 7691
0:0:0:0:0:0:0:1 - - [01/Feb/2020:11:18:00 -0600] "POST /MandyHotel/faces/source/view/imagen.xhtml HTTP/1.1" 200 7691
0:0:0:0:0:0:0:1 - - [01/Feb/2020:11:18:06 -0600] "POST /MandyHotel/faces/source/view/imagen.xhtml HTTP/1.1" 200 7691
0:0:0:0:0:0:0:1 - - [01/Feb/2020:11:18:12 -0600] "POST /MandyHotel/faces/source/view/imagen.xhtml HTTP/1.1" 200 7691
0:0:0:0:0:0:0:1 - - [01/Feb/2020:11:18:18 -0600] "POST /MandyHotel/faces/source/view/imagen.xhtml HTTP/1.1" 200 7691
0:0:0:0:0:0:0:1 - - [01/Feb/2020:11:18:24 -0600] "POST /MandyHotel/faces/source/view/imagen.xhtml HTTP/1.1" 200 7691
0:0:0:0:0:0:0:1 - - [01/Feb/2020:11:18:30 -0600] "POST /MandyHotel/faces/source/view/imagen.xhtml HTTP/1.1" 200 7691
0:0:0:0:0:0:0:1 - - [01/Feb/2020:11:18:36 -0600] "POST /MandyHotel/faces/source/view/imagen.xhtml HTTP/1.1" 200 7691
0:0:0:0:0:0:0:1 - - [01/Feb/2020:11:18:42 -0600] "POST /MandyHotel/faces/source/view/imagen.xhtml HTTP/1.1" 200 7691
0:0:0:0:0:0:0:1 - - [01/Feb/2020:11:18:48 -0600] "POST /MandyHotel/faces/source/view/imagen.xhtml HTTP/1.1" 200 7691
0:0:0:0:0:0:0:1 - - [01/Feb/2020:11:18:54 -0600] "POST /MandyHotel/faces/source/view/imagen.xhtml HTTP/1.1" 200 7691
0:0:0:0:0:0:0:1 - - [01/Feb/2020:11:19:00 -0600] "POST /MandyHotel/faces/source/view/imagen.xhtml HTTP/1.1" 200 7691
0:0:0:0:0:0:0:1 - - [01/Feb/2020:11:19:06 -0600] "POST /MandyHotel/faces/source/view/imagen.xhtml HTTP/1.1" 200 7691
0:0:0:0:0:0:0:1 - - [01/Feb/2020:11:19:12 -0600] "POST /MandyHotel/faces/source/view/imagen.xhtml HTTP/1.1" 200 7691
0:0:0:0:0:0:0:1 - - [01/Feb/2020:11:19:18 -0600] "POST /MandyHotel/faces/source/view/imagen.xhtml HTTP/1.1" 200 7691
0:0:0:0:0:0:0:1 - - [01/Feb/2020:11:19:24 -0600] "POST /MandyHotel/faces/source/view/imagen.xhtml HTTP/1.1" 200 7691
0:0:0:0:0:0:0:1 - - [01/Feb/2020:11:19:30 -0600] "POST /MandyHotel/faces/source/view/imagen.xhtml HTTP/1.1" 200 7691
0:0:0:0:0:0:0:1 - - [01/Feb/2020:11:19:36 -0600] "POST /MandyHotel/faces/source/view/imagen.xhtml HTTP/1.1" 200 7691
0:0:0:0:0:0:0:1 - - [01/Feb/2020:11:19:42 -0600] "POST /MandyHotel/faces/source/view/imagen.xhtml HTTP/1.1" 200 7691
0:0:0:0:0:0:0:1 - - [01/Feb/2020:11:19:48 -0600] "POST /MandyHotel/faces/source/view/imagen.xhtml HTTP/1.1" 200 7691
0:0:0:0:0:0:0:1 - - [01/Feb/2020:11:19:54 -0600] "POST /MandyHotel/faces/source/view/imagen.xhtml HTTP/1.1" 200 7691
0:0:0:0:0:0:0:1 - - [01/Feb/2020:11:20:00 -0600] "POST /MandyHotel/faces/source/view/imagen.xhtml HTTP/1.1" 200 7691
0:0:0:0:0:0:0:1 - - [01/Feb/2020:11:20:06 -0600] "POST /MandyHotel/faces/source/view/imagen.xhtml HTTP/1.1" 200 7691
0:0:0:0:0:0:0:1 - - [01/Feb/2020:11:20:12 -0600] "POST /MandyHotel/faces/source/view/imagen.xhtml HTTP/1.1" 200 7691
0:0:0:0:0:0:0:1 - - [01/Feb/2020:11:20:18 -0600] "POST /MandyHotel/faces/source/view/imagen.xhtml HTTP/1.1" 200 7691
0:0:0:0:0:0:0:1 - - [01/Feb/2020:11:20:24 -0600] "POST /MandyHotel/faces/source/view/imagen.xhtml HTTP/1.1" 200 7691
0:0:0:0:0:0:0:1 - - [01/Feb/2020:11:20:30 -0600] "POST /MandyHotel/faces/source/view/imagen.xhtml HTTP/1.1" 200 7691
0:0:0:0:0:0:0:1 - - [01/Feb/2020:11:20:36 -0600] "POST /MandyHotel/faces/source/view/imagen.xhtml HTTP/1.1" 200 7691
0:0:0:0:0:0:0:1 - - [01/Feb/2020:11:20:42 -0600] "POST /MandyHotel/faces/source/view/imagen.xhtml HTTP/1.1" 200 7691
0:0:0:0:0:0:0:1 - - [01/Feb/2020:11:20:48 -0600] "POST /MandyHotel/faces/source/view/imagen.xhtml HTTP/1.1" 200 7691
0:0:0:0:0:0:0:1 - - [01/Feb/2020:11:20:54 -0600] "POST /MandyHotel/faces/source/view/imagen.xhtml HTTP/1.1" 200 7691
0:0:0:0:0:0:0:1 - - [01/Feb/2020:11:21:00 -0600] "POST /MandyHotel/faces/source/view/imagen.xhtml HTTP/1.1" 200 7691
0:0:0:0:0:0:0:1 - - [01/Feb/2020:11:21:06 -0600] "POST /MandyHotel/faces/source/view/imagen.xhtml HTTP/1.1" 200 7691
0:0:0:0:0:0:0:1 - - [01/Feb/2020:11:21:12 -0600] "POST /MandyHotel/faces/source/view/imagen.xhtml HTTP/1.1" 200 7691
0:0:0:0:0:0:0:1 - - [01/Feb/2020:11:21:18 -0600] "POST /MandyHotel/faces/source/view/imagen.xhtml HTTP/1.1" 200 7691
0:0:0:0:0:0:0:1 - - [01/Feb/2020:11:21:24 -0600] "POST /MandyHotel/faces/source/view/imagen.xhtml HTTP/1.1" 200 7691
0:0:0:0:0:0:0:1 - - [01/Feb/2020:11:21:30 -0600] "POST /MandyHotel/faces/source/view/imagen.xhtml HTTP/1.1" 200 7691
0:0:0:0:0:0:0:1 - - [01/Feb/2020:11:21:36 -0600] "POST /MandyHotel/faces/source/view/imagen.xhtml HTTP/1.1" 200 7691
0:0:0:0:0:0:0:1 - - [01/Feb/2020:11:21:42 -0600] "POST /MandyHotel/faces/source/view/imagen.xhtml HTTP/1.1" 200 7691
0:0:0:0:0:0:0:1 - - [01/Feb/2020:11:21:48 -0600] "POST /MandyHotel/faces/source/view/imagen.xhtml HTTP/1.1" 200 7691
0:0:0:0:0:0:0:1 - - [01/Feb/2020:11:21:54 -0600] "POST /MandyHotel/faces/source/view/imagen.xhtml HTTP/1.1" 200 7691
0:0:0:0:0:0:0:1 - - [01/Feb/2020:11:22:00 -0600] "POST /MandyHotel/faces/source/view/imagen.xhtml HTTP/1.1" 200 7691
0:0:0:0:0:0:0:1 - - [01/Feb/2020:11:22:06 -0600] "POST /MandyHotel/faces/source/view/imagen.xhtml HTTP/1.1" 200 7691
0:0:0:0:0:0:0:1 - - [01/Feb/2020:11:22:12 -0600] "POST /MandyHotel/faces/source/view/imagen.xhtml HTTP/1.1" 200 7691
0:0:0:0:0:0:0:1 - - [01/Feb/2020:11:22:18 -0600] "POST /MandyHotel/faces/source/view/imagen.xhtml HTTP/1.1" 200 7691
0:0:0:0:0:0:0:1 - - [01/Feb/2020:11:22:24 -0600] "POST /MandyHotel/faces/source/view/imagen.xhtml HTTP/1.1" 200 7691
0:0:0:0:0:0:0:1 - - [01/Feb/2020:11:22:30 -0600] "POST /MandyHotel/faces/source/view/imagen.xhtml HTTP/1.1" 200 7691
0:0:0:0:0:0:0:1 - - [01/Feb/2020:11:22:36 -0600] "POST /MandyHotel/faces/source/view/imagen.xhtml HTTP/1.1" 200 7691
0:0:0:0:0:0:0:1 - - [01/Feb/2020:11:22:42 -0600] "POST /MandyHotel/faces/source/view/imagen.xhtml HTTP/1.1" 200 7691
0:0:0:0:0:0:0:1 - - [01/Feb/2020:11:22:48 -0600] "POST /MandyHotel/faces/source/view/imagen.xhtml HTTP/1.1" 200 7691
0:0:0:0:0:0:0:1 - - [01/Feb/2020:11:22:54 -0600] "POST /MandyHotel/faces/source/view/imagen.xhtml HTTP/1.1" 200 7691
0:0:0:0:0:0:0:1 - - [01/Feb/2020:11:23:00 -0600] "POST /MandyHotel/faces/source/view/imagen.xhtml HTTP/1.1" 200 7691
0:0:0:0:0:0:0:1 - - [01/Feb/2020:11:23:06 -0600] "POST /MandyHotel/faces/source/view/imagen.xhtml HTTP/1.1" 200 7691
0:0:0:0:0:0:0:1 - - [01/Feb/2020:11:23:12 -0600] "POST /MandyHotel/faces/source/view/imagen.xhtml HTTP/1.1" 200 7691
0:0:0:0:0:0:0:1 - - [01/Feb/2020:11:23:18 -0600] "POST /MandyHotel/faces/source/view/imagen.xhtml HTTP/1.1" 200 7691
0:0:0:0:0:0:0:1 - - [01/Feb/2020:11:23:24 -0600] "POST /MandyHotel/faces/source/view/imagen.xhtml HTTP/1.1" 200 7691
0:0:0:0:0:0:0:1 - - [01/Feb/2020:11:23:30 -0600] "POST /MandyHotel/faces/source/view/imagen.xhtml HTTP/1.1" 200 7691
0:0:0:0:0:0:0:1 - - [01/Feb/2020:11:23:36 -0600] "POST /MandyHotel/faces/source/view/imagen.xhtml HTTP/1.1" 200 7691
0:0:0:0:0:0:0:1 - - [01/Feb/2020:11:23:42 -0600] "POST /MandyHotel/faces/source/view/imagen.xhtml HTTP/1.1" 200 7691
0:0:0:0:0:0:0:1 - - [01/Feb/2020:11:23:48 -0600] "POST /MandyHotel/faces/source/view/imagen.xhtml HTTP/1.1" 200 7691
0:0:0:0:0:0:0:1 - - [01/Feb/2020:11:23:54 -0600] "POST /MandyHotel/faces/source/view/imagen.xhtml HTTP/1.1" 200 7691
0:0:0:0:0:0:0:1 - - [01/Feb/2020:11:24:00 -0600] "POST /MandyHotel/faces/source/view/imagen.xhtml HTTP/1.1" 200 7691
0:0:0:0:0:0:0:1 - - [01/Feb/2020:11:24:06 -0600] "POST /MandyHotel/faces/source/view/imagen.xhtml HTTP/1.1" 200 7691
0:0:0:0:0:0:0:1 - - [01/Feb/2020:11:24:12 -0600] "POST /MandyHotel/faces/source/view/imagen.xhtml HTTP/1.1" 200 7691
0:0:0:0:0:0:0:1 - - [01/Feb/2020:11:24:18 -0600] "POST /MandyHotel/faces/source/view/imagen.xhtml HTTP/1.1" 200 7691
0:0:0:0:0:0:0:1 - - [01/Feb/2020:11:24:24 -0600] "POST /MandyHotel/faces/source/view/imagen.xhtml HTTP/1.1" 200 7691
0:0:0:0:0:0:0:1 - - [01/Feb/2020:11:24:30 -0600] "POST /MandyHotel/faces/source/view/imagen.xhtml HTTP/1.1" 200 7691
0:0:0:0:0:0:0:1 - - [01/Feb/2020:11:24:36 -0600] "POST /MandyHotel/faces/source/view/imagen.xhtml HTTP/1.1" 200 7691
0:0:0:0:0:0:0:1 - - [01/Feb/2020:11:24:42 -0600] "POST /MandyHotel/faces/source/view/imagen.xhtml HTTP/1.1" 200 7691
0:0:0:0:0:0:0:1 - - [01/Feb/2020:11:24:48 -0600] "POST /MandyHotel/faces/source/view/imagen.xhtml HTTP/1.1" 200 7691
0:0:0:0:0:0:0:1 - - [01/Feb/2020:11:24:54 -0600] "POST /MandyHotel/faces/source/view/imagen.xhtml HTTP/1.1" 200 7691
0:0:0:0:0:0:0:1 - - [01/Feb/2020:11:25:00 -0600] "POST /MandyHotel/faces/source/view/imagen.xhtml HTTP/1.1" 200 7691
0:0:0:0:0:0:0:1 - - [01/Feb/2020:11:25:06 -0600] "POST /MandyHotel/faces/source/view/imagen.xhtml HTTP/1.1" 200 7691
0:0:0:0:0:0:0:1 - - [01/Feb/2020:11:25:12 -0600] "POST /MandyHotel/faces/source/view/imagen.xhtml HTTP/1.1" 200 7691
0:0:0:0:0:0:0:1 - - [01/Feb/2020:11:25:18 -0600] "POST /MandyHotel/faces/source/view/imagen.xhtml HTTP/1.1" 200 7691
0:0:0:0:0:0:0:1 - - [01/Feb/2020:11:25:24 -0600] "POST /MandyHotel/faces/source/view/imagen.xhtml HTTP/1.1" 200 7691
0:0:0:0:0:0:0:1 - - [01/Feb/2020:11:25:30 -0600] "POST /MandyHotel/faces/source/view/imagen.xhtml HTTP/1.1" 200 7691
0:0:0:0:0:0:0:1 - - [01/Feb/2020:11:25:36 -0600] "POST /MandyHotel/faces/source/view/imagen.xhtml HTTP/1.1" 200 7691
0:0:0:0:0:0:0:1 - - [01/Feb/2020:11:25:42 -0600] "POST /MandyHotel/faces/source/view/imagen.xhtml HTTP/1.1" 200 7691
0:0:0:0:0:0:0:1 - - [01/Feb/2020:11:25:48 -0600] "POST /MandyHotel/faces/source/view/imagen.xhtml HTTP/1.1" 200 7691
0:0:0:0:0:0:0:1 - - [01/Feb/2020:11:25:54 -0600] "POST /MandyHotel/faces/source/view/imagen.xhtml HTTP/1.1" 200 7691
0:0:0:0:0:0:0:1 - - [01/Feb/2020:11:26:00 -0600] "POST /MandyHotel/faces/source/view/imagen.xhtml HTTP/1.1" 200 7691
0:0:0:0:0:0:0:1 - - [01/Feb/2020:11:26:06 -0600] "POST /MandyHotel/faces/source/view/imagen.xhtml HTTP/1.1" 200 7691
0:0:0:0:0:0:0:1 - - [01/Feb/2020:11:26:12 -0600] "POST /MandyHotel/faces/source/view/imagen.xhtml HTTP/1.1" 200 7691
0:0:0:0:0:0:0:1 - - [01/Feb/2020:11:26:18 -0600] "POST /MandyHotel/faces/source/view/imagen.xhtml HTTP/1.1" 200 7691
0:0:0:0:0:0:0:1 - - [01/Feb/2020:11:26:24 -0600] "POST /MandyHotel/faces/source/view/imagen.xhtml HTTP/1.1" 200 7691
0:0:0:0:0:0:0:1 - - [01/Feb/2020:11:26:30 -0600] "POST /MandyHotel/faces/source/view/imagen.xhtml HTTP/1.1" 200 7691
0:0:0:0:0:0:0:1 - - [01/Feb/2020:11:26:36 -0600] "POST /MandyHotel/faces/source/view/imagen.xhtml HTTP/1.1" 200 7691
0:0:0:0:0:0:0:1 - - [01/Feb/2020:11:26:42 -0600] "POST /MandyHotel/faces/source/view/imagen.xhtml HTTP/1.1" 200 7691
0:0:0:0:0:0:0:1 - - [01/Feb/2020:11:26:48 -0600] "POST /MandyHotel/faces/source/view/imagen.xhtml HTTP/1.1" 200 7691
0:0:0:0:0:0:0:1 - - [01/Feb/2020:11:26:54 -0600] "POST /MandyHotel/faces/source/view/imagen.xhtml HTTP/1.1" 200 7691
0:0:0:0:0:0:0:1 - - [01/Feb/2020:11:27:00 -0600] "POST /MandyHotel/faces/source/view/imagen.xhtml HTTP/1.1" 200 7691
0:0:0:0:0:0:0:1 - - [01/Feb/2020:11:27:06 -0600] "POST /MandyHotel/faces/source/view/imagen.xhtml HTTP/1.1" 200 7691
0:0:0:0:0:0:0:1 - - [01/Feb/2020:11:27:12 -0600] "POST /MandyHotel/faces/source/view/imagen.xhtml HTTP/1.1" 200 7691
0:0:0:0:0:0:0:1 - - [01/Feb/2020:11:27:18 -0600] "POST /MandyHotel/faces/source/view/imagen.xhtml HTTP/1.1" 200 7691
0:0:0:0:0:0:0:1 - - [01/Feb/2020:11:27:24 -0600] "POST /MandyHotel/faces/source/view/imagen.xhtml HTTP/1.1" 200 7691
0:0:0:0:0:0:0:1 - - [01/Feb/2020:11:27:30 -0600] "POST /MandyHotel/faces/source/view/imagen.xhtml HTTP/1.1" 200 7691
0:0:0:0:0:0:0:1 - - [01/Feb/2020:11:27:36 -0600] "POST /MandyHotel/faces/source/view/imagen.xhtml HTTP/1.1" 200 7691
0:0:0:0:0:0:0:1 - - [01/Feb/2020:11:27:42 -0600] "POST /MandyHotel/faces/source/view/imagen.xhtml HTTP/1.1" 200 7691
0:0:0:0:0:0:0:1 - - [01/Feb/2020:11:27:48 -0600] "POST /MandyHotel/faces/source/view/imagen.xhtml HTTP/1.1" 200 7691
0:0:0:0:0:0:0:1 - - [01/Feb/2020:11:27:54 -0600] "POST /MandyHotel/faces/source/view/imagen.xhtml HTTP/1.1" 200 7691
0:0:0:0:0:0:0:1 - - [01/Feb/2020:11:28:00 -0600] "POST /MandyHotel/faces/source/view/imagen.xhtml HTTP/1.1" 200 7691
0:0:0:0:0:0:0:1 - - [01/Feb/2020:11:28:06 -0600] "POST /MandyHotel/faces/source/view/imagen.xhtml HTTP/1.1" 200 7691
0:0:0:0:0:0:0:1 - - [01/Feb/2020:11:28:12 -0600] "POST /MandyHotel/faces/source/view/imagen.xhtml HTTP/1.1" 200 7691
0:0:0:0:0:0:0:1 - - [01/Feb/2020:11:28:18 -0600] "POST /MandyHotel/faces/source/view/imagen.xhtml HTTP/1.1" 200 7691
0:0:0:0:0:0:0:1 - - [01/Feb/2020:11:28:24 -0600] "POST /MandyHotel/faces/source/view/imagen.xhtml HTTP/1.1" 200 7691
0:0:0:0:0:0:0:1 - - [01/Feb/2020:11:28:30 -0600] "POST /MandyHotel/faces/source/view/imagen.xhtml HTTP/1.1" 200 7691
0:0:0:0:0:0:0:1 - - [01/Feb/2020:11:28:36 -0600] "POST /MandyHotel/faces/source/view/imagen.xhtml HTTP/1.1" 200 7691
0:0:0:0:0:0:0:1 - - [01/Feb/2020:11:28:42 -0600] "POST /MandyHotel/faces/source/view/imagen.xhtml HTTP/1.1" 200 7691
0:0:0:0:0:0:0:1 - - [01/Feb/2020:11:28:48 -0600] "POST /MandyHotel/faces/source/view/imagen.xhtml HTTP/1.1" 200 7691
0:0:0:0:0:0:0:1 - - [01/Feb/2020:11:28:54 -0600] "POST /MandyHotel/faces/source/view/imagen.xhtml HTTP/1.1" 200 7691
0:0:0:0:0:0:0:1 - - [01/Feb/2020:11:29:00 -0600] "POST /MandyHotel/faces/source/view/imagen.xhtml HTTP/1.1" 200 7691
0:0:0:0:0:0:0:1 - - [01/Feb/2020:11:29:06 -0600] "POST /MandyHotel/faces/source/view/imagen.xhtml HTTP/1.1" 200 7691
0:0:0:0:0:0:0:1 - - [01/Feb/2020:11:29:12 -0600] "POST /MandyHotel/faces/source/view/imagen.xhtml HTTP/1.1" 200 7691
0:0:0:0:0:0:0:1 - - [01/Feb/2020:11:29:18 -0600] "POST /MandyHotel/faces/source/view/imagen.xhtml HTTP/1.1" 200 7691
0:0:0:0:0:0:0:1 - - [01/Feb/2020:11:29:24 -0600] "POST /MandyHotel/faces/source/view/imagen.xhtml HTTP/1.1" 200 7691
0:0:0:0:0:0:0:1 - - [01/Feb/2020:11:29:30 -0600] "POST /MandyHotel/faces/source/view/imagen.xhtml HTTP/1.1" 200 7691
0:0:0:0:0:0:0:1 - - [01/Feb/2020:11:29:36 -0600] "POST /MandyHotel/faces/source/view/imagen.xhtml HTTP/1.1" 200 7691
0:0:0:0:0:0:0:1 - - [01/Feb/2020:11:29:42 -0600] "POST /MandyHotel/faces/source/view/imagen.xhtml HTTP/1.1" 200 7691
0:0:0:0:0:0:0:1 - - [01/Feb/2020:11:29:48 -0600] "POST /MandyHotel/faces/source/view/imagen.xhtml HTTP/1.1" 200 7691
0:0:0:0:0:0:0:1 - - [01/Feb/2020:11:29:54 -0600] "POST /MandyHotel/faces/source/view/imagen.xhtml HTTP/1.1" 200 7691
0:0:0:0:0:0:0:1 - - [01/Feb/2020:11:30:00 -0600] "POST /MandyHotel/faces/source/view/imagen.xhtml HTTP/1.1" 200 7691
0:0:0:0:0:0:0:1 - - [01/Feb/2020:11:30:06 -0600] "POST /MandyHotel/faces/source/view/imagen.xhtml HTTP/1.1" 200 7691
0:0:0:0:0:0:0:1 - - [01/Feb/2020:11:30:12 -0600] "POST /MandyHotel/faces/source/view/imagen.xhtml HTTP/1.1" 200 7691
0:0:0:0:0:0:0:1 - - [01/Feb/2020:11:30:18 -0600] "POST /MandyHotel/faces/source/view/imagen.xhtml HTTP/1.1" 200 7691
0:0:0:0:0:0:0:1 - - [01/Feb/2020:11:30:24 -0600] "POST /MandyHotel/faces/source/view/imagen.xhtml HTTP/1.1" 200 7691
0:0:0:0:0:0:0:1 - - [01/Feb/2020:11:30:30 -0600] "POST /MandyHotel/faces/source/view/imagen.xhtml HTTP/1.1" 200 7691
0:0:0:0:0:0:0:1 - - [01/Feb/2020:11:30:36 -0600] "POST /MandyHotel/faces/source/view/imagen.xhtml HTTP/1.1" 200 7691
0:0:0:0:0:0:0:1 - - [01/Feb/2020:11:30:42 -0600] "POST /MandyHotel/faces/source/view/imagen.xhtml HTTP/1.1" 200 7691
0:0:0:0:0:0:0:1 - - [01/Feb/2020:11:30:48 -0600] "POST /MandyHotel/faces/source/view/imagen.xhtml HTTP/1.1" 200 7691
0:0:0:0:0:0:0:1 - - [01/Feb/2020:11:30:54 -0600] "POST /MandyHotel/faces/source/view/imagen.xhtml HTTP/1.1" 200 7691
0:0:0:0:0:0:0:1 - - [01/Feb/2020:11:31:00 -0600] "POST /MandyHotel/faces/source/view/imagen.xhtml HTTP/1.1" 200 7691
0:0:0:0:0:0:0:1 - - [01/Feb/2020:11:31:06 -0600] "POST /MandyHotel/faces/source/view/imagen.xhtml HTTP/1.1" 200 7691
0:0:0:0:0:0:0:1 - - [01/Feb/2020:11:31:12 -0600] "POST /MandyHotel/faces/source/view/imagen.xhtml HTTP/1.1" 200 7691
0:0:0:0:0:0:0:1 - - [01/Feb/2020:11:31:18 -0600] "POST /MandyHotel/faces/source/view/imagen.xhtml HTTP/1.1" 200 7691
0:0:0:0:0:0:0:1 - - [01/Feb/2020:11:31:24 -0600] "POST /MandyHotel/faces/source/view/imagen.xhtml HTTP/1.1" 200 7691
0:0:0:0:0:0:0:1 - - [01/Feb/2020:11:31:30 -0600] "POST /MandyHotel/faces/source/view/imagen.xhtml HTTP/1.1" 200 7691
0:0:0:0:0:0:0:1 - - [01/Feb/2020:11:31:36 -0600] "POST /MandyHotel/faces/source/view/imagen.xhtml HTTP/1.1" 200 7691
0:0:0:0:0:0:0:1 - - [01/Feb/2020:11:31:42 -0600] "POST /MandyHotel/faces/source/view/imagen.xhtml HTTP/1.1" 200 7691
0:0:0:0:0:0:0:1 - - [01/Feb/2020:11:31:48 -0600] "POST /MandyHotel/faces/source/view/imagen.xhtml HTTP/1.1" 200 7691
0:0:0:0:0:0:0:1 - - [01/Feb/2020:11:31:54 -0600] "POST /MandyHotel/faces/source/view/imagen.xhtml HTTP/1.1" 200 7691
0:0:0:0:0:0:0:1 - - [01/Feb/2020:11:32:00 -0600] "POST /MandyHotel/faces/source/view/imagen.xhtml HTTP/1.1" 200 7691
0:0:0:0:0:0:0:1 - - [01/Feb/2020:11:32:06 -0600] "POST /MandyHotel/faces/source/view/imagen.xhtml HTTP/1.1" 200 7691
0:0:0:0:0:0:0:1 - - [01/Feb/2020:11:32:12 -0600] "POST /MandyHotel/faces/source/view/imagen.xhtml HTTP/1.1" 200 7691
0:0:0:0:0:0:0:1 - - [01/Feb/2020:11:32:18 -0600] "POST /MandyHotel/faces/source/view/imagen.xhtml HTTP/1.1" 200 7691
0:0:0:0:0:0:0:1 - - [01/Feb/2020:11:32:24 -0600] "POST /MandyHotel/faces/source/view/imagen.xhtml HTTP/1.1" 200 7691
0:0:0:0:0:0:0:1 - - [01/Feb/2020:11:32:30 -0600] "POST /MandyHotel/faces/source/view/imagen.xhtml HTTP/1.1" 200 7691
0:0:0:0:0:0:0:1 - - [01/Feb/2020:11:32:36 -0600] "POST /MandyHotel/faces/source/view/imagen.xhtml HTTP/1.1" 200 7691
0:0:0:0:0:0:0:1 - - [01/Feb/2020:11:32:42 -0600] "POST /MandyHotel/faces/source/view/imagen.xhtml HTTP/1.1" 200 7691
0:0:0:0:0:0:0:1 - - [01/Feb/2020:11:32:48 -0600] "POST /MandyHotel/faces/source/view/imagen.xhtml HTTP/1.1" 200 7691
0:0:0:0:0:0:0:1 - - [01/Feb/2020:11:32:54 -0600] "POST /MandyHotel/faces/source/view/imagen.xhtml HTTP/1.1" 200 7691
0:0:0:0:0:0:0:1 - - [01/Feb/2020:11:33:00 -0600] "POST /MandyHotel/faces/source/view/imagen.xhtml HTTP/1.1" 200 7691
0:0:0:0:0:0:0:1 - - [01/Feb/2020:11:33:06 -0600] "POST /MandyHotel/faces/source/view/imagen.xhtml HTTP/1.1" 200 7691
0:0:0:0:0:0:0:1 - - [01/Feb/2020:11:33:12 -0600] "POST /MandyHotel/faces/source/view/imagen.xhtml HTTP/1.1" 200 7691
0:0:0:0:0:0:0:1 - - [01/Feb/2020:11:33:18 -0600] "POST /MandyHotel/faces/source/view/imagen.xhtml HTTP/1.1" 200 7691
0:0:0:0:0:0:0:1 - - [01/Feb/2020:11:33:24 -0600] "POST /MandyHotel/faces/source/view/imagen.xhtml HTTP/1.1" 200 7691
0:0:0:0:0:0:0:1 - - [01/Feb/2020:11:33:30 -0600] "POST /MandyHotel/faces/source/view/imagen.xhtml HTTP/1.1" 200 7691
0:0:0:0:0:0:0:1 - - [01/Feb/2020:11:33:36 -0600] "POST /MandyHotel/faces/source/view/imagen.xhtml HTTP/1.1" 200 7691
0:0:0:0:0:0:0:1 - - [01/Feb/2020:11:33:42 -0600] "POST /MandyHotel/faces/source/view/imagen.xhtml HTTP/1.1" 200 7691
0:0:0:0:0:0:0:1 - - [01/Feb/2020:11:33:48 -0600] "POST /MandyHotel/faces/source/view/imagen.xhtml HTTP/1.1" 200 7691
0:0:0:0:0:0:0:1 - - [01/Feb/2020:11:33:54 -0600] "POST /MandyHotel/faces/source/view/imagen.xhtml HTTP/1.1" 200 7691
0:0:0:0:0:0:0:1 - - [01/Feb/2020:11:34:00 -0600] "POST /MandyHotel/faces/source/view/imagen.xhtml HTTP/1.1" 200 7691
0:0:0:0:0:0:0:1 - - [01/Feb/2020:11:34:06 -0600] "POST /MandyHotel/faces/source/view/imagen.xhtml HTTP/1.1" 200 7691
0:0:0:0:0:0:0:1 - - [01/Feb/2020:11:34:12 -0600] "POST /MandyHotel/faces/source/view/imagen.xhtml HTTP/1.1" 200 7691
0:0:0:0:0:0:0:1 - - [01/Feb/2020:11:34:18 -0600] "POST /MandyHotel/faces/source/view/imagen.xhtml HTTP/1.1" 200 7691
0:0:0:0:0:0:0:1 - - [01/Feb/2020:11:34:24 -0600] "POST /MandyHotel/faces/source/view/imagen.xhtml HTTP/1.1" 200 7691
0:0:0:0:0:0:0:1 - - [01/Feb/2020:11:34:30 -0600] "POST /MandyHotel/faces/source/view/imagen.xhtml HTTP/1.1" 200 7691
0:0:0:0:0:0:0:1 - - [01/Feb/2020:11:34:36 -0600] "POST /MandyHotel/faces/source/view/imagen.xhtml HTTP/1.1" 200 7691
0:0:0:0:0:0:0:1 - - [01/Feb/2020:11:34:42 -0600] "POST /MandyHotel/faces/source/view/imagen.xhtml HTTP/1.1" 200 7691
0:0:0:0:0:0:0:1 - - [01/Feb/2020:11:34:48 -0600] "POST /MandyHotel/faces/source/view/imagen.xhtml HTTP/1.1" 200 7691
0:0:0:0:0:0:0:1 - - [01/Feb/2020:11:34:54 -0600] "POST /MandyHotel/faces/source/view/imagen.xhtml HTTP/1.1" 200 7691
0:0:0:0:0:0:0:1 - - [01/Feb/2020:11:35:00 -0600] "POST /MandyHotel/faces/source/view/imagen.xhtml HTTP/1.1" 200 7691
0:0:0:0:0:0:0:1 - - [01/Feb/2020:11:35:06 -0600] "POST /MandyHotel/faces/source/view/imagen.xhtml HTTP/1.1" 200 7691
0:0:0:0:0:0:0:1 - - [01/Feb/2020:11:35:12 -0600] "POST /MandyHotel/faces/source/view/imagen.xhtml HTTP/1.1" 200 7691
0:0:0:0:0:0:0:1 - - [01/Feb/2020:11:35:18 -0600] "POST /MandyHotel/faces/source/view/imagen.xhtml HTTP/1.1" 200 7691
0:0:0:0:0:0:0:1 - - [01/Feb/2020:11:35:24 -0600] "POST /MandyHotel/faces/source/view/imagen.xhtml HTTP/1.1" 200 7691
0:0:0:0:0:0:0:1 - - [01/Feb/2020:11:35:30 -0600] "POST /MandyHotel/faces/source/view/imagen.xhtml HTTP/1.1" 200 7691
0:0:0:0:0:0:0:1 - - [01/Feb/2020:11:35:36 -0600] "POST /MandyHotel/faces/source/view/imagen.xhtml HTTP/1.1" 200 7691
0:0:0:0:0:0:0:1 - - [01/Feb/2020:11:35:42 -0600] "POST /MandyHotel/faces/source/view/imagen.xhtml HTTP/1.1" 200 7691
0:0:0:0:0:0:0:1 - - [01/Feb/2020:11:35:48 -0600] "POST /MandyHotel/faces/source/view/imagen.xhtml HTTP/1.1" 200 7691
0:0:0:0:0:0:0:1 - - [01/Feb/2020:11:35:54 -0600] "POST /MandyHotel/faces/source/view/imagen.xhtml HTTP/1.1" 200 7691
0:0:0:0:0:0:0:1 - - [01/Feb/2020:11:36:00 -0600] "POST /MandyHotel/faces/source/view/imagen.xhtml HTTP/1.1" 200 7691
0:0:0:0:0:0:0:1 - - [01/Feb/2020:11:36:06 -0600] "POST /MandyHotel/faces/source/view/imagen.xhtml HTTP/1.1" 200 7691
0:0:0:0:0:0:0:1 - - [01/Feb/2020:11:36:12 -0600] "POST /MandyHotel/faces/source/view/imagen.xhtml HTTP/1.1" 200 7691
0:0:0:0:0:0:0:1 - - [01/Feb/2020:11:36:18 -0600] "POST /MandyHotel/faces/source/view/imagen.xhtml HTTP/1.1" 200 7691
0:0:0:0:0:0:0:1 - - [01/Feb/2020:11:36:24 -0600] "POST /MandyHotel/faces/source/view/imagen.xhtml HTTP/1.1" 200 7691
0:0:0:0:0:0:0:1 - - [01/Feb/2020:11:36:30 -0600] "POST /MandyHotel/faces/source/view/imagen.xhtml HTTP/1.1" 200 7691
0:0:0:0:0:0:0:1 - - [01/Feb/2020:11:36:36 -0600] "POST /MandyHotel/faces/source/view/imagen.xhtml HTTP/1.1" 200 7691
0:0:0:0:0:0:0:1 - - [01/Feb/2020:11:36:42 -0600] "POST /MandyHotel/faces/source/view/imagen.xhtml HTTP/1.1" 200 7691
0:0:0:0:0:0:0:1 - - [01/Feb/2020:11:36:48 -0600] "POST /MandyHotel/faces/source/view/imagen.xhtml HTTP/1.1" 200 7691
0:0:0:0:0:0:0:1 - - [01/Feb/2020:11:36:54 -0600] "POST /MandyHotel/faces/source/view/imagen.xhtml HTTP/1.1" 200 7691
0:0:0:0:0:0:0:1 - - [01/Feb/2020:11:37:00 -0600] "POST /MandyHotel/faces/source/view/imagen.xhtml HTTP/1.1" 200 7691
0:0:0:0:0:0:0:1 - - [01/Feb/2020:11:37:06 -0600] "POST /MandyHotel/faces/source/view/imagen.xhtml HTTP/1.1" 200 7691
0:0:0:0:0:0:0:1 - - [01/Feb/2020:11:37:12 -0600] "POST /MandyHotel/faces/source/view/imagen.xhtml HTTP/1.1" 200 7691
0:0:0:0:0:0:0:1 - - [01/Feb/2020:11:37:18 -0600] "POST /MandyHotel/faces/source/view/imagen.xhtml HTTP/1.1" 200 7691
0:0:0:0:0:0:0:1 - - [01/Feb/2020:11:37:24 -0600] "POST /MandyHotel/faces/source/view/imagen.xhtml HTTP/1.1" 200 7691
0:0:0:0:0:0:0:1 - - [01/Feb/2020:11:37:30 -0600] "POST /MandyHotel/faces/source/view/imagen.xhtml HTTP/1.1" 200 7691
0:0:0:0:0:0:0:1 - - [01/Feb/2020:11:37:36 -0600] "POST /MandyHotel/faces/source/view/imagen.xhtml HTTP/1.1" 200 7691
0:0:0:0:0:0:0:1 - - [01/Feb/2020:11:37:42 -0600] "POST /MandyHotel/faces/source/view/imagen.xhtml HTTP/1.1" 200 7691
0:0:0:0:0:0:0:1 - - [01/Feb/2020:11:37:48 -0600] "POST /MandyHotel/faces/source/view/imagen.xhtml HTTP/1.1" 200 7691
0:0:0:0:0:0:0:1 - - [01/Feb/2020:11:37:54 -0600] "POST /MandyHotel/faces/source/view/imagen.xhtml HTTP/1.1" 200 7691
0:0:0:0:0:0:0:1 - - [01/Feb/2020:11:38:00 -0600] "POST /MandyHotel/faces/source/view/imagen.xhtml HTTP/1.1" 200 7691
0:0:0:0:0:0:0:1 - - [01/Feb/2020:11:38:06 -0600] "POST /MandyHotel/faces/source/view/imagen.xhtml HTTP/1.1" 200 7691
0:0:0:0:0:0:0:1 - - [01/Feb/2020:11:38:12 -0600] "POST /MandyHotel/faces/source/view/imagen.xhtml HTTP/1.1" 200 7691
0:0:0:0:0:0:0:1 - - [01/Feb/2020:11:38:18 -0600] "POST /MandyHotel/faces/source/view/imagen.xhtml HTTP/1.1" 200 7691
0:0:0:0:0:0:0:1 - - [01/Feb/2020:11:38:24 -0600] "POST /MandyHotel/faces/source/view/imagen.xhtml HTTP/1.1" 200 7691
0:0:0:0:0:0:0:1 - - [01/Feb/2020:11:38:30 -0600] "POST /MandyHotel/faces/source/view/imagen.xhtml HTTP/1.1" 200 7691
0:0:0:0:0:0:0:1 - - [01/Feb/2020:11:38:36 -0600] "POST /MandyHotel/faces/source/view/imagen.xhtml HTTP/1.1" 200 7691
0:0:0:0:0:0:0:1 - - [01/Feb/2020:11:38:42 -0600] "POST /MandyHotel/faces/source/view/imagen.xhtml HTTP/1.1" 200 7691
0:0:0:0:0:0:0:1 - - [01/Feb/2020:11:38:48 -0600] "POST /MandyHotel/faces/source/view/imagen.xhtml HTTP/1.1" 200 7691
0:0:0:0:0:0:0:1 - - [01/Feb/2020:11:38:54 -0600] "POST /MandyHotel/faces/source/view/imagen.xhtml HTTP/1.1" 200 7691
0:0:0:0:0:0:0:1 - - [01/Feb/2020:11:39:00 -0600] "POST /MandyHotel/faces/source/view/imagen.xhtml HTTP/1.1" 200 7691
0:0:0:0:0:0:0:1 - - [01/Feb/2020:11:39:06 -0600] "POST /MandyHotel/faces/source/view/imagen.xhtml HTTP/1.1" 200 7691
0:0:0:0:0:0:0:1 - - [01/Feb/2020:11:39:12 -0600] "POST /MandyHotel/faces/source/view/imagen.xhtml HTTP/1.1" 200 7691
0:0:0:0:0:0:0:1 - - [01/Feb/2020:11:39:18 -0600] "POST /MandyHotel/faces/source/view/imagen.xhtml HTTP/1.1" 200 7691
0:0:0:0:0:0:0:1 - - [01/Feb/2020:11:39:24 -0600] "POST /MandyHotel/faces/source/view/imagen.xhtml HTTP/1.1" 200 7691
0:0:0:0:0:0:0:1 - - [01/Feb/2020:11:39:30 -0600] "POST /MandyHotel/faces/source/view/imagen.xhtml HTTP/1.1" 200 7691
0:0:0:0:0:0:0:1 - - [01/Feb/2020:11:39:36 -0600] "POST /MandyHotel/faces/source/view/imagen.xhtml HTTP/1.1" 200 7691
0:0:0:0:0:0:0:1 - - [01/Feb/2020:11:39:42 -0600] "POST /MandyHotel/faces/source/view/imagen.xhtml HTTP/1.1" 200 7691
0:0:0:0:0:0:0:1 - - [01/Feb/2020:11:39:48 -0600] "POST /MandyHotel/faces/source/view/imagen.xhtml HTTP/1.1" 200 7691
0:0:0:0:0:0:0:1 - - [01/Feb/2020:11:39:54 -0600] "POST /MandyHotel/faces/source/view/imagen.xhtml HTTP/1.1" 200 7691
0:0:0:0:0:0:0:1 - - [01/Feb/2020:11:40:00 -0600] "POST /MandyHotel/faces/source/view/imagen.xhtml HTTP/1.1" 200 7691
0:0:0:0:0:0:0:1 - - [01/Feb/2020:11:40:06 -0600] "POST /MandyHotel/faces/source/view/imagen.xhtml HTTP/1.1" 200 7691
0:0:0:0:0:0:0:1 - - [01/Feb/2020:11:40:12 -0600] "POST /MandyHotel/faces/source/view/imagen.xhtml HTTP/1.1" 200 7691
0:0:0:0:0:0:0:1 - - [01/Feb/2020:11:40:18 -0600] "POST /MandyHotel/faces/source/view/imagen.xhtml HTTP/1.1" 200 7691
0:0:0:0:0:0:0:1 - - [01/Feb/2020:11:40:24 -0600] "POST /MandyHotel/faces/source/view/imagen.xhtml HTTP/1.1" 200 7691
0:0:0:0:0:0:0:1 - - [01/Feb/2020:11:40:30 -0600] "POST /MandyHotel/faces/source/view/imagen.xhtml HTTP/1.1" 200 7691
0:0:0:0:0:0:0:1 - - [01/Feb/2020:11:40:36 -0600] "POST /MandyHotel/faces/source/view/imagen.xhtml HTTP/1.1" 200 7691
0:0:0:0:0:0:0:1 - - [01/Feb/2020:11:40:42 -0600] "POST /MandyHotel/faces/source/view/imagen.xhtml HTTP/1.1" 200 7691
0:0:0:0:0:0:0:1 - - [01/Feb/2020:11:40:48 -0600] "POST /MandyHotel/faces/source/view/imagen.xhtml HTTP/1.1" 200 7691
0:0:0:0:0:0:0:1 - - [01/Feb/2020:11:40:54 -0600] "POST /MandyHotel/faces/source/view/imagen.xhtml HTTP/1.1" 200 7691
0:0:0:0:0:0:0:1 - - [01/Feb/2020:11:41:00 -0600] "POST /MandyHotel/faces/source/view/imagen.xhtml HTTP/1.1" 200 7691
0:0:0:0:0:0:0:1 - - [01/Feb/2020:11:41:06 -0600] "POST /MandyHotel/faces/source/view/imagen.xhtml HTTP/1.1" 200 7691
0:0:0:0:0:0:0:1 - - [01/Feb/2020:11:41:12 -0600] "POST /MandyHotel/faces/source/view/imagen.xhtml HTTP/1.1" 200 7691
0:0:0:0:0:0:0:1 - - [01/Feb/2020:11:41:18 -0600] "POST /MandyHotel/faces/source/view/imagen.xhtml HTTP/1.1" 200 7691
0:0:0:0:0:0:0:1 - - [01/Feb/2020:11:41:24 -0600] "POST /MandyHotel/faces/source/view/imagen.xhtml HTTP/1.1" 200 7691
0:0:0:0:0:0:0:1 - - [01/Feb/2020:11:41:30 -0600] "POST /MandyHotel/faces/source/view/imagen.xhtml HTTP/1.1" 200 7691
0:0:0:0:0:0:0:1 - - [01/Feb/2020:11:41:36 -0600] "POST /MandyHotel/faces/source/view/imagen.xhtml HTTP/1.1" 200 7691
0:0:0:0:0:0:0:1 - - [01/Feb/2020:11:41:42 -0600] "POST /MandyHotel/faces/source/view/imagen.xhtml HTTP/1.1" 200 7691
0:0:0:0:0:0:0:1 - - [01/Feb/2020:11:41:48 -0600] "POST /MandyHotel/faces/source/view/imagen.xhtml HTTP/1.1" 200 7691
0:0:0:0:0:0:0:1 - - [01/Feb/2020:11:41:54 -0600] "POST /MandyHotel/faces/source/view/imagen.xhtml HTTP/1.1" 200 7691
0:0:0:0:0:0:0:1 - - [01/Feb/2020:11:42:00 -0600] "POST /MandyHotel/faces/source/view/imagen.xhtml HTTP/1.1" 200 7691
0:0:0:0:0:0:0:1 - - [01/Feb/2020:11:42:06 -0600] "POST /MandyHotel/faces/source/view/imagen.xhtml HTTP/1.1" 200 7691
0:0:0:0:0:0:0:1 - - [01/Feb/2020:11:42:12 -0600] "POST /MandyHotel/faces/source/view/imagen.xhtml HTTP/1.1" 200 7691
0:0:0:0:0:0:0:1 - - [01/Feb/2020:11:42:18 -0600] "POST /MandyHotel/faces/source/view/imagen.xhtml HTTP/1.1" 200 7691
0:0:0:0:0:0:0:1 - - [01/Feb/2020:11:42:24 -0600] "POST /MandyHotel/faces/source/view/imagen.xhtml HTTP/1.1" 200 7691
0:0:0:0:0:0:0:1 - - [01/Feb/2020:11:42:30 -0600] "POST /MandyHotel/faces/source/view/imagen.xhtml HTTP/1.1" 200 7691
0:0:0:0:0:0:0:1 - - [01/Feb/2020:11:42:36 -0600] "POST /MandyHotel/faces/source/view/imagen.xhtml HTTP/1.1" 200 7691
0:0:0:0:0:0:0:1 - - [01/Feb/2020:11:42:42 -0600] "POST /MandyHotel/faces/source/view/imagen.xhtml HTTP/1.1" 200 7691
0:0:0:0:0:0:0:1 - - [01/Feb/2020:11:42:48 -0600] "POST /MandyHotel/faces/source/view/imagen.xhtml HTTP/1.1" 200 7691
0:0:0:0:0:0:0:1 - - [01/Feb/2020:11:42:54 -0600] "POST /MandyHotel/faces/source/view/imagen.xhtml HTTP/1.1" 200 7691
0:0:0:0:0:0:0:1 - - [01/Feb/2020:11:43:00 -0600] "POST /MandyHotel/faces/source/view/imagen.xhtml HTTP/1.1" 200 7691
0:0:0:0:0:0:0:1 - - [01/Feb/2020:11:43:06 -0600] "POST /MandyHotel/faces/source/view/imagen.xhtml HTTP/1.1" 200 7691
0:0:0:0:0:0:0:1 - - [01/Feb/2020:11:43:12 -0600] "POST /MandyHotel/faces/source/view/imagen.xhtml HTTP/1.1" 200 7691
0:0:0:0:0:0:0:1 - - [01/Feb/2020:11:43:18 -0600] "POST /MandyHotel/faces/source/view/imagen.xhtml HTTP/1.1" 200 7691
0:0:0:0:0:0:0:1 - - [01/Feb/2020:11:43:24 -0600] "POST /MandyHotel/faces/source/view/imagen.xhtml HTTP/1.1" 200 7691
0:0:0:0:0:0:0:1 - - [01/Feb/2020:11:43:30 -0600] "POST /MandyHotel/faces/source/view/imagen.xhtml HTTP/1.1" 200 7691
0:0:0:0:0:0:0:1 - - [01/Feb/2020:11:43:36 -0600] "POST /MandyHotel/faces/source/view/imagen.xhtml HTTP/1.1" 200 7691
0:0:0:0:0:0:0:1 - - [01/Feb/2020:11:43:42 -0600] "POST /MandyHotel/faces/source/view/imagen.xhtml HTTP/1.1" 200 7691
0:0:0:0:0:0:0:1 - - [01/Feb/2020:11:43:48 -0600] "POST /MandyHotel/faces/source/view/imagen.xhtml HTTP/1.1" 200 7691
0:0:0:0:0:0:0:1 - - [01/Feb/2020:11:43:54 -0600] "POST /MandyHotel/faces/source/view/imagen.xhtml HTTP/1.1" 200 7691
0:0:0:0:0:0:0:1 - - [01/Feb/2020:11:44:00 -0600] "POST /MandyHotel/faces/source/view/imagen.xhtml HTTP/1.1" 200 7691
0:0:0:0:0:0:0:1 - - [01/Feb/2020:11:44:06 -0600] "POST /MandyHotel/faces/source/view/imagen.xhtml HTTP/1.1" 200 7691
0:0:0:0:0:0:0:1 - - [01/Feb/2020:11:44:12 -0600] "POST /MandyHotel/faces/source/view/imagen.xhtml HTTP/1.1" 200 7691
0:0:0:0:0:0:0:1 - - [01/Feb/2020:11:44:18 -0600] "POST /MandyHotel/faces/source/view/imagen.xhtml HTTP/1.1" 200 7691
0:0:0:0:0:0:0:1 - - [01/Feb/2020:11:44:24 -0600] "POST /MandyHotel/faces/source/view/imagen.xhtml HTTP/1.1" 200 7691
0:0:0:0:0:0:0:1 - - [01/Feb/2020:11:44:30 -0600] "POST /MandyHotel/faces/source/view/imagen.xhtml HTTP/1.1" 200 7691
0:0:0:0:0:0:0:1 - - [01/Feb/2020:11:44:36 -0600] "POST /MandyHotel/faces/source/view/imagen.xhtml HTTP/1.1" 200 7691
0:0:0:0:0:0:0:1 - - [01/Feb/2020:11:44:42 -0600] "POST /MandyHotel/faces/source/view/imagen.xhtml HTTP/1.1" 200 7691
0:0:0:0:0:0:0:1 - - [01/Feb/2020:11:44:48 -0600] "POST /MandyHotel/faces/source/view/imagen.xhtml HTTP/1.1" 200 7691
0:0:0:0:0:0:0:1 - - [01/Feb/2020:11:44:54 -0600] "POST /MandyHotel/faces/source/view/imagen.xhtml HTTP/1.1" 200 7691
0:0:0:0:0:0:0:1 - - [01/Feb/2020:11:45:00 -0600] "POST /MandyHotel/faces/source/view/imagen.xhtml HTTP/1.1" 200 7691
0:0:0:0:0:0:0:1 - - [01/Feb/2020:11:45:06 -0600] "POST /MandyHotel/faces/source/view/imagen.xhtml HTTP/1.1" 200 7691
0:0:0:0:0:0:0:1 - - [01/Feb/2020:11:45:12 -0600] "POST /MandyHotel/faces/source/view/imagen.xhtml HTTP/1.1" 200 7691
0:0:0:0:0:0:0:1 - - [01/Feb/2020:11:45:18 -0600] "POST /MandyHotel/faces/source/view/imagen.xhtml HTTP/1.1" 200 7691
0:0:0:0:0:0:0:1 - - [01/Feb/2020:11:45:24 -0600] "POST /MandyHotel/faces/source/view/imagen.xhtml HTTP/1.1" 200 7691
0:0:0:0:0:0:0:1 - - [01/Feb/2020:11:45:30 -0600] "POST /MandyHotel/faces/source/view/imagen.xhtml HTTP/1.1" 200 7691
0:0:0:0:0:0:0:1 - - [01/Feb/2020:11:45:36 -0600] "POST /MandyHotel/faces/source/view/imagen.xhtml HTTP/1.1" 200 7691
0:0:0:0:0:0:0:1 - - [01/Feb/2020:11:45:42 -0600] "POST /MandyHotel/faces/source/view/imagen.xhtml HTTP/1.1" 200 7691
0:0:0:0:0:0:0:1 - - [01/Feb/2020:11:45:48 -0600] "POST /MandyHotel/faces/source/view/imagen.xhtml HTTP/1.1" 200 7691
0:0:0:0:0:0:0:1 - - [01/Feb/2020:11:45:54 -0600] "POST /MandyHotel/faces/source/view/imagen.xhtml HTTP/1.1" 200 7691
0:0:0:0:0:0:0:1 - - [01/Feb/2020:11:46:00 -0600] "POST /MandyHotel/faces/source/view/imagen.xhtml HTTP/1.1" 200 7691
0:0:0:0:0:0:0:1 - - [01/Feb/2020:11:46:06 -0600] "POST /MandyHotel/faces/source/view/imagen.xhtml HTTP/1.1" 200 7691
0:0:0:0:0:0:0:1 - - [01/Feb/2020:11:46:12 -0600] "POST /MandyHotel/faces/source/view/imagen.xhtml HTTP/1.1" 200 7691
0:0:0:0:0:0:0:1 - - [01/Feb/2020:11:46:18 -0600] "POST /MandyHotel/faces/source/view/imagen.xhtml HTTP/1.1" 200 7691
0:0:0:0:0:0:0:1 - - [01/Feb/2020:11:46:24 -0600] "POST /MandyHotel/faces/source/view/imagen.xhtml HTTP/1.1" 200 7691
0:0:0:0:0:0:0:1 - - [01/Feb/2020:11:46:30 -0600] "POST /MandyHotel/faces/source/view/imagen.xhtml HTTP/1.1" 200 7691
0:0:0:0:0:0:0:1 - - [01/Feb/2020:11:46:36 -0600] "POST /MandyHotel/faces/source/view/imagen.xhtml HTTP/1.1" 200 7691
0:0:0:0:0:0:0:1 - - [01/Feb/2020:11:46:42 -0600] "POST /MandyHotel/faces/source/view/imagen.xhtml HTTP/1.1" 200 7691
0:0:0:0:0:0:0:1 - - [01/Feb/2020:11:46:48 -0600] "POST /MandyHotel/faces/source/view/imagen.xhtml HTTP/1.1" 200 7691
0:0:0:0:0:0:0:1 - - [01/Feb/2020:11:46:54 -0600] "POST /MandyHotel/faces/source/view/imagen.xhtml HTTP/1.1" 200 7691
0:0:0:0:0:0:0:1 - - [01/Feb/2020:11:47:00 -0600] "POST /MandyHotel/faces/source/view/imagen.xhtml HTTP/1.1" 200 7691
0:0:0:0:0:0:0:1 - - [01/Feb/2020:11:47:06 -0600] "POST /MandyHotel/faces/source/view/imagen.xhtml HTTP/1.1" 200 7691
0:0:0:0:0:0:0:1 - - [01/Feb/2020:11:47:12 -0600] "POST /MandyHotel/faces/source/view/imagen.xhtml HTTP/1.1" 200 7691
0:0:0:0:0:0:0:1 - - [01/Feb/2020:11:47:18 -0600] "POST /MandyHotel/faces/source/view/imagen.xhtml HTTP/1.1" 200 7691
0:0:0:0:0:0:0:1 - - [01/Feb/2020:11:47:24 -0600] "POST /MandyHotel/faces/source/view/imagen.xhtml HTTP/1.1" 200 7691
0:0:0:0:0:0:0:1 - - [01/Feb/2020:11:47:30 -0600] "POST /MandyHotel/faces/source/view/imagen.xhtml HTTP/1.1" 200 7691
0:0:0:0:0:0:0:1 - - [01/Feb/2020:11:47:36 -0600] "POST /MandyHotel/faces/source/view/imagen.xhtml HTTP/1.1" 200 7691
0:0:0:0:0:0:0:1 - - [01/Feb/2020:11:47:42 -0600] "POST /MandyHotel/faces/source/view/imagen.xhtml HTTP/1.1" 200 7691
0:0:0:0:0:0:0:1 - - [01/Feb/2020:11:47:48 -0600] "POST /MandyHotel/faces/source/view/imagen.xhtml HTTP/1.1" 200 7691
0:0:0:0:0:0:0:1 - - [01/Feb/2020:11:47:54 -0600] "POST /MandyHotel/faces/source/view/imagen.xhtml HTTP/1.1" 200 7691
0:0:0:0:0:0:0:1 - - [01/Feb/2020:11:48:00 -0600] "POST /MandyHotel/faces/source/view/imagen.xhtml HTTP/1.1" 200 7691
0:0:0:0:0:0:0:1 - - [01/Feb/2020:11:48:06 -0600] "POST /MandyHotel/faces/source/view/imagen.xhtml HTTP/1.1" 200 7691
0:0:0:0:0:0:0:1 - - [01/Feb/2020:11:48:12 -0600] "POST /MandyHotel/faces/source/view/imagen.xhtml HTTP/1.1" 200 7691
0:0:0:0:0:0:0:1 - - [01/Feb/2020:11:48:18 -0600] "POST /MandyHotel/faces/source/view/imagen.xhtml HTTP/1.1" 200 7691
0:0:0:0:0:0:0:1 - - [01/Feb/2020:11:48:24 -0600] "POST /MandyHotel/faces/source/view/imagen.xhtml HTTP/1.1" 200 7691
0:0:0:0:0:0:0:1 - - [01/Feb/2020:11:48:30 -0600] "POST /MandyHotel/faces/source/view/imagen.xhtml HTTP/1.1" 200 7691
0:0:0:0:0:0:0:1 - - [01/Feb/2020:11:48:36 -0600] "POST /MandyHotel/faces/source/view/imagen.xhtml HTTP/1.1" 200 7691
0:0:0:0:0:0:0:1 - - [01/Feb/2020:11:48:42 -0600] "POST /MandyHotel/faces/source/view/imagen.xhtml HTTP/1.1" 200 7691
0:0:0:0:0:0:0:1 - - [01/Feb/2020:11:48:48 -0600] "POST /MandyHotel/faces/source/view/imagen.xhtml HTTP/1.1" 200 7691
0:0:0:0:0:0:0:1 - - [01/Feb/2020:11:48:54 -0600] "POST /MandyHotel/faces/source/view/imagen.xhtml HTTP/1.1" 200 7691
0:0:0:0:0:0:0:1 - - [01/Feb/2020:11:49:00 -0600] "POST /MandyHotel/faces/source/view/imagen.xhtml HTTP/1.1" 200 7691
0:0:0:0:0:0:0:1 - - [01/Feb/2020:11:49:06 -0600] "POST /MandyHotel/faces/source/view/imagen.xhtml HTTP/1.1" 200 7691
0:0:0:0:0:0:0:1 - - [01/Feb/2020:11:49:12 -0600] "POST /MandyHotel/faces/source/view/imagen.xhtml HTTP/1.1" 200 7691
0:0:0:0:0:0:0:1 - - [01/Feb/2020:11:49:18 -0600] "POST /MandyHotel/faces/source/view/imagen.xhtml HTTP/1.1" 200 7691
0:0:0:0:0:0:0:1 - - [01/Feb/2020:11:49:24 -0600] "POST /MandyHotel/faces/source/view/imagen.xhtml HTTP/1.1" 200 7691
0:0:0:0:0:0:0:1 - - [01/Feb/2020:11:49:30 -0600] "POST /MandyHotel/faces/source/view/imagen.xhtml HTTP/1.1" 200 7691
0:0:0:0:0:0:0:1 - - [01/Feb/2020:11:49:36 -0600] "POST /MandyHotel/faces/source/view/imagen.xhtml HTTP/1.1" 200 7691
0:0:0:0:0:0:0:1 - - [01/Feb/2020:11:49:42 -0600] "POST /MandyHotel/faces/source/view/imagen.xhtml HTTP/1.1" 200 7691
0:0:0:0:0:0:0:1 - - [01/Feb/2020:11:49:48 -0600] "POST /MandyHotel/faces/source/view/imagen.xhtml HTTP/1.1" 200 7691
0:0:0:0:0:0:0:1 - - [01/Feb/2020:11:49:54 -0600] "POST /MandyHotel/faces/source/view/imagen.xhtml HTTP/1.1" 200 7691
0:0:0:0:0:0:0:1 - - [01/Feb/2020:11:50:00 -0600] "POST /MandyHotel/faces/source/view/imagen.xhtml HTTP/1.1" 200 7691
0:0:0:0:0:0:0:1 - - [01/Feb/2020:11:50:06 -0600] "POST /MandyHotel/faces/source/view/imagen.xhtml HTTP/1.1" 200 7691
0:0:0:0:0:0:0:1 - - [01/Feb/2020:11:50:12 -0600] "POST /MandyHotel/faces/source/view/imagen.xhtml HTTP/1.1" 200 7691
0:0:0:0:0:0:0:1 - - [01/Feb/2020:11:50:18 -0600] "POST /MandyHotel/faces/source/view/imagen.xhtml HTTP/1.1" 200 7691
0:0:0:0:0:0:0:1 - - [01/Feb/2020:11:50:24 -0600] "POST /MandyHotel/faces/source/view/imagen.xhtml HTTP/1.1" 200 7691
0:0:0:0:0:0:0:1 - - [01/Feb/2020:11:50:30 -0600] "POST /MandyHotel/faces/source/view/imagen.xhtml HTTP/1.1" 200 7691
0:0:0:0:0:0:0:1 - - [01/Feb/2020:11:50:36 -0600] "POST /MandyHotel/faces/source/view/imagen.xhtml HTTP/1.1" 200 7691
0:0:0:0:0:0:0:1 - - [01/Feb/2020:11:50:42 -0600] "POST /MandyHotel/faces/source/view/imagen.xhtml HTTP/1.1" 200 7691
0:0:0:0:0:0:0:1 - - [01/Feb/2020:11:50:48 -0600] "POST /MandyHotel/faces/source/view/imagen.xhtml HTTP/1.1" 200 7691
0:0:0:0:0:0:0:1 - - [01/Feb/2020:11:50:54 -0600] "POST /MandyHotel/faces/source/view/imagen.xhtml HTTP/1.1" 200 7691
0:0:0:0:0:0:0:1 - - [01/Feb/2020:11:51:00 -0600] "POST /MandyHotel/faces/source/view/imagen.xhtml HTTP/1.1" 200 7691
0:0:0:0:0:0:0:1 - - [01/Feb/2020:11:51:06 -0600] "POST /MandyHotel/faces/source/view/imagen.xhtml HTTP/1.1" 200 7691
0:0:0:0:0:0:0:1 - - [01/Feb/2020:11:51:12 -0600] "POST /MandyHotel/faces/source/view/imagen.xhtml HTTP/1.1" 200 7691
0:0:0:0:0:0:0:1 - - [01/Feb/2020:11:51:18 -0600] "POST /MandyHotel/faces/source/view/imagen.xhtml HTTP/1.1" 200 7691
0:0:0:0:0:0:0:1 - - [01/Feb/2020:11:51:24 -0600] "POST /MandyHotel/faces/source/view/imagen.xhtml HTTP/1.1" 200 7691
0:0:0:0:0:0:0:1 - - [01/Feb/2020:11:51:30 -0600] "POST /MandyHotel/faces/source/view/imagen.xhtml HTTP/1.1" 200 7691
0:0:0:0:0:0:0:1 - - [01/Feb/2020:11:51:36 -0600] "POST /MandyHotel/faces/source/view/imagen.xhtml HTTP/1.1" 200 7691
0:0:0:0:0:0:0:1 - - [01/Feb/2020:11:51:42 -0600] "POST /MandyHotel/faces/source/view/imagen.xhtml HTTP/1.1" 200 7691
0:0:0:0:0:0:0:1 - - [01/Feb/2020:11:51:48 -0600] "POST /MandyHotel/faces/source/view/imagen.xhtml HTTP/1.1" 200 7691
0:0:0:0:0:0:0:1 - - [01/Feb/2020:11:51:54 -0600] "POST /MandyHotel/faces/source/view/imagen.xhtml HTTP/1.1" 200 7691
0:0:0:0:0:0:0:1 - - [01/Feb/2020:11:52:00 -0600] "POST /MandyHotel/faces/source/view/imagen.xhtml HTTP/1.1" 200 7691
0:0:0:0:0:0:0:1 - - [01/Feb/2020:11:52:06 -0600] "POST /MandyHotel/faces/source/view/imagen.xhtml HTTP/1.1" 200 7691
0:0:0:0:0:0:0:1 - - [01/Feb/2020:11:52:12 -0600] "POST /MandyHotel/faces/source/view/imagen.xhtml HTTP/1.1" 200 7691
0:0:0:0:0:0:0:1 - - [01/Feb/2020:11:52:18 -0600] "POST /MandyHotel/faces/source/view/imagen.xhtml HTTP/1.1" 200 7691
0:0:0:0:0:0:0:1 - - [01/Feb/2020:11:52:24 -0600] "POST /MandyHotel/faces/source/view/imagen.xhtml HTTP/1.1" 200 7691
0:0:0:0:0:0:0:1 - - [01/Feb/2020:11:52:30 -0600] "POST /MandyHotel/faces/source/view/imagen.xhtml HTTP/1.1" 200 7691
0:0:0:0:0:0:0:1 - - [01/Feb/2020:11:52:36 -0600] "POST /MandyHotel/faces/source/view/imagen.xhtml HTTP/1.1" 200 7691
0:0:0:0:0:0:0:1 - - [01/Feb/2020:11:52:42 -0600] "POST /MandyHotel/faces/source/view/imagen.xhtml HTTP/1.1" 200 7691
0:0:0:0:0:0:0:1 - - [01/Feb/2020:11:52:48 -0600] "POST /MandyHotel/faces/source/view/imagen.xhtml HTTP/1.1" 200 7691
0:0:0:0:0:0:0:1 - - [01/Feb/2020:11:52:54 -0600] "POST /MandyHotel/faces/source/view/imagen.xhtml HTTP/1.1" 200 7691
0:0:0:0:0:0:0:1 - - [01/Feb/2020:11:53:00 -0600] "POST /MandyHotel/faces/source/view/imagen.xhtml HTTP/1.1" 200 7691
0:0:0:0:0:0:0:1 - - [01/Feb/2020:11:53:06 -0600] "POST /MandyHotel/faces/source/view/imagen.xhtml HTTP/1.1" 200 7691
0:0:0:0:0:0:0:1 - - [01/Feb/2020:11:53:12 -0600] "POST /MandyHotel/faces/source/view/imagen.xhtml HTTP/1.1" 200 7691
0:0:0:0:0:0:0:1 - - [01/Feb/2020:11:53:18 -0600] "POST /MandyHotel/faces/source/view/imagen.xhtml HTTP/1.1" 200 7691
0:0:0:0:0:0:0:1 - - [01/Feb/2020:11:53:24 -0600] "POST /MandyHotel/faces/source/view/imagen.xhtml HTTP/1.1" 200 7691
0:0:0:0:0:0:0:1 - - [01/Feb/2020:11:53:30 -0600] "POST /MandyHotel/faces/source/view/imagen.xhtml HTTP/1.1" 200 7691
0:0:0:0:0:0:0:1 - - [01/Feb/2020:11:53:36 -0600] "POST /MandyHotel/faces/source/view/imagen.xhtml HTTP/1.1" 200 7691
0:0:0:0:0:0:0:1 - - [01/Feb/2020:11:53:42 -0600] "POST /MandyHotel/faces/source/view/imagen.xhtml HTTP/1.1" 200 7691
0:0:0:0:0:0:0:1 - - [01/Feb/2020:11:53:48 -0600] "POST /MandyHotel/faces/source/view/imagen.xhtml HTTP/1.1" 200 7691
0:0:0:0:0:0:0:1 - - [01/Feb/2020:11:53:54 -0600] "POST /MandyHotel/faces/source/view/imagen.xhtml HTTP/1.1" 200 7691
0:0:0:0:0:0:0:1 - - [01/Feb/2020:11:54:00 -0600] "POST /MandyHotel/faces/source/view/imagen.xhtml HTTP/1.1" 200 7691
0:0:0:0:0:0:0:1 - - [01/Feb/2020:11:54:06 -0600] "POST /MandyHotel/faces/source/view/imagen.xhtml HTTP/1.1" 200 7691
0:0:0:0:0:0:0:1 - - [01/Feb/2020:11:54:12 -0600] "POST /MandyHotel/faces/source/view/imagen.xhtml HTTP/1.1" 200 7691
0:0:0:0:0:0:0:1 - - [01/Feb/2020:11:54:18 -0600] "POST /MandyHotel/faces/source/view/imagen.xhtml HTTP/1.1" 200 7691
0:0:0:0:0:0:0:1 - - [01/Feb/2020:11:54:24 -0600] "POST /MandyHotel/faces/source/view/imagen.xhtml HTTP/1.1" 200 7691
0:0:0:0:0:0:0:1 - - [01/Feb/2020:11:54:30 -0600] "POST /MandyHotel/faces/source/view/imagen.xhtml HTTP/1.1" 200 7691
0:0:0:0:0:0:0:1 - - [01/Feb/2020:11:54:36 -0600] "POST /MandyHotel/faces/source/view/imagen.xhtml HTTP/1.1" 200 7691
0:0:0:0:0:0:0:1 - - [01/Feb/2020:11:54:42 -0600] "POST /MandyHotel/faces/source/view/imagen.xhtml HTTP/1.1" 200 7691
0:0:0:0:0:0:0:1 - - [01/Feb/2020:11:54:48 -0600] "POST /MandyHotel/faces/source/view/imagen.xhtml HTTP/1.1" 200 7691
0:0:0:0:0:0:0:1 - - [01/Feb/2020:11:54:54 -0600] "POST /MandyHotel/faces/source/view/imagen.xhtml HTTP/1.1" 200 7691
0:0:0:0:0:0:0:1 - - [01/Feb/2020:11:55:00 -0600] "POST /MandyHotel/faces/source/view/imagen.xhtml HTTP/1.1" 200 7691
0:0:0:0:0:0:0:1 - - [01/Feb/2020:11:55:06 -0600] "POST /MandyHotel/faces/source/view/imagen.xhtml HTTP/1.1" 200 7691
0:0:0:0:0:0:0:1 - - [01/Feb/2020:11:55:12 -0600] "POST /MandyHotel/faces/source/view/imagen.xhtml HTTP/1.1" 200 7691
0:0:0:0:0:0:0:1 - - [01/Feb/2020:11:55:18 -0600] "POST /MandyHotel/faces/source/view/imagen.xhtml HTTP/1.1" 200 7691
0:0:0:0:0:0:0:1 - - [01/Feb/2020:11:55:24 -0600] "POST /MandyHotel/faces/source/view/imagen.xhtml HTTP/1.1" 200 7691
0:0:0:0:0:0:0:1 - - [01/Feb/2020:11:55:30 -0600] "POST /MandyHotel/faces/source/view/imagen.xhtml HTTP/1.1" 200 7691
0:0:0:0:0:0:0:1 - - [01/Feb/2020:11:55:36 -0600] "POST /MandyHotel/faces/source/view/imagen.xhtml HTTP/1.1" 200 7691
0:0:0:0:0:0:0:1 - - [01/Feb/2020:11:55:42 -0600] "POST /MandyHotel/faces/source/view/imagen.xhtml HTTP/1.1" 200 7691
0:0:0:0:0:0:0:1 - - [01/Feb/2020:11:55:48 -0600] "POST /MandyHotel/faces/source/view/imagen.xhtml HTTP/1.1" 200 7691
0:0:0:0:0:0:0:1 - - [01/Feb/2020:11:55:54 -0600] "POST /MandyHotel/faces/source/view/imagen.xhtml HTTP/1.1" 200 7691
0:0:0:0:0:0:0:1 - - [01/Feb/2020:11:56:00 -0600] "POST /MandyHotel/faces/source/view/imagen.xhtml HTTP/1.1" 200 7691
